div_unit.vcd
$date
	Mon Oct 13 08:04:12 2025
$end
$version
	Icarus Verilog
$end
$timescale
	1ps
$end
$scope module tb_div_unit $end
$var wire 1 ! done $end
$var wire 32 " div_result [31:0] $end
$var reg 1 # clk $end
$var reg 32 $ dividend [31:0] $end
$var reg 32 % divisor [31:0] $end
$var reg 2 & mode [1:0] $end
$var reg 1 ' rst_n $end
$var reg 1 ( start $end
$var integer 32 ) i [31:0] $end
$scope module dut $end
$var wire 1 # clk $end
$var wire 32 * dividend [31:0] $end
$var wire 32 + divisor [31:0] $end
$var wire 2 , mode [1:0] $end
$var wire 1 ' rst_n $end
$var wire 1 ( start $end
$var wire 32 - sub_res [31:0] $end
$var wire 1 . sub_ok $end
$var wire 64 / remainder_shifted [63:0] $end
$var wire 64 0 remainder_next [63:0] $end
$var wire 32 1 quotient_next [31:0] $end
$var parameter 2 2 DIV $end
$var parameter 2 3 DIVU $end
$var parameter 2 4 REM $end
$var parameter 2 5 REMU $end
$var reg 1 6 busy $end
$var reg 6 7 count [5:0] $end
$var reg 32 8 div_result [31:0] $end
$var reg 32 9 divisor_abs [31:0] $end
$var reg 1 ! done $end
$var reg 32 : quotient_reg [31:0] $end
$var reg 64 ; remainder_reg [63:0] $end
$var reg 1 < sign_a $end
$var reg 1 = sign_b $end
$upscope $end
$scope task run_case $end
$var integer 32 > idx [31:0] $end
$var integer 32 ? timeout [31:0] $end
$upscope $end
$upscope $end
$enddefinitions $end
$comment Show the parameter values. $end
$dumpall
b11 5
b10 4
b1 3
b0 2
$end
#0
$dumpvars
bx ?
bx >
0=
0<
b0 ;
b0 :
b0 9
b0 8
b0 7
06
b1 1
b0 0
b0 /
1.
b0 -
bx ,
bx +
bx *
bx )
0(
0'
bx &
bx %
bx $
1#
b0 "
0!
$end
#5000
0#
#10000
1#
#15000
0#
#20000
b1110 0
b1110 /
b0 1
0.
b111 ;
b11111111111111111111111111111110 -
b10 9
b100000 7
16
1#
1(
b10 %
b10 +
b111 $
b111 *
b0 &
b0 ,
b0 >
b0 )
1'
#25000
0#
#30000
b11100 0
b11100 /
b11111 7
b1110 ;
1#
0(
#35000
0#
#40000
b111000 0
b111000 /
b11110 7
b11100 ;
1#
b0 ?
#45000
0#
#50000
b1110000 0
b1110000 /
b11101 7
b111000 ;
1#
b1 ?
#55000
0#
#60000
b11100000 0
b11100000 /
b11100 7
b1110000 ;
1#
b10 ?
#65000
0#
#70000
b111000000 0
b111000000 /
b11011 7
b11100000 ;
1#
b11 ?
#75000
0#
#80000
b1110000000 0
b1110000000 /
b11010 7
b111000000 ;
1#
b100 ?
#85000
0#
#90000
b11100000000 0
b11100000000 /
b11001 7
b1110000000 ;
1#
b101 ?
#95000
0#
#100000
b111000000000 0
b111000000000 /
b11000 7
b11100000000 ;
1#
b110 ?
#105000
0#
#110000
b1110000000000 0
b1110000000000 /
b10111 7
b111000000000 ;
1#
b111 ?
#115000
0#
#120000
b11100000000000 0
b11100000000000 /
b10110 7
b1110000000000 ;
1#
b1000 ?
#125000
0#
#130000
b111000000000000 0
b111000000000000 /
b10101 7
b11100000000000 ;
1#
b1001 ?
#135000
0#
#140000
b1110000000000000 0
b1110000000000000 /
b10100 7
b111000000000000 ;
1#
b1010 ?
#145000
0#
#150000
b11100000000000000 0
b11100000000000000 /
b10011 7
b1110000000000000 ;
1#
b1011 ?
#155000
0#
#160000
b111000000000000000 0
b111000000000000000 /
b10010 7
b11100000000000000 ;
1#
b1100 ?
#165000
0#
#170000
b1110000000000000000 0
b1110000000000000000 /
b10001 7
b111000000000000000 ;
1#
b1101 ?
#175000
0#
#180000
b11100000000000000000 0
b11100000000000000000 /
b10000 7
b1110000000000000000 ;
1#
b1110 ?
#185000
0#
#190000
b111000000000000000000 0
b111000000000000000000 /
b1111 7
b11100000000000000000 ;
1#
b1111 ?
#195000
0#
#200000
b1110000000000000000000 0
b1110000000000000000000 /
b1110 7
b111000000000000000000 ;
1#
b10000 ?
#205000
0#
#210000
b11100000000000000000000 0
b11100000000000000000000 /
b1101 7
b1110000000000000000000 ;
1#
b10001 ?
#215000
0#
#220000
b111000000000000000000000 0
b111000000000000000000000 /
b1100 7
b11100000000000000000000 ;
1#
b10010 ?
#225000
0#
#230000
b1110000000000000000000000 0
b1110000000000000000000000 /
b1011 7
b111000000000000000000000 ;
1#
b10011 ?
#235000
0#
#240000
b11100000000000000000000000 0
b11100000000000000000000000 /
b1010 7
b1110000000000000000000000 ;
1#
b10100 ?
#245000
0#
#250000
b111000000000000000000000000 0
b111000000000000000000000000 /
b1001 7
b11100000000000000000000000 ;
1#
b10101 ?
#255000
0#
#260000
b1110000000000000000000000000 0
b1110000000000000000000000000 /
b1000 7
b111000000000000000000000000 ;
1#
b10110 ?
#265000
0#
#270000
b11100000000000000000000000000 0
b11100000000000000000000000000 /
b111 7
b1110000000000000000000000000 ;
1#
b10111 ?
#275000
0#
#280000
b111000000000000000000000000000 0
b111000000000000000000000000000 /
b110 7
b11100000000000000000000000000 ;
1#
b11000 ?
#285000
0#
#290000
b1110000000000000000000000000000 0
b1110000000000000000000000000000 /
b101 7
b111000000000000000000000000000 ;
1#
b11001 ?
#295000
0#
#300000
b11100000000000000000000000000000 0
b11100000000000000000000000000000 /
b100 7
b1110000000000000000000000000000 ;
1#
b11010 ?
#305000
0#
#310000
b11111111111111111111111111111111 -
b111000000000000000000000000000000 0
b111000000000000000000000000000000 /
b11 7
b11100000000000000000000000000000 ;
1#
b11011 ?
#315000
0#
#320000
b1 1
1.
b1 -
b110000000000000000000000000000000 0
b1110000000000000000000000000000000 /
b10 7
b111000000000000000000000000000000 ;
1#
b11100 ?
#325000
0#
#330000
b100000000000000000000000000000000 0
b11 1
b1100000000000000000000000000000000 /
b1 7
b1 :
b110000000000000000000000000000000 ;
1#
b11101 ?
#335000
0#
#340000
b0 0
b0 -
b111 1
b1000000000000000000000000000000000 /
b11 "
b11 8
1!
06
b0 7
b11 :
b100000000000000000000000000000000 ;
1#
b11110 ?
#345000
0#
#350000
0!
1#
b11111 ?
#355000
0#
#360000
b11001000 /
b11001000 0
b0 1
0.
b1100100 ;
b11111111111111111111111111111001 -
b111 9
1<
b0 :
b100000 7
16
1#
1(
b111 %
b111 +
b11111111111111111111111110011100 $
b11111111111111111111111110011100 *
b1 >
b1 )
#365000
0#
#370000
b110010000 0
b110010000 /
b11111 7
b11001000 ;
1#
0(
#375000
0#
#380000
b1100100000 0
b1100100000 /
b11110 7
b110010000 ;
1#
b0 ?
#385000
0#
#390000
b11001000000 0
b11001000000 /
b11101 7
b1100100000 ;
1#
b1 ?
#395000
0#
#400000
b110010000000 0
b110010000000 /
b11100 7
b11001000000 ;
1#
b10 ?
#405000
0#
#410000
b1100100000000 0
b1100100000000 /
b11011 7
b110010000000 ;
1#
b11 ?
#415000
0#
#420000
b11001000000000 0
b11001000000000 /
b11010 7
b1100100000000 ;
1#
b100 ?
#425000
0#
#430000
b110010000000000 0
b110010000000000 /
b11001 7
b11001000000000 ;
1#
b101 ?
#435000
0#
#440000
b1100100000000000 0
b1100100000000000 /
b11000 7
b110010000000000 ;
1#
b110 ?
#445000
0#
#450000
b11001000000000000 0
b11001000000000000 /
b10111 7
b1100100000000000 ;
1#
b111 ?
#455000
0#
#460000
b110010000000000000 0
b110010000000000000 /
b10110 7
b11001000000000000 ;
1#
b1000 ?
#465000
0#
#470000
b1100100000000000000 0
b1100100000000000000 /
b10101 7
b110010000000000000 ;
1#
b1001 ?
#475000
0#
#480000
b11001000000000000000 0
b11001000000000000000 /
b10100 7
b1100100000000000000 ;
1#
b1010 ?
#485000
0#
#490000
b110010000000000000000 0
b110010000000000000000 /
b10011 7
b11001000000000000000 ;
1#
b1011 ?
#495000
0#
#500000
b1100100000000000000000 0
b1100100000000000000000 /
b10010 7
b110010000000000000000 ;
1#
b1100 ?
#505000
0#
#510000
b11001000000000000000000 0
b11001000000000000000000 /
b10001 7
b1100100000000000000000 ;
1#
b1101 ?
#515000
0#
#520000
b110010000000000000000000 0
b110010000000000000000000 /
b10000 7
b11001000000000000000000 ;
1#
b1110 ?
#525000
0#
#530000
b1100100000000000000000000 0
b1100100000000000000000000 /
b1111 7
b110010000000000000000000 ;
1#
b1111 ?
#535000
0#
#540000
b11001000000000000000000000 0
b11001000000000000000000000 /
b1110 7
b1100100000000000000000000 ;
1#
b10000 ?
#545000
0#
#550000
b110010000000000000000000000 0
b110010000000000000000000000 /
b1101 7
b11001000000000000000000000 ;
1#
b10001 ?
#555000
0#
#560000
b1100100000000000000000000000 0
b1100100000000000000000000000 /
b1100 7
b110010000000000000000000000 ;
1#
b10010 ?
#565000
0#
#570000
b11001000000000000000000000000 0
b11001000000000000000000000000 /
b1011 7
b1100100000000000000000000000 ;
1#
b10011 ?
#575000
0#
#580000
b110010000000000000000000000000 0
b110010000000000000000000000000 /
b1010 7
b11001000000000000000000000000 ;
1#
b10100 ?
#585000
0#
#590000
b1100100000000000000000000000000 0
b1100100000000000000000000000000 /
b1001 7
b110010000000000000000000000000 ;
1#
b10101 ?
#595000
0#
#600000
b11001000000000000000000000000000 0
b11001000000000000000000000000000 /
b1000 7
b1100100000000000000000000000000 ;
1#
b10110 ?
#605000
0#
#610000
b11111111111111111111111111111010 -
b110010000000000000000000000000000 0
b110010000000000000000000000000000 /
b111 7
b11001000000000000000000000000000 ;
1#
b10111 ?
#615000
0#
#620000
b11111111111111111111111111111100 -
b1100100000000000000000000000000000 0
b1100100000000000000000000000000000 /
b110 7
b110010000000000000000000000000000 ;
1#
b11000 ?
#625000
0#
#630000
b11111111111111111111111111111111 -
b11001000000000000000000000000000000 0
b11001000000000000000000000000000000 /
b101 7
b1100100000000000000000000000000000 ;
1#
b11001 ?
#635000
0#
#640000
b1 1
1.
b101 -
b10110000000000000000000000000000000 0
b110010000000000000000000000000000000 /
b100 7
b11001000000000000000000000000000000 ;
1#
b11010 ?
#645000
0#
#650000
b10000000000000000000000000000000000 0
b100 -
b11 1
b101100000000000000000000000000000000 /
b11 7
b1 :
b10110000000000000000000000000000000 ;
1#
b11011 ?
#655000
0#
#660000
b100000000000000000000000000000000 0
b1 -
b111 1
b100000000000000000000000000000000000 /
b10 7
b11 :
b10000000000000000000000000000000000 ;
1#
b11100 ?
#665000
0#
#670000
b1000000000000000000000000000000000 0
0.
b11111111111111111111111111111011 -
b1110 1
b1000000000000000000000000000000000 /
b1 7
b111 :
b100000000000000000000000000000000 ;
1#
b11101 ?
#675000
0#
#680000
b11111111111111111111111111111101 -
b10000000000000000000000000000000000 0
b11100 1
b10000000000000000000000000000000000 /
b11111111111111111111111111110010 "
b11111111111111111111111111110010 8
1!
06
b0 7
b1110 :
b1000000000000000000000000000000000 ;
1#
b11110 ?
#685000
0#
#690000
0!
1#
b11111 ?
#695000
0#
#700000
b100110100100 0
b100110100100 /
b0 1
b10011010010 ;
b11111111111111111111111111110101 -
b1011 9
1=
0<
b0 :
b100000 7
16
1#
1(
b11111111111111111111111111110101 %
b11111111111111111111111111110101 +
b10011010010 $
b10011010010 *
b10 >
b10 )
#705000
0#
#710000
b1001101001000 0
b1001101001000 /
b11111 7
b100110100100 ;
1#
0(
#715000
0#
#720000
b10011010010000 0
b10011010010000 /
b11110 7
b1001101001000 ;
1#
b0 ?
#725000
0#
#730000
b100110100100000 0
b100110100100000 /
b11101 7
b10011010010000 ;
1#
b1 ?
#735000
0#
#740000
b1001101001000000 0
b1001101001000000 /
b11100 7
b100110100100000 ;
1#
b10 ?
#745000
0#
#750000
b10011010010000000 0
b10011010010000000 /
b11011 7
b1001101001000000 ;
1#
b11 ?
#755000
0#
#760000
b100110100100000000 0
b100110100100000000 /
b11010 7
b10011010010000000 ;
1#
b100 ?
#765000
0#
#770000
b1001101001000000000 0
b1001101001000000000 /
b11001 7
b100110100100000000 ;
1#
b101 ?
#775000
0#
#780000
b10011010010000000000 0
b10011010010000000000 /
b11000 7
b1001101001000000000 ;
1#
b110 ?
#785000
0#
#790000
b100110100100000000000 0
b100110100100000000000 /
b10111 7
b10011010010000000000 ;
1#
b111 ?
#795000
0#
#800000
b1001101001000000000000 0
b1001101001000000000000 /
b10110 7
b100110100100000000000 ;
1#
b1000 ?
#805000
0#
#810000
b10011010010000000000000 0
b10011010010000000000000 /
b10101 7
b1001101001000000000000 ;
1#
b1001 ?
#815000
0#
#820000
b100110100100000000000000 0
b100110100100000000000000 /
b10100 7
b10011010010000000000000 ;
1#
b1010 ?
#825000
0#
#830000
b1001101001000000000000000 0
b1001101001000000000000000 /
b10011 7
b100110100100000000000000 ;
1#
b1011 ?
#835000
0#
#840000
b10011010010000000000000000 0
b10011010010000000000000000 /
b10010 7
b1001101001000000000000000 ;
1#
b1100 ?
#845000
0#
#850000
b100110100100000000000000000 0
b100110100100000000000000000 /
b10001 7
b10011010010000000000000000 ;
1#
b1101 ?
#855000
0#
#860000
b1001101001000000000000000000 0
b1001101001000000000000000000 /
b10000 7
b100110100100000000000000000 ;
1#
b1110 ?
#865000
0#
#870000
b10011010010000000000000000000 0
b10011010010000000000000000000 /
b1111 7
b1001101001000000000000000000 ;
1#
b1111 ?
#875000
0#
#880000
b100110100100000000000000000000 0
b100110100100000000000000000000 /
b1110 7
b10011010010000000000000000000 ;
1#
b10000 ?
#885000
0#
#890000
b1001101001000000000000000000000 0
b1001101001000000000000000000000 /
b1101 7
b100110100100000000000000000000 ;
1#
b10001 ?
#895000
0#
#900000
b10011010010000000000000000000000 0
b10011010010000000000000000000000 /
b1100 7
b1001101001000000000000000000000 ;
1#
b10010 ?
#905000
0#
#910000
b11111111111111111111111111110110 -
b100110100100000000000000000000000 0
b100110100100000000000000000000000 /
b1011 7
b10011010010000000000000000000000 ;
1#
b10011 ?
#915000
0#
#920000
b11111111111111111111111111110111 -
b1001101001000000000000000000000000 0
b1001101001000000000000000000000000 /
b1010 7
b100110100100000000000000000000000 ;
1#
b10100 ?
#925000
0#
#930000
b11111111111111111111111111111001 -
b10011010010000000000000000000000000 0
b10011010010000000000000000000000000 /
b1001 7
b1001101001000000000000000000000000 ;
1#
b10101 ?
#935000
0#
#940000
b11111111111111111111111111111110 -
b100110100100000000000000000000000000 0
b100110100100000000000000000000000000 /
b1000 7
b10011010010000000000000000000000000 ;
1#
b10110 ?
#945000
0#
#950000
b1 1
1.
b1000 -
b100001001000000000000000000000000000 0
b1001101001000000000000000000000000000 /
b111 7
b100110100100000000000000000000000000 ;
1#
b10111 ?
#955000
0#
#960000
b10110010000000000000000000000000000 0
b101 -
b11 1
b1000010010000000000000000000000000000 /
b110 7
b1 :
b100001001000000000000000000000000000 ;
1#
b11000 ?
#965000
0#
#970000
b100000000000000000000000000000 0
b0 -
b111 1
b101100100000000000000000000000000000 /
b101 7
b11 :
b10110010000000000000000000000000000 ;
1#
b11001 ?
#975000
0#
#980000
b1000000000000000000000000000000 0
0.
b11111111111111111111111111110101 -
b1110 1
b1000000000000000000000000000000 /
b100 7
b111 :
b100000000000000000000000000000 ;
1#
b11010 ?
#985000
0#
#990000
b10000000000000000000000000000000 0
b11100 1
b10000000000000000000000000000000 /
b11 7
b1110 :
b1000000000000000000000000000000 ;
1#
b11011 ?
#995000
0#
#1000000
b11111111111111111111111111110110 -
b100000000000000000000000000000000 0
b111000 1
b100000000000000000000000000000000 /
b10 7
b11100 :
b10000000000000000000000000000000 ;
1#
b11100 ?
#1005000
0#
#1010000
b11111111111111111111111111110111 -
b1000000000000000000000000000000000 0
b1110000 1
b1000000000000000000000000000000000 /
b1 7
b111000 :
b100000000000000000000000000000000 ;
1#
b11101 ?
#1015000
0#
#1020000
b11111111111111111111111111111001 -
b10000000000000000000000000000000000 0
b11100000 1
b10000000000000000000000000000000000 /
b11111111111111111111111110010000 "
b11111111111111111111111110010000 8
1!
06
b0 7
b1110000 :
b1000000000000000000000000000000000 ;
1#
b11110 ?
#1025000
0#
#1030000
0!
1#
b11111 ?
#1035000
0#
#1040000
b100000000000000000000000000000000 /
b0 0
b1 1
1.
b10000000000000000000000000000000 ;
b0 -
b1 9
1<
b0 :
b100000 7
16
1#
1(
b11111111111111111111111111111111 %
b11111111111111111111111111111111 +
b10000000000000000000000000000000 $
b10000000000000000000000000000000 *
b11 >
b11 )
#1045000
0#
#1050000
0.
b11111111111111111111111111111111 -
b10 1
b0 /
b11111 7
b1 :
b0 ;
1#
0(
#1055000
0#
#1060000
b100 1
b11110 7
b10 :
1#
b0 ?
#1065000
0#
#1070000
b1000 1
b11101 7
b100 :
1#
b1 ?
#1075000
0#
#1080000
b10000 1
b11100 7
b1000 :
1#
b10 ?
#1085000
0#
#1090000
b100000 1
b11011 7
b10000 :
1#
b11 ?
#1095000
0#
#1100000
b1000000 1
b11010 7
b100000 :
1#
b100 ?
#1105000
0#
#1110000
b10000000 1
b11001 7
b1000000 :
1#
b101 ?
#1115000
0#
#1120000
b100000000 1
b11000 7
b10000000 :
1#
b110 ?
#1125000
0#
#1130000
b1000000000 1
b10111 7
b100000000 :
1#
b111 ?
#1135000
0#
#1140000
b10000000000 1
b10110 7
b1000000000 :
1#
b1000 ?
#1145000
0#
#1150000
b100000000000 1
b10101 7
b10000000000 :
1#
b1001 ?
#1155000
0#
#1160000
b1000000000000 1
b10100 7
b100000000000 :
1#
b1010 ?
#1165000
0#
#1170000
b10000000000000 1
b10011 7
b1000000000000 :
1#
b1011 ?
#1175000
0#
#1180000
b100000000000000 1
b10010 7
b10000000000000 :
1#
b1100 ?
#1185000
0#
#1190000
b1000000000000000 1
b10001 7
b100000000000000 :
1#
b1101 ?
#1195000
0#
#1200000
b10000000000000000 1
b10000 7
b1000000000000000 :
1#
b1110 ?
#1205000
0#
#1210000
b100000000000000000 1
b1111 7
b10000000000000000 :
1#
b1111 ?
#1215000
0#
#1220000
b1000000000000000000 1
b1110 7
b100000000000000000 :
1#
b10000 ?
#1225000
0#
#1230000
b10000000000000000000 1
b1101 7
b1000000000000000000 :
1#
b10001 ?
#1235000
0#
#1240000
b100000000000000000000 1
b1100 7
b10000000000000000000 :
1#
b10010 ?
#1245000
0#
#1250000
b1000000000000000000000 1
b1011 7
b100000000000000000000 :
1#
b10011 ?
#1255000
0#
#1260000
b10000000000000000000000 1
b1010 7
b1000000000000000000000 :
1#
b10100 ?
#1265000
0#
#1270000
b100000000000000000000000 1
b1001 7
b10000000000000000000000 :
1#
b10101 ?
#1275000
0#
#1280000
b1000000000000000000000000 1
b1000 7
b100000000000000000000000 :
1#
b10110 ?
#1285000
0#
#1290000
b10000000000000000000000000 1
b111 7
b1000000000000000000000000 :
1#
b10111 ?
#1295000
0#
#1300000
b100000000000000000000000000 1
b110 7
b10000000000000000000000000 :
1#
b11000 ?
#1305000
0#
#1310000
b1000000000000000000000000000 1
b101 7
b100000000000000000000000000 :
1#
b11001 ?
#1315000
0#
#1320000
b10000000000000000000000000000 1
b100 7
b1000000000000000000000000000 :
1#
b11010 ?
#1325000
0#
#1330000
b100000000000000000000000000000 1
b11 7
b10000000000000000000000000000 :
1#
b11011 ?
#1335000
0#
#1340000
b1000000000000000000000000000000 1
b10 7
b100000000000000000000000000000 :
1#
b11100 ?
#1345000
0#
#1350000
b10000000000000000000000000000000 1
b1 7
b1000000000000000000000000000000 :
1#
b11101 ?
#1355000
0#
#1360000
b0 1
b10000000000000000000000000000000 "
b10000000000000000000000000000000 8
1!
06
b0 7
b10000000000000000000000000000000 :
1#
b11110 ?
#1365000
0#
#1370000
0!
1#
b11111 ?
#1375000
0#
#1380000
1!
b1111111111111111111111111111111 "
b1111111111111111111111111111111 8
1#
1(
b0 %
b0 +
b110111 $
b110111 *
b100 >
b100 )
#1385000
0#
#1390000
0!
1#
0(
#1395000
0#
#1400000
1#
b0 ?
#1405000
0#
#1410000
1#
b1 ?
#1415000
0#
#1420000
1#
b10 ?
#1425000
0#
#1430000
1#
b11 ?
#1435000
0#
#1440000
1#
b100 ?
#1445000
0#
#1450000
1#
b101 ?
#1455000
0#
#1460000
1#
b110 ?
#1465000
0#
#1470000
1#
b111 ?
#1475000
0#
#1480000
1#
b1000 ?
#1485000
0#
#1490000
1#
b1001 ?
#1495000
0#
#1500000
1#
b1010 ?
#1505000
0#
#1510000
1#
b1011 ?
#1515000
0#
#1520000
1#
b1100 ?
#1525000
0#
#1530000
1#
b1101 ?
#1535000
0#
#1540000
1#
b1110 ?
#1545000
0#
#1550000
1#
b1111 ?
#1555000
0#
#1560000
1#
b10000 ?
#1565000
0#
#1570000
1#
b10001 ?
#1575000
0#
#1580000
1#
b10010 ?
#1585000
0#
#1590000
1#
b10011 ?
#1595000
0#
#1600000
1#
b10100 ?
#1605000
0#
#1610000
1#
b10101 ?
#1615000
0#
#1620000
1#
b10110 ?
#1625000
0#
#1630000
1#
b10111 ?
#1635000
0#
#1640000
1#
b11000 ?
#1645000
0#
#1650000
1#
b11001 ?
#1655000
0#
#1660000
1#
b11010 ?
#1665000
0#
#1670000
1#
b11011 ?
#1675000
0#
#1680000
1#
b11100 ?
#1685000
0#
#1690000
1#
b11101 ?
#1695000
0#
#1700000
1#
b11110 ?
#1705000
0#
#1710000
1#
b11111 ?
#1715000
0#
#1720000
1#
b100000 ?
#1725000
0#
#1730000
1#
b100001 ?
#1735000
0#
#1740000
1#
b100010 ?
#1745000
0#
#1750000
1#
b100011 ?
#1755000
0#
#1760000
1#
b100100 ?
#1765000
0#
#1770000
1#
b100101 ?
#1775000
0#
#1780000
1#
b100110 ?
#1785000
0#
#1790000
1#
b100111 ?
#1795000
0#
#1800000
1#
b101000 ?
#1805000
0#
#1810000
1#
b101001 ?
#1815000
0#
#1820000
1#
b101010 ?
#1825000
0#
#1830000
1#
b101011 ?
#1835000
0#
#1840000
1#
b101100 ?
#1845000
0#
#1850000
1#
b101101 ?
#1855000
0#
#1860000
1#
b101110 ?
#1865000
0#
#1870000
1#
b101111 ?
#1875000
0#
#1880000
1#
b110000 ?
#1885000
0#
#1890000
1#
b110001 ?
#1895000
0#
#1900000
1#
b110010 ?
#1905000
0#
#1910000
1#
b110011 ?
#1915000
0#
#1920000
1#
b110100 ?
#1925000
0#
#1930000
1#
b110101 ?
#1935000
0#
#1940000
1#
b110110 ?
#1945000
0#
#1950000
1#
b110111 ?
#1955000
0#
#1960000
1#
b111000 ?
#1965000
0#
#1970000
1#
b111001 ?
#1975000
0#
#1980000
1#
b111010 ?
#1985000
0#
#1990000
1#
b111011 ?
#1995000
0#
#2000000
1#
b111100 ?
#2005000
0#
#2010000
1#
b111101 ?
#2015000
0#
#2020000
1#
b111110 ?
#2025000
0#
#2030000
1#
b111111 ?
#2035000
0#
#2040000
1#
b1000000 ?
#2045000
0#
#2050000
1#
b1000001 ?
#2055000
0#
#2060000
1#
b1000010 ?
#2065000
0#
#2070000
1#
b1000011 ?
#2075000
0#
#2080000
1#
b1000100 ?
#2085000
0#
#2090000
1#
b1000101 ?
#2095000
0#
#2100000
1#
b1000110 ?
#2105000
0#
#2110000
1#
b1000111 ?
#2115000
0#
#2120000
1#
b1001000 ?
#2125000
0#
#2130000
1#
b1001001 ?
#2135000
0#
#2140000
1#
b1001010 ?
#2145000
0#
#2150000
1#
b1001011 ?
#2155000
0#
#2160000
1#
b1001100 ?
#2165000
0#
#2170000
1#
b1001101 ?
#2175000
0#
#2180000
1#
b1001110 ?
#2185000
0#
#2190000
1#
b1001111 ?
#2195000
0#
#2200000
1#
b1010000 ?
#2205000
0#
#2210000
1#
b1010001 ?
#2215000
0#
#2220000
1#
b1010010 ?
#2225000
0#
#2230000
1#
b1010011 ?
#2235000
0#
#2240000
1#
b1010100 ?
#2245000
0#
#2250000
1#
b1010101 ?
#2255000
0#
#2260000
1#
b1010110 ?
#2265000
0#
#2270000
1#
b1010111 ?
#2275000
0#
#2280000
1#
b1011000 ?
#2285000
0#
#2290000
1#
b1011001 ?
#2295000
0#
#2300000
1#
b1011010 ?
#2305000
0#
#2310000
1#
b1011011 ?
#2315000
0#
#2320000
1#
b1011100 ?
#2325000
0#
#2330000
1#
b1011101 ?
#2335000
0#
#2340000
1#
b1011110 ?
#2345000
0#
#2350000
1#
b1011111 ?
#2355000
0#
#2360000
1#
b1100000 ?
#2365000
0#
#2370000
1#
b1100001 ?
#2375000
0#
#2380000
1#
b1100010 ?
#2385000
0#
#2390000
1#
b1100011 ?
#2395000
0#
#2400000
1#
b1100100 ?
#2405000
0#
#2410000
1#
b1100101 ?
#2415000
0#
#2420000
1#
b1100110 ?
#2425000
0#
#2430000
1#
b1100111 ?
#2435000
0#
#2440000
1#
b1101000 ?
#2445000
0#
#2450000
1#
b1101001 ?
#2455000
0#
#2460000
1#
b1101010 ?
#2465000
0#
#2470000
1#
b1101011 ?
#2475000
0#
#2480000
1#
b1101100 ?
#2485000
0#
#2490000
1#
b1101101 ?
#2495000
0#
#2500000
1#
b1101110 ?
#2505000
0#
#2510000
1#
b1101111 ?
#2515000
0#
#2520000
1#
b1110000 ?
#2525000
0#
#2530000
1#
b1110001 ?
#2535000
0#
#2540000
1#
b1110010 ?
#2545000
0#
#2550000
1#
b1110011 ?
#2555000
0#
#2560000
1#
b1110100 ?
#2565000
0#
#2570000
1#
b1110101 ?
#2575000
0#
#2580000
1#
b1110110 ?
#2585000
0#
#2590000
1#
b1110111 ?
#2595000
0#
#2600000
1#
b1111000 ?
#2605000
0#
#2610000
1#
b1111001 ?
#2615000
0#
#2620000
1#
b1111010 ?
#2625000
0#
#2630000
1#
b1111011 ?
#2635000
0#
#2640000
1#
b1111100 ?
#2645000
0#
#2650000
1#
b1111101 ?
#2655000
0#
#2660000
1#
b1111110 ?
#2665000
0#
#2670000
1#
b1111111 ?
#2675000
0#
#2680000
1#
b10000000 ?
#2685000
0#
#2690000
1#
b10000001 ?
#2695000
0#
#2700000
1#
b10000010 ?
#2705000
0#
#2710000
1#
b10000011 ?
#2715000
0#
#2720000
1#
b10000100 ?
#2725000
0#
#2730000
1#
b10000101 ?
#2735000
0#
#2740000
1#
b10000110 ?
#2745000
0#
#2750000
1#
b10000111 ?
#2755000
0#
#2760000
1#
b10001000 ?
#2765000
0#
#2770000
1#
b10001001 ?
#2775000
0#
#2780000
1#
b10001010 ?
#2785000
0#
#2790000
1#
b10001011 ?
#2795000
0#
#2800000
1#
b10001100 ?
#2805000
0#
#2810000
1#
b10001101 ?
#2815000
0#
#2820000
1#
b10001110 ?
#2825000
0#
#2830000
1#
b10001111 ?
#2835000
0#
#2840000
1#
b10010000 ?
#2845000
0#
#2850000
1#
b10010001 ?
#2855000
0#
#2860000
1#
b10010010 ?
#2865000
0#
#2870000
1#
b10010011 ?
#2875000
0#
#2880000
1#
b10010100 ?
#2885000
0#
#2890000
1#
b10010101 ?
#2895000
0#
#2900000
1#
b10010110 ?
#2905000
0#
#2910000
1#
b10010111 ?
#2915000
0#
#2920000
1#
b10011000 ?
#2925000
0#
#2930000
1#
b10011001 ?
#2935000
0#
#2940000
1#
b10011010 ?
#2945000
0#
#2950000
1#
b10011011 ?
#2955000
0#
#2960000
1#
b10011100 ?
#2965000
0#
#2970000
1#
b10011101 ?
#2975000
0#
#2980000
1#
b10011110 ?
#2985000
0#
#2990000
1#
b10011111 ?
#2995000
0#
#3000000
1#
b10100000 ?
#3005000
0#
#3010000
1#
b10100001 ?
#3015000
0#
#3020000
1#
b10100010 ?
#3025000
0#
#3030000
1#
b10100011 ?
#3035000
0#
#3040000
1#
b10100100 ?
#3045000
0#
#3050000
1#
b10100101 ?
#3055000
0#
#3060000
1#
b10100110 ?
#3065000
0#
#3070000
1#
b10100111 ?
#3075000
0#
#3080000
1#
b10101000 ?
#3085000
0#
#3090000
1#
b10101001 ?
#3095000
0#
#3100000
1#
b10101010 ?
#3105000
0#
#3110000
1#
b10101011 ?
#3115000
0#
#3120000
1#
b10101100 ?
#3125000
0#
#3130000
1#
b10101101 ?
#3135000
0#
#3140000
1#
b10101110 ?
#3145000
0#
#3150000
1#
b10101111 ?
#3155000
0#
#3160000
1#
b10110000 ?
#3165000
0#
#3170000
1#
b10110001 ?
#3175000
0#
#3180000
1#
b10110010 ?
#3185000
0#
#3190000
1#
b10110011 ?
#3195000
0#
#3200000
1#
b10110100 ?
#3205000
0#
#3210000
1#
b10110101 ?
#3215000
0#
#3220000
1#
b10110110 ?
#3225000
0#
#3230000
1#
b10110111 ?
#3235000
0#
#3240000
1#
b10111000 ?
#3245000
0#
#3250000
1#
b10111001 ?
#3255000
0#
#3260000
1#
b10111010 ?
#3265000
0#
#3270000
1#
b10111011 ?
#3275000
0#
#3280000
1#
b10111100 ?
#3285000
0#
#3290000
1#
b10111101 ?
#3295000
0#
#3300000
1#
b10111110 ?
#3305000
0#
#3310000
1#
b10111111 ?
#3315000
0#
#3320000
1#
b11000000 ?
#3325000
0#
#3330000
1#
b11000001 ?
#3335000
0#
#3340000
1#
b11000010 ?
#3345000
0#
#3350000
1#
b11000011 ?
#3355000
0#
#3360000
1#
b11000100 ?
#3365000
0#
#3370000
1#
b11000101 ?
#3375000
0#
#3380000
1#
b11000110 ?
#3385000
0#
#3390000
1#
b11000111 ?
#3395000
0#
#3400000
1#
b11001000 ?
#3405000
0#
#3410000
1#
b11001001 ?
#3415000
0#
#3420000
1#
b11001010 ?
#3425000
0#
#3430000
1#
b11001011 ?
#3435000
0#
#3440000
1#
b11001100 ?
#3445000
0#
#3450000
1#
b11001101 ?
#3455000
0#
#3460000
1#
b11001110 ?
#3465000
0#
#3470000
1#
b11001111 ?
#3475000
0#
#3480000
1#
b11010000 ?
#3485000
0#
#3490000
1#
b11010001 ?
#3495000
0#
#3500000
1#
b11010010 ?
#3505000
0#
#3510000
1#
b11010011 ?
#3515000
0#
#3520000
1#
b11010100 ?
#3525000
0#
#3530000
1#
b11010101 ?
#3535000
0#
#3540000
1#
b11010110 ?
