sim/gtkwave/tb_test_v2.vcd
$date
	Tue Oct 14 14:18:49 2025
$end
$version
	Icarus Verilog
$end
$timescale
	1ps
$end
$scope module tb_core_test $end
$var wire 1 ! branch_event $end
$var wire 1 " branch_not_taken_event $end
$var wire 1 # jal_pc_event $end
$var wire 1 $ jalr_pc_event $end
$var wire 1 % mem_event $end
$var wire 1 & wb_event $end
$var parameter 32 ' LINE_LEN $end
$var parameter 32 ( MAX_GOLDEN $end
$var parameter 32 ) STRLEN $end
$var reg 1 * clk $end
$var reg 1 + found_local $end
$var reg 1 , handled_br $end
$var reg 1 - handled_br_not_taken $end
$var reg 1 . handled_jal_pc $end
$var reg 1 / handled_jalr_pc $end
$var reg 1 0 handled_mem $end
$var reg 1 1 handled_wb $end
$var reg 32 2 instr_commit [31:0] $end
$var reg 8192 3 line [8191:0] $end
$var reg 32 4 pc_commit [31:0] $end
$var reg 1 5 read_ok $end
$var reg 1 6 reset_n $end
$var reg 512 7 s_instr [511:0] $end
$var reg 512 8 s_pc [511:0] $end
$var reg 512 9 s_t3 [511:0] $end
$var reg 512 : s_t4 [511:0] $end
$var reg 512 ; s_t5 [511:0] $end
$var reg 512 < s_t6 [511:0] $end
$var integer 32 = commits_this_cycle [31:0] $end
$var integer 32 > fd_golden [31:0] $end
$var integer 32 ? golden_cnt [31:0] $end
$var integer 32 @ i [31:0] $end
$var integer 32 A j [31:0] $end
$var integer 32 B mismatch_count [31:0] $end
$var integer 32 C n [31:0] $end
$var integer 32 D pass_count [31:0] $end
$var integer 32 E rdnum [31:0] $end
$var integer 32 F ret [31:0] $end
$scope module dut $end
$var wire 32 G address [31:0] $end
$var wire 1 * clk $end
$var wire 1 H div_start_pulse $end
$var wire 1 6 reset_n $end
$var wire 1 I trapReq $end
$var wire 32 J rs2_data_src [31:0] $end
$var wire 32 K rs2_data [31:0] $end
$var wire 32 L rs1_data_src [31:0] $end
$var wire 32 M rs1_data [31:0] $end
$var wire 1 N regWEn_src $end
$var wire 1 O regWEn_mux $end
$var wire 1 P regWEn $end
$var wire 32 Q read_data [31:0] $end
$var wire 1 R pc_write $end
$var wire 32 S pc_jump_jalr [31:0] $end
$var wire 32 T pc_jump_jal [31:0] $end
$var wire 1 U memRead_mux $end
$var wire 1 V memRead $end
$var wire 1 W is_jalr $end
$var wire 1 X is_div $end
$var wire 32 Y instruction [31:0] $end
$var wire 32 Z imm [31:0] $end
$var wire 3 [ funct3 [2:0] $end
$var wire 2 \ forwardB [1:0] $end
$var wire 2 ] forwardA [1:0] $end
$var wire 1 ^ flush $end
$var wire 32 _ div_result [31:0] $end
$var wire 2 ` div_mode [1:0] $end
$var wire 1 a div_done $end
$var wire 32 b data_in [31:0] $end
$var wire 1 c control_MuxSel $end
$var wire 1 d branch $end
$var wire 32 e alu_src [31:0] $end
$var wire 32 f alu_out [31:0] $end
$var wire 32 g alu_b_src [31:0] $end
$var wire 32 h alu_b [31:0] $end
$var wire 32 i alu_a_src [31:0] $end
$var wire 32 j alu_a [31:0] $end
$var wire 2 k WBSel_mux [1:0] $end
$var wire 2 l WBSel [1:0] $end
$var wire 32 m PC_next [31:0] $end
$var wire 1 n MemW_mux $end
$var wire 1 o MemW $end
$var wire 1 p MEMWB_trapReq_out $end
$var wire 1 q MEMWB_regWEn_out $end
$var wire 32 r MEMWB_pc_out [31:0] $end
$var wire 32 s MEMWB_mem_data_out [31:0] $end
$var wire 1 t MEMWB_is_jalr_out $end
$var wire 1 u MEMWB_is_div_out $end
$var wire 32 v MEMWB_instr_out [31:0] $end
$var wire 5 w MEMWB_addr_rd_out [4:0] $end
$var wire 2 x MEMWB_WBSel_out [1:0] $end
$var wire 32 y MEMWB_ALU_res_out [31:0] $end
$var wire 1 z IFID_write $end
$var wire 32 { IFID_pc_out [31:0] $end
$var wire 32 | IFID_instr_out [31:0] $end
$var wire 1 } IDEX_write $end
$var wire 1 ~ IDEX_trapReq_out $end
$var wire 32 !" IDEX_rs2_out [31:0] $end
$var wire 32 "" IDEX_rs1_out [31:0] $end
$var wire 1 #" IDEX_regWEn_out $end
$var wire 32 $" IDEX_pc_out [31:0] $end
$var wire 1 %" IDEX_memRead_out $end
$var wire 1 &" IDEX_is_jalr_out $end
$var wire 1 '" IDEX_is_div_out $end
$var wire 32 (" IDEX_instr_out [31:0] $end
$var wire 32 )" IDEX_imm_out [31:0] $end
$var wire 3 *" IDEX_funct3_out [2:0] $end
$var wire 2 +" IDEX_div_mode_out [1:0] $end
$var wire 1 ," IDEX_branch_out $end
$var wire 5 -" IDEX_addr_rs2_out [4:0] $end
$var wire 5 ." IDEX_addr_rs1_out [4:0] $end
$var wire 5 /" IDEX_addr_rd_out [4:0] $end
$var wire 2 0" IDEX_WBSel_out [1:0] $end
$var wire 1 1" IDEX_MemW_out $end
$var wire 1 2" IDEX_BrUn_out $end
$var wire 1 3" IDEX_BSel_out $end
$var wire 1 4" IDEX_ASel_out $end
$var wire 5 5" IDEX_ALUSel_out [4:0] $end
$var wire 1 6" EXMEM_trapReq_out $end
$var wire 32 7" EXMEM_rs2_out [31:0] $end
$var wire 1 8" EXMEM_regWEn_out $end
$var wire 32 9" EXMEM_pc_out [31:0] $end
$var wire 1 :" EXMEM_memRead_out $end
$var wire 1 ;" EXMEM_is_jalr_out $end
$var wire 1 <" EXMEM_is_div_out $end
$var wire 32 =" EXMEM_instr_out [31:0] $end
$var wire 3 >" EXMEM_funct3_out [2:0] $end
$var wire 5 ?" EXMEM_addr_rd_out [4:0] $end
$var wire 2 @" EXMEM_WBSel_out [1:0] $end
$var wire 1 A" EXMEM_MemW_out $end
$var wire 1 B" EXMEM_BrLT_out $end
$var wire 1 C" EXMEM_BrEq_out $end
$var wire 32 D" EXMEM_ALU_res_out [31:0] $end
$var wire 1 E" BrUn_mux $end
$var wire 1 F" BrUn $end
$var wire 1 G" BrLt $end
$var wire 1 H" BrEq $end
$var wire 1 I" BSel_mux $end
$var wire 1 J" BSel $end
$var wire 5 K" Addr_rs2 [4:0] $end
$var wire 5 L" Addr_rs1 [4:0] $end
$var wire 5 M" Addr_rd [4:0] $end
$var wire 1 N" ASel_mux $end
$var wire 1 O" ASel $end
$var wire 5 P" ALUSel_mux [4:0] $end
$var wire 5 Q" ALUSel [4:0] $end
$var reg 1 R" IDEX_is_div_dly $end
$var reg 32 S" PC [31:0] $end
$var reg 1 T" take_branch $end
$scope module ALU $end
$var wire 32 U" A [31:0] $end
$var wire 32 V" B [31:0] $end
$var wire 5 W" ALU_Sel [4:0] $end
$var reg 32 X" ALU_Out [31:0] $end
$var reg 64 Y" product [63:0] $end
$upscope $end
$scope module Branch $end
$var wire 32 Z" rs1 [31:0] $end
$var wire 32 [" rs2 [31:0] $end
$var wire 1 \" lt_unsigned $end
$var wire 1 ]" lt_signed $end
$var wire 1 ^" eq $end
$var wire 1 2" BrUn $end
$var reg 1 H" BrEq $end
$var reg 1 G" BrLt $end
$upscope $end
$scope module Control_unit $end
$var wire 32 _" instruction [31:0] $end
$var wire 1 B" BrLt $end
$var wire 1 C" BrEq $end
$var reg 5 `" ALUSel [4:0] $end
$var reg 1 O" ASel $end
$var reg 1 J" BSel $end
$var reg 1 F" BrUn $end
$var reg 1 o MemW $end
$var reg 2 a" WBSel [1:0] $end
$var reg 1 d branch $end
$var reg 2 b" div_mode [1:0] $end
$var reg 1 ^ flush $end
$var reg 1 X is_div $end
$var reg 1 W is_jalr $end
$var reg 1 V memRead $end
$var reg 1 P regWEn $end
$var reg 1 I trapReq $end
$upscope $end
$scope module DIV $end
$var wire 1 * clk $end
$var wire 32 c" dividend [31:0] $end
$var wire 32 d" divisor [31:0] $end
$var wire 1 6 rst_n $end
$var wire 1 H start $end
$var wire 32 e" sub_res [31:0] $end
$var wire 1 f" sub_ok $end
$var wire 64 g" remainder_shifted [63:0] $end
$var wire 64 h" remainder_next [63:0] $end
$var wire 32 i" quotient_next [31:0] $end
$var wire 2 j" mode [1:0] $end
$var parameter 2 k" DIV $end
$var parameter 2 l" DIVU $end
$var parameter 2 m" REM $end
$var parameter 2 n" REMU $end
$var reg 1 o" busy $end
$var reg 6 p" count [5:0] $end
$var reg 32 q" div_result [31:0] $end
$var reg 32 r" divisor_abs [31:0] $end
$var reg 1 a done $end
$var reg 32 s" quotient_reg [31:0] $end
$var reg 64 t" remainder_reg [63:0] $end
$var reg 1 u" sign_a $end
$var reg 1 v" sign_b $end
$upscope $end
$scope module DMEM $end
$var wire 1 * clk $end
$var wire 32 w" write_data [31:0] $end
$var wire 10 x" word_address [9:0] $end
$var wire 1 :" memRead $end
$var wire 3 y" funct3 [2:0] $end
$var wire 32 z" address [31:0] $end
$var wire 1 A" MemW $end
$var reg 32 {" read_data [31:0] $end
$upscope $end
$scope module EX_MEM $end
$var wire 32 |" ALU_res_in [31:0] $end
$var wire 1 H" BrEq_in $end
$var wire 1 G" BrLT_in $end
$var wire 1 }" PCSel_in $end
$var wire 1 * clk $end
$var wire 1 N regWEn_in $end
$var wire 1 6 reset $end
$var wire 32 ~" rs2_in [31:0] $end
$var wire 1 ~ trapReq_in $end
$var wire 32 !# pc_in [31:0] $end
$var wire 1 %" memRead_in $end
$var wire 1 &" is_jalr_in $end
$var wire 1 '" is_div_in $end
$var wire 32 "# instr_in [31:0] $end
$var wire 3 ## funct3_in [2:0] $end
$var wire 5 $# addr_rd_in [4:0] $end
$var wire 2 %# WBSel_in [1:0] $end
$var wire 1 1" MemW_in $end
$var reg 32 &# ALU_res_out [31:0] $end
$var reg 1 C" BrEq_out $end
$var reg 1 B" BrLT_out $end
$var reg 1 A" MemW_out $end
$var reg 2 '# WBSel_out [1:0] $end
$var reg 5 (# addr_rd_out [4:0] $end
$var reg 3 )# funct3_out [2:0] $end
$var reg 32 *# instr_out [31:0] $end
$var reg 1 <" is_div_out $end
$var reg 1 ;" is_jalr_out $end
$var reg 1 :" memRead_out $end
$var reg 32 +# pc_out [31:0] $end
$var reg 1 8" regWEn_out $end
$var reg 32 ,# rs2_out [31:0] $end
$var reg 1 6" trapReq_out $end
$upscope $end
$scope module ID_EX $end
$var wire 5 -# ALUSel_in [4:0] $end
$var wire 1 N" ASel_in $end
$var wire 1 I" BSel_in $end
$var wire 1 E" BrUn_in $end
$var wire 1 n MemW_in $end
$var wire 2 .# WBSel_in [1:0] $end
$var wire 5 /# addr_rd_in [4:0] $end
$var wire 5 0# addr_rs1_in [4:0] $end
$var wire 5 1# addr_rs2_in [4:0] $end
$var wire 1 d branch_in $end
$var wire 1 * clk $end
$var wire 2 2# div_mode_in [1:0] $end
$var wire 1 T" flush_branch $end
$var wire 3 3# funct3_in [2:0] $end
$var wire 1 X is_div_in $end
$var wire 1 W is_jalr_in $end
$var wire 1 U memRead_in $end
$var wire 1 O regWEn_in $end
$var wire 1 6 reset $end
$var wire 32 4# rs1_in [31:0] $end
$var wire 32 5# rs2_in [31:0] $end
$var wire 1 I trapReq_in $end
$var wire 32 6# pc_in [31:0] $end
$var wire 32 7# instr_in [31:0] $end
$var wire 32 8# imm_in [31:0] $end
$var wire 1 } IDEX_write $end
$var reg 5 9# ALUSel_out [4:0] $end
$var reg 1 4" ASel_out $end
$var reg 1 3" BSel_out $end
$var reg 1 2" BrUn_out $end
$var reg 1 1" MemW_out $end
$var reg 2 :# WBSel_out [1:0] $end
$var reg 5 ;# addr_rd_out [4:0] $end
$var reg 5 <# addr_rs1_out [4:0] $end
$var reg 5 =# addr_rs2_out [4:0] $end
$var reg 1 ," branch_out $end
$var reg 2 ># div_mode_out [1:0] $end
$var reg 3 ?# funct3_out [2:0] $end
$var reg 32 @# imm_out [31:0] $end
$var reg 32 A# instr_out [31:0] $end
$var reg 1 '" is_div_out $end
$var reg 1 &" is_jalr_out $end
$var reg 1 %" memRead_out $end
$var reg 32 B# pc_out [31:0] $end
$var reg 1 #" regWEn_out $end
$var reg 32 C# rs1_out [31:0] $end
$var reg 32 D# rs2_out [31:0] $end
$var reg 1 ~ trapReq_out $end
$upscope $end
$scope module IF_ID $end
$var wire 1 * clk $end
$var wire 1 T" flush_branch $end
$var wire 1 ^ flush_jal $end
$var wire 32 E# pc_in [31:0] $end
$var wire 1 6 reset $end
$var wire 32 F# instr_in [31:0] $end
$var wire 1 z IFID_write $end
$var parameter 32 G# NOP $end
$var reg 32 H# instr_out [31:0] $end
$var reg 32 I# pc_out [31:0] $end
$upscope $end
$scope module IMEM $end
$var wire 32 J# address [31:0] $end
$var reg 32 K# instruction [31:0] $end
$upscope $end
$scope module MEM_WB $end
$var wire 32 L# ALU_res_in [31:0] $end
$var wire 1 M# PCSel_in $end
$var wire 2 N# WBSel_in [1:0] $end
$var wire 5 O# addr_rd_in [4:0] $end
$var wire 1 * clk $end
$var wire 32 P# data_write_in [31:0] $end
$var wire 32 Q# instr_in [31:0] $end
$var wire 1 <" is_div_in $end
$var wire 1 ;" is_jalr_in $end
$var wire 32 R# mem_data_in [31:0] $end
$var wire 32 S# pc_in [31:0] $end
$var wire 1 8" regWEn_in $end
$var wire 1 6 reset $end
$var wire 1 6" trapReq_in $end
$var reg 32 T# ALU_res_out [31:0] $end
$var reg 2 U# WBSel_out [1:0] $end
$var reg 5 V# addr_rd_out [4:0] $end
$var reg 32 W# instr_out [31:0] $end
$var reg 1 u is_div_out $end
$var reg 1 t is_jalr_out $end
$var reg 32 X# mem_data_out [31:0] $end
$var reg 32 Y# pc_out [31:0] $end
$var reg 1 q regWEn_out $end
$var reg 1 p trapReq_out $end
$upscope $end
$scope module RF $end
$var wire 5 Z# Addr_rd [4:0] $end
$var wire 5 [# Addr_rs1 [4:0] $end
$var wire 5 \# Addr_rs2 [4:0] $end
$var wire 1 * clk $end
$var wire 32 ]# data_in [31:0] $end
$var wire 1 q regWEn $end
$var wire 1 6 reset $end
$var reg 32 ^# rs1 [31:0] $end
$var reg 32 _# rs2 [31:0] $end
$var integer 32 `# i [31:0] $end
$upscope $end
$scope module forwarding_unit $end
$var wire 5 a# ExMem_regRd [4:0] $end
$var wire 1 8" ExMem_regWEn $end
$var wire 5 b# IdEx_regRs1 [4:0] $end
$var wire 5 c# IdEx_regRs2 [4:0] $end
$var wire 5 d# MemWb_regRd [4:0] $end
$var wire 1 q MemWb_regWEn $end
$var reg 2 e# forwardA [1:0] $end
$var reg 2 f# forwardB [1:0] $end
$upscope $end
$scope module hazard_detection_unit $end
$var wire 1 %" IDEX_MemRead $end
$var wire 5 g# IDEX_Rd [4:0] $end
$var wire 5 h# IFID_RS1 [4:0] $end
$var wire 5 i# IFID_RS2 [4:0] $end
$var wire 1 a div_done $end
$var wire 1 '" is_div $end
$var reg 1 } IDEX_write $end
$var reg 1 z IFID_write $end
$var reg 1 c control_MuxSel $end
$var reg 1 R pc_write $end
$upscope $end
$scope module imm_gen $end
$var wire 32 j# instruction [31:0] $end
$var reg 32 k# imm_out [31:0] $end
$upscope $end
$upscope $end
$upscope $end
$enddefinitions $end
$comment Show the parameter values. $end
$dumpall
b10011 G#
b11 n"
b10 m"
b1 l"
b0 k"
b1000000 )
b1000000000000 (
b10000000000 '
$end
#0
$dumpvars
b0 k#
b10011 j#
b0 i#
b0 h#
b0 g#
b0 f#
b0 e#
b0 d#
b0 c#
b0 b#
b0 a#
b100000 `#
b0 _#
b0 ^#
b0 ]#
b0 \#
b0 [#
b0 Z#
b0 Y#
b0 X#
b0 W#
b0 V#
b0 U#
b0 T#
b0 S#
b0 R#
b0 Q#
bz P#
b0 O#
b0 N#
zM#
b0 L#
b1010100000000000000011101111 K#
b10000000000000000000000000000000 J#
b0 I#
b10011 H#
b1010100000000000000011101111 F#
b10000000000000000000000000000000 E#
b0 D#
b0 C#
b0 B#
b0 A#
b0 @#
b0 ?#
b0 >#
b0 =#
b0 <#
b0 ;#
b0 :#
b0 9#
b0 8#
b10011 7#
b0 6#
b0 5#
b0 4#
b0 3#
b0 2#
b0 1#
b0 0#
b0 /#
b1 .#
b0 -#
b0 ,#
b0 +#
b0 *#
b0 )#
b0 (#
b0 '#
b0 &#
b0 %#
b0 $#
b0 ##
b0 "#
b0 !#
b0 ~"
z}"
b0 |"
b0 {"
b0 z"
b0 y"
b0 x"
b0 w"
0v"
0u"
b0 t"
b0 s"
b0 r"
b0 q"
b0 p"
0o"
b0 j"
b1 i"
b0 h"
b0 g"
1f"
b0 e"
b0 d"
b0 c"
b0 b"
b1 a"
b0 `"
b10011 _"
1^"
0]"
0\"
b0 ["
b0 Z"
bx Y"
b0 X"
b0 W"
b0 V"
b0 U"
0T"
b10000000000000000000000000000000 S"
0R"
b0 Q"
b0 P"
0O"
0N"
b0 M"
b0 L"
b0 K"
1J"
1I"
1H"
0G"
xF"
xE"
b0 D"
0C"
0B"
0A"
b0 @"
b0 ?"
b0 >"
b0 ="
0<"
0;"
0:"
b0 9"
08"
b0 7"
06"
b0 5"
04"
03"
02"
01"
b0 0"
b0 /"
b0 ."
b0 -"
0,"
b0 +"
b0 *"
b0 )"
b0 ("
0'"
0&"
0%"
b0 $"
0#"
b0 ""
b0 !"
0~
1}
b10011 |
b0 {
1z
b0 y
b0 x
b0 w
b0 v
0u
0t
b0 s
b0 r
0q
0p
0o
0n
b10000000000000000000000000000100 m
b1 l
b1 k
b0 j
b0 i
b0 h
b0 g
b0 f
b0 e
0d
0c
b0 b
0a
b0 `
b0 _
0^
b0 ]
b0 \
b0 [
b0 Z
b1010100000000000000011101111 Y
0X
0W
0V
0U
b0 T
b0 S
1R
b0 Q
1P
1O
0N
b0 M
b0 L
b0 K
b0 J
0I
0H
b10000000000000000000000000000000 G
bx F
bx E
b0 D
b0 C
b0 B
bx A
bx @
b0 ?
b10000000000000000000000000000011 >
bx =
bx <
bx ;
bx :
bx 9
bx 8
bx 7
06
x5
bx 4
bx 3
bx 2
x1
x0
x/
x.
x-
x,
x+
1*
0&
0%
0$
0#
0"
0!
$end
#1000
b110000011110000110011001100110011001100110011001100110011001100110010000110100 <
b11011010110010101101101 ;
b10001010001 ?
b1010 E
b100 C
b110000011110000011000000110000001100000011000000110000001100000011000000110000 :
b11110000011000100110000 9
b110000011110000011000000110000001100000011000000110000001101010011000100110011 7
b110000011110000011100000110000001100000011000000110000001100000011000000111000 8
b0 F
b110000011110000011100000110000001100000011000000110000001100000011000000111000001000000011000001111000001100000011000000110000001100000011000000110101001100010011001100100000011110000011000100110000001000000011000001111000001100000011000000110000001100000011000000110000001100000011000000001010 3
05
#5000
0*
#10000
b100000 `#
1*
#15000
0*
#20000
b10000000000000000000000010101000 m
b10 k
b10 .#
1N"
1N
b1000 K"
b1000 1#
b1000 \#
b1000 i#
b1 M"
b1 /#
b10 l
b10 a"
1O"
1^
b10101000 S
b10101000 Z
b10101000 8#
b10101000 k#
b101110100000000100010010011 Y
b101110100000000100010010011 F#
b101110100000000100010010011 K#
1C"
b1 0"
b1 %#
b1 :#
13"
1#"
x2"
b10011 ("
b10011 "#
b10011 A#
b1010100000000000000011101111 |
b1010100000000000000011101111 _"
b1010100000000000000011101111 7#
b1010100000000000000011101111 H#
b1010100000000000000011101111 j#
b10000000000000000000000010101000 T
b10000000000000000000000000000000 {
b10000000000000000000000000000000 6#
b10000000000000000000000000000000 I#
b10000000000000000000000000000100 G
b10000000000000000000000000000100 E#
b10000000000000000000000000000100 J#
b10000000000000000000000000000100 S"
b0 A
0.
0/
0-
0,
00
01
b0 =
1*
16
#25000
0*
#30000
b10000000000000000000000010101100 m
b10000000000000000000000010101000 e
b10000000000000000000000010101000 |"
b1 k
b1 .#
0N"
b10000000000000000000000010101000 f
b10000000000000000000000010101000 X"
b11100101000000010000000100010011 Y
b11100101000000010000000100010011 F#
b11100101000000010000000100010011 K#
b0 K"
b0 1#
b0 \#
b0 i#
b0 M"
b0 /#
b0 S
b0 Z
b0 8#
b0 k#
b1 l
b1 a"
0O"
0^
b10000000000000000000000000000000 j
b10000000000000000000000000000000 U"
b10101000 h
b10101000 V"
b10000000000000000000000010101000 G
b10000000000000000000000010101000 E#
b10000000000000000000000010101000 J#
b10000000000000000000000010101000 S"
b10011 |
b10011 _"
b10011 7#
b10011 H#
b10011 j#
b10000000000000000000000000000100 T
b10000000000000000000000000000100 {
b10000000000000000000000000000100 6#
b10000000000000000000000000000100 I#
b10 0"
b10 %#
b10 :#
14"
b10101000 )"
b10101000 @#
b1000 -"
b1000 =#
b1000 c#
b1 /"
b1 $#
b1 ;#
b1 g#
b1010100000000000000011101111 ("
b1010100000000000000011101111 "#
b1010100000000000000011101111 A#
b10000000000000000000000000000000 $"
b10000000000000000000000000000000 !#
b10000000000000000000000000000000 B#
b1 @"
b1 '#
b1 N#
18"
b10011 ="
b10011 *#
b10011 Q#
1*
#35000
0*
#40000
b10000000000000000000000010110000 m
b0 e
b0 |"
b0 f
b0 X"
b0 b
b0 ]#
b101010 x"
b0 h
b0 V"
b0 j
b0 U"
b10000 K"
b10000 1#
b10000 \#
b10000 i#
b10 L"
b10 0#
b10 [#
b10 h#
b10 M"
b10 /#
b11111111111111111111111001010000 S
b11111111111111111111111001010000 Z
b11111111111111111111111001010000 8#
b11111111111111111111111001010000 k#
b11010000100010010011000100011 Y
b11010000100010010011000100011 F#
b11010000100010010011000100011 K#
1q
b1 x
b1 U#
b10011 v
b10011 W#
b10 @"
b10 '#
b10 N#
b1 ?"
b1 (#
b1 O#
b1 a#
b1010100000000000000011101111 ="
b1010100000000000000011101111 *#
b1010100000000000000011101111 Q#
b10000000000000000000000000000000 9"
b10000000000000000000000000000000 +#
b10000000000000000000000000000000 S#
b10000000000000000000000010101000 D"
b10000000000000000000000010101000 z"
b10000000000000000000000010101000 &#
b10000000000000000000000010101000 L#
b1 0"
b1 %#
b1 :#
04"
b0 )"
b0 @#
b0 -"
b0 =#
b0 c#
b0 /"
b0 $#
b0 ;#
b0 g#
b10011 ("
b10011 "#
b10011 A#
b10000000000000000000000000000100 $"
b10000000000000000000000000000100 !#
b10000000000000000000000000000100 B#
b11100101000000010000000100010011 |
b11100101000000010000000100010011 _"
b11100101000000010000000100010011 7#
b11100101000000010000000100010011 H#
b11100101000000010000000100010011 j#
b1111111111111111111111011111000 T
b10000000000000000000000010101000 {
b10000000000000000000000010101000 6#
b10000000000000000000000010101000 I#
b10000000000000000000000010101100 G
b10000000000000000000000010101100 E#
b10000000000000000000000010101100 J#
b10000000000000000000000010101100 S"
1*
#45000
0*
#50000
b10000000000000000000000010110100 m
b10000000000000000000000000000100 J
b10000000000000000000000000000100 5#
b11111111111111111111111001010000 e
b11111111111111111111111001010000 |"
1n
0O
b11111111111111111111111001010000 f
b11111111111111111111111001010000 X"
1&
b10000000000000000000000000000100 b
b10000000000000000000000000000100 ]#
b11010100000010010010000100011 Y
b11010100000010010010000100011 F#
b11010100000010010010000100011 K#
b1 K"
b1 1#
b1 \#
b1 i#
b1100 M"
b1100 /#
b10 [
b10 3#
b110101100 S
b110101100 Z
b110101100 8#
b110101100 k#
1o
0P
b11111111111111111111111001010000 h
b11111111111111111111111001010000 V"
b0 x"
b10000000000000000000000010110000 G
b10000000000000000000000010110000 E#
b10000000000000000000000010110000 J#
b10000000000000000000000010110000 S"
b11010000100010010011000100011 |
b11010000100010010011000100011 _"
b11010000100010010011000100011 7#
b11010000100010010011000100011 H#
b11010000100010010011000100011 j#
b10000000000000000000001001011000 T
b10000000000000000000000010101100 {
b10000000000000000000000010101100 6#
b10000000000000000000000010101100 I#
b11111111111111111111111001010000 )"
b11111111111111111111111001010000 @#
b10000 -"
b10000 =#
b10000 c#
b10 ."
b10 <#
b10 b#
b10 /"
b10 $#
b10 ;#
b10 g#
b11100101000000010000000100010011 ("
b11100101000000010000000100010011 "#
b11100101000000010000000100010011 A#
b10000000000000000000000010101000 $"
b10000000000000000000000010101000 !#
b10000000000000000000000010101000 B#
b1 @"
b1 '#
b1 N#
b0 ?"
b0 (#
b0 O#
b0 a#
b10011 ="
b10011 *#
b10011 Q#
b10000000000000000000000000000100 9"
b10000000000000000000000000000100 +#
b10000000000000000000000000000100 S#
b0 D"
b0 z"
b0 &#
b0 L#
b10 x
b10 U#
b1 w
b1 V#
b1 Z#
b1 d#
b1010100000000000000011101111 v
b1010100000000000000011101111 W#
b10000000000000000000000000000000 r
b10000000000000000000000000000000 Y#
b10000000000000000000000010101000 y
b10000000000000000000000010101000 T#
1*
#55000
0*
#60000
b10000000000000000000000010111000 m
b11111111111111111111111111111100 e
b11111111111111111111111111111100 |"
b11111111111111111111111001010000 j
b11111111111111111111111001010000 U"
0H"
b0 J
b0 5#
0&
b0 b
b0 ]#
b11111111111111111111111111111100 f
b11111111111111111111111111111100 X"
b10000000000000000000000000000100 g
b10000000000000000000000000000100 ["
b10000000000000000000000000000100 d"
b10000000000000000000000000000100 ~"
0^"
0]"
b11111111111111111111111001010000 i
b11111111111111111111111001010000 Z"
b11111111111111111111111001010000 c"
b1110010100 x"
0N
b110101100 h
b110101100 V"
b10 ]
b10 e#
b1000 K"
b1000 1#
b1000 \#
b1000 i#
b1000 M"
b1000 /#
b110101000 S
b110101000 Z
b110101000 8#
b110101000 k#
b0 K
b0 _#
b11010100100010010001000100011 Y
b11010100100010010001000100011 F#
b11010100100010010001000100011 K#
b1 x
b1 U#
b0 w
b0 V#
b0 Z#
b0 d#
b10011 v
b10011 W#
b10000000000000000000000000000100 r
b10000000000000000000000000000100 Y#
b0 y
b0 T#
b10 ?"
b10 (#
b10 O#
b10 a#
b11100101000000010000000100010011 ="
b11100101000000010000000100010011 *#
b11100101000000010000000100010011 Q#
b10000000000000000000000010101000 9"
b10000000000000000000000010101000 +#
b10000000000000000000000010101000 S#
b11111111111111111111111001010000 D"
b11111111111111111111111001010000 z"
b11111111111111111111111001010000 &#
b11111111111111111111111001010000 L#
11"
0#"
b110101100 )"
b110101100 @#
b10000000000000000000000000000100 !"
b10000000000000000000000000000100 D#
b10 *"
b10 ##
b10 ?#
b1 -"
b1 =#
b1 c#
b1100 /"
b1100 $#
b1100 ;#
b1100 g#
b11010000100010010011000100011 ("
b11010000100010010011000100011 "#
b11010000100010010011000100011 A#
b10000000000000000000000010101100 $"
b10000000000000000000000010101100 !#
b10000000000000000000000010101100 B#
b11010100000010010010000100011 |
b11010100000010010010000100011 _"
b11010100000010010010000100011 7#
b11010100000010010010000100011 H#
b11010100000010010010000100011 j#
b10000000000000000000001001011000 T
b10000000000000000000000010110000 {
b10000000000000000000000010110000 6#
b10000000000000000000000010110000 I#
b10000000000000000000000010110100 G
b10000000000000000000000010110100 E#
b10000000000000000000000010110100 J#
b10000000000000000000000010110100 S"
b1 A
b1 D
b1 @
1+
11
b1010100000000000000011101111 2
b10000000000000000000000000000000 4
b1 =
1*
#65000
0*
#70000
b10000000000000000000000010111100 m
b11111111111111111111111001010000 L
b11111111111111111111111001010000 4#
b11111111111111111111111111111000 e
b11111111111111111111111111111000 |"
1]"
b11111111111111111111111111111000 f
b11111111111111111111111111111000 X"
0^"
b0 g
b0 ["
b0 d"
b0 ~"
b11111111111111111111111001010000 j
b11111111111111111111111001010000 U"
xG"
1&
b11111111111111111111111001010000 b
b11111111111111111111111001010000 ]#
b11011001000010010000000100011 Y
b11011001000010010000000100011 F#
b11011001000010010000000100011 K#
b1001 K"
b1001 1#
b1001 \#
b1001 i#
b100 M"
b100 /#
b11111111111111111111111111110100 S
b110100100 Z
b110100100 8#
b110100100 k#
b110101000 h
b110101000 V"
b1111111111 x"
0\"
b11111111111111111111111001010000 i
b11111111111111111111111001010000 Z"
b11111111111111111111111001010000 c"
b1 ]
b1 e#
b10000000000000000000000010111000 G
b10000000000000000000000010111000 E#
b10000000000000000000000010111000 J#
b10000000000000000000000010111000 S"
b11010100100010010001000100011 |
b11010100100010010001000100011 _"
b11010100100010010001000100011 7#
b11010100100010010001000100011 H#
b11010100100010010001000100011 j#
b10000000000000000000001001011000 T
b10000000000000000000000010110100 {
b10000000000000000000000010110100 6#
b10000000000000000000000010110100 I#
b110101000 )"
b110101000 @#
b0 !"
b0 D#
b1000 -"
b1000 =#
b1000 c#
b1000 /"
b1000 $#
b1000 ;#
b1000 g#
b11010100000010010010000100011 ("
b11010100000010010010000100011 "#
b11010100000010010010000100011 A#
b10000000000000000000000010110000 $"
b10000000000000000000000010110000 !#
b10000000000000000000000010110000 B#
08"
1%
1A"
0C"
b10 >"
b10 y"
b10 )#
b1100 ?"
b1100 (#
b1100 O#
b1100 a#
b11010000100010010011000100011 ="
b11010000100010010011000100011 *#
b11010000100010010011000100011 Q#
b10000000000000000000000010101100 9"
b10000000000000000000000010101100 +#
b10000000000000000000000010101100 S#
b10000000000000000000000000000100 7"
b10000000000000000000000000000100 w"
b10000000000000000000000000000100 ,#
b11111111111111111111111111111100 D"
b11111111111111111111111111111100 z"
b11111111111111111111111111111100 &#
b11111111111111111111111111111100 L#
b10 w
b10 V#
b10 Z#
b10 d#
b11100101000000010000000100010011 v
b11100101000000010000000100010011 W#
b10000000000000000000000010101000 r
b10000000000000000000000010101000 Y#
b11111111111111111111111001010000 y
b11111111111111111111111001010000 T#
b0 A
01
b0 =
1*
#75000
0*
