sim/gtkwave/tb_test_v2.vcd
$date
	Thu Oct  2 14:24:40 2025
$end
$version
	Icarus Verilog
$end
$timescale
	1ps
$end
$scope module tb_core_test $end
$var wire 1 ! branch_event $end
$var wire 1 " branch_not_taken_event $end
$var wire 1 # jalr_event $end
$var wire 1 $ mem_event $end
$var wire 1 % wb_event $end
$var parameter 32 & LINE_LEN $end
$var parameter 32 ' MAX_GOLDEN $end
$var parameter 32 ( STRLEN $end
$var reg 1 ) clk $end
$var reg 1 * found_local $end
$var reg 1 + handled_br $end
$var reg 1 , handled_br_not_taken $end
$var reg 1 - handled_jalr $end
$var reg 1 . handled_mem $end
$var reg 1 / handled_wb $end
$var reg 32 0 instr_commit [31:0] $end
$var reg 8192 1 line [8191:0] $end
$var reg 32 2 pc_commit [31:0] $end
$var reg 1 3 read_ok $end
$var reg 1 4 reset_n $end
$var reg 512 5 s_instr [511:0] $end
$var reg 512 6 s_pc [511:0] $end
$var reg 512 7 s_t3 [511:0] $end
$var reg 512 8 s_t4 [511:0] $end
$var reg 512 9 s_t5 [511:0] $end
$var reg 512 : s_t6 [511:0] $end
$var integer 32 ; commits_this_cycle [31:0] $end
$var integer 32 < fd_golden [31:0] $end
$var integer 32 = golden_cnt [31:0] $end
$var integer 32 > i [31:0] $end
$var integer 32 ? j [31:0] $end
$var integer 32 @ mismatch_count [31:0] $end
$var integer 32 A n [31:0] $end
$var integer 32 B pass_count [31:0] $end
$var integer 32 C rdnum [31:0] $end
$var integer 32 D ret [31:0] $end
$scope module dut $end
$var wire 32 E address [31:0] $end
$var wire 1 ) clk $end
$var wire 1 4 reset_n $end
$var wire 1 F trapReq $end
$var wire 32 G rs2_data_src [31:0] $end
$var wire 32 H rs2_data [31:0] $end
$var wire 32 I rs1_data_src [31:0] $end
$var wire 32 J rs1_data [31:0] $end
$var wire 1 K regWEn_mux $end
$var wire 1 L regWEn $end
$var wire 32 M read_data [31:0] $end
$var wire 1 N pc_write $end
$var wire 32 O pc_jump_jalr [31:0] $end
$var wire 32 P pc_jump_jal [31:0] $end
$var wire 1 Q memRead_mux $end
$var wire 1 R memRead $end
$var wire 1 S is_jalr $end
$var wire 32 T instruction [31:0] $end
$var wire 32 U imm [31:0] $end
$var wire 3 V funct3 [2:0] $end
$var wire 2 W forwardB [1:0] $end
$var wire 2 X forwardA [1:0] $end
$var wire 1 Y flush $end
$var wire 32 Z data_in [31:0] $end
$var wire 1 [ control_MuxSel $end
$var wire 1 \ branch $end
$var wire 32 ] alu_out [31:0] $end
$var wire 32 ^ alu_b_src [31:0] $end
$var wire 32 _ alu_b [31:0] $end
$var wire 32 ` alu_a_src [31:0] $end
$var wire 32 a alu_a [31:0] $end
$var wire 2 b WBSel_mux [1:0] $end
$var wire 2 c WBSel [1:0] $end
$var wire 32 d PC_next [31:0] $end
$var wire 1 e MemRW_mux $end
$var wire 1 f MemRW $end
$var wire 1 g MEMWB_trapReq_out $end
$var wire 1 h MEMWB_regWEn_out $end
$var wire 32 i MEMWB_pc_out [31:0] $end
$var wire 32 j MEMWB_mem_data_out [31:0] $end
$var wire 1 k MEMWB_is_jalr_out $end
$var wire 32 l MEMWB_instr_out [31:0] $end
$var wire 5 m MEMWB_addr_rd_out [4:0] $end
$var wire 2 n MEMWB_WBSel_out [1:0] $end
$var wire 32 o MEMWB_ALU_res_out [31:0] $end
$var wire 1 p IFID_write $end
$var wire 32 q IFID_pc_out [31:0] $end
$var wire 32 r IFID_instr_out [31:0] $end
$var wire 1 s IDEX_write $end
$var wire 1 t IDEX_trapReq_out $end
$var wire 32 u IDEX_rs2_out [31:0] $end
$var wire 32 v IDEX_rs1_out [31:0] $end
$var wire 1 w IDEX_regWEn_out $end
$var wire 32 x IDEX_pc_out [31:0] $end
$var wire 1 y IDEX_memRead_out $end
$var wire 1 z IDEX_is_jalr_out $end
$var wire 32 { IDEX_instr_out [31:0] $end
$var wire 32 | IDEX_imm_out [31:0] $end
$var wire 3 } IDEX_funct3_out [2:0] $end
$var wire 1 ~ IDEX_branch_out $end
$var wire 5 !" IDEX_addr_rs2_out [4:0] $end
$var wire 5 "" IDEX_addr_rs1_out [4:0] $end
$var wire 5 #" IDEX_addr_rd_out [4:0] $end
$var wire 2 $" IDEX_WBSel_out [1:0] $end
$var wire 1 %" IDEX_MemRW_out $end
$var wire 1 &" IDEX_BrUn_out $end
$var wire 1 '" IDEX_BSel_out $end
$var wire 1 (" IDEX_ASel_out $end
$var wire 5 )" IDEX_ALUSel_out [4:0] $end
$var wire 1 *" EXMEM_trapReq_out $end
$var wire 32 +" EXMEM_rs2_out [31:0] $end
$var wire 1 ," EXMEM_regWEn_out $end
$var wire 32 -" EXMEM_pc_out [31:0] $end
$var wire 1 ." EXMEM_memRead_out $end
$var wire 1 /" EXMEM_is_jalr_out $end
$var wire 32 0" EXMEM_instr_out [31:0] $end
$var wire 3 1" EXMEM_funct3_out [2:0] $end
$var wire 5 2" EXMEM_addr_rd_out [4:0] $end
$var wire 2 3" EXMEM_WBSel_out [1:0] $end
$var wire 1 4" EXMEM_MemRW_out $end
$var wire 1 5" EXMEM_BrLT_out $end
$var wire 1 6" EXMEM_BrEq_out $end
$var wire 32 7" EXMEM_ALU_res_out [31:0] $end
$var wire 1 8" BrUn_mux $end
$var wire 1 9" BrUn $end
$var wire 1 :" BrLt $end
$var wire 1 ;" BrEq $end
$var wire 1 <" BSel_mux $end
$var wire 1 =" BSel $end
$var wire 5 >" Addr_rs2 [4:0] $end
$var wire 5 ?" Addr_rs1 [4:0] $end
$var wire 5 @" Addr_rd [4:0] $end
$var wire 1 A" ASel_mux $end
$var wire 1 B" ASel $end
$var wire 5 C" ALUSel_mux [4:0] $end
$var wire 5 D" ALUSel [4:0] $end
$var reg 32 E" PC [31:0] $end
$var reg 1 F" take_branch $end
$scope module ALU $end
$var wire 32 G" A [31:0] $end
$var wire 32 H" B [31:0] $end
$var wire 5 I" ALU_Sel [4:0] $end
$var reg 32 J" ALU_Out [31:0] $end
$var reg 64 K" product [63:0] $end
$upscope $end
$scope module Branch $end
$var wire 32 L" rs1 [31:0] $end
$var wire 32 M" rs2 [31:0] $end
$var wire 1 N" lt_unsigned $end
$var wire 1 O" lt_signed $end
$var wire 1 P" eq $end
$var wire 1 &" BrUn $end
$var reg 1 ;" BrEq $end
$var reg 1 :" BrLt $end
$upscope $end
$scope module Control_unit $end
$var wire 32 Q" instruction [31:0] $end
$var wire 1 5" BrLt $end
$var wire 1 6" BrEq $end
$var reg 5 R" ALUSel [4:0] $end
$var reg 1 B" ASel $end
$var reg 1 =" BSel $end
$var reg 1 9" BrUn $end
$var reg 1 f MemRW $end
$var reg 2 S" WBSel [1:0] $end
$var reg 1 \ branch $end
$var reg 1 Y flush $end
$var reg 1 S is_jalr $end
$var reg 1 R memRead $end
$var reg 1 L regWEn $end
$var reg 1 F trapReq $end
$upscope $end
$scope module DMEM $end
$var wire 1 ) clk $end
$var wire 32 T" write_data [31:0] $end
$var wire 10 U" word_address [9:0] $end
$var wire 1 ." memRead $end
$var wire 3 V" funct3 [2:0] $end
$var wire 32 W" address [31:0] $end
$var wire 1 4" MemRW $end
$var reg 32 X" read_data [31:0] $end
$upscope $end
$scope module EX_MEM $end
$var wire 32 Y" ALU_res_in [31:0] $end
$var wire 1 ;" BrEq_in $end
$var wire 1 :" BrLT_in $end
$var wire 1 Z" PCSel_in $end
$var wire 1 ) clk $end
$var wire 1 4 reset $end
$var wire 32 [" rs2_in [31:0] $end
$var wire 1 t trapReq_in $end
$var wire 1 w regWEn_in $end
$var wire 32 \" pc_in [31:0] $end
$var wire 1 y memRead_in $end
$var wire 1 z is_jalr_in $end
$var wire 32 ]" instr_in [31:0] $end
$var wire 3 ^" funct3_in [2:0] $end
$var wire 5 _" addr_rd_in [4:0] $end
$var wire 2 `" WBSel_in [1:0] $end
$var wire 1 %" MemRW_in $end
$var reg 32 a" ALU_res_out [31:0] $end
$var reg 1 6" BrEq_out $end
$var reg 1 5" BrLT_out $end
$var reg 1 4" MemRW_out $end
$var reg 2 b" WBSel_out [1:0] $end
$var reg 5 c" addr_rd_out [4:0] $end
$var reg 3 d" funct3_out [2:0] $end
$var reg 32 e" instr_out [31:0] $end
$var reg 1 /" is_jalr_out $end
$var reg 1 ." memRead_out $end
$var reg 32 f" pc_out [31:0] $end
$var reg 1 ," regWEn_out $end
$var reg 32 g" rs2_out [31:0] $end
$var reg 1 *" trapReq_out $end
$upscope $end
$scope module ID_EX $end
$var wire 5 h" ALUSel_in [4:0] $end
$var wire 1 A" ASel_in $end
$var wire 1 <" BSel_in $end
$var wire 1 8" BrUn_in $end
$var wire 1 e MemRW_in $end
$var wire 2 i" WBSel_in [1:0] $end
$var wire 5 j" addr_rd_in [4:0] $end
$var wire 5 k" addr_rs1_in [4:0] $end
$var wire 5 l" addr_rs2_in [4:0] $end
$var wire 1 \ branch_in $end
$var wire 1 ) clk $end
$var wire 1 F" flush_branch $end
$var wire 3 m" funct3_in [2:0] $end
$var wire 1 S is_jalr_in $end
$var wire 1 Q memRead_in $end
$var wire 1 K regWEn_in $end
$var wire 1 4 reset $end
$var wire 32 n" rs1_in [31:0] $end
$var wire 32 o" rs2_in [31:0] $end
$var wire 1 F trapReq_in $end
$var wire 32 p" pc_in [31:0] $end
$var wire 32 q" instr_in [31:0] $end
$var wire 32 r" imm_in [31:0] $end
$var wire 1 s IDEX_write $end
$var reg 5 s" ALUSel_out [4:0] $end
$var reg 1 (" ASel_out $end
$var reg 1 '" BSel_out $end
$var reg 1 &" BrUn_out $end
$var reg 1 %" MemRW_out $end
$var reg 2 t" WBSel_out [1:0] $end
$var reg 5 u" addr_rd_out [4:0] $end
$var reg 5 v" addr_rs1_out [4:0] $end
$var reg 5 w" addr_rs2_out [4:0] $end
$var reg 1 ~ branch_out $end
$var reg 3 x" funct3_out [2:0] $end
$var reg 32 y" imm_out [31:0] $end
$var reg 32 z" instr_out [31:0] $end
$var reg 1 z is_jalr_out $end
$var reg 1 y memRead_out $end
$var reg 32 {" pc_out [31:0] $end
$var reg 1 w regWEn_out $end
$var reg 32 |" rs1_out [31:0] $end
$var reg 32 }" rs2_out [31:0] $end
$var reg 1 t trapReq_out $end
$upscope $end
$scope module IF_ID $end
$var wire 1 ) clk $end
$var wire 1 F" flush_branch $end
$var wire 1 Y flush_jal $end
$var wire 32 ~" pc_in [31:0] $end
$var wire 1 4 reset $end
$var wire 1 p write_enable $end
$var wire 32 !# instr_in [31:0] $end
$var parameter 32 "# NOP $end
$var reg 32 ## instr_out [31:0] $end
$var reg 32 $# pc_out [31:0] $end
$upscope $end
$scope module IMEM $end
$var wire 32 %# address [31:0] $end
$var reg 32 &# instruction [31:0] $end
$upscope $end
$scope module MEM_WB $end
$var wire 32 '# ALU_res_in [31:0] $end
$var wire 1 (# PCSel_in $end
$var wire 2 )# WBSel_in [1:0] $end
$var wire 5 *# addr_rd_in [4:0] $end
$var wire 1 ) clk $end
$var wire 32 +# data_write_in [31:0] $end
$var wire 32 ,# instr_in [31:0] $end
$var wire 1 /" is_jalr_in $end
$var wire 32 -# mem_data_in [31:0] $end
$var wire 32 .# pc_in [31:0] $end
$var wire 1 ," regWEn_in $end
$var wire 1 4 reset $end
$var wire 1 *" trapReq_in $end
$var reg 32 /# ALU_res_out [31:0] $end
$var reg 2 0# WBSel_out [1:0] $end
$var reg 5 1# addr_rd_out [4:0] $end
$var reg 32 2# instr_out [31:0] $end
$var reg 1 k is_jalr_out $end
$var reg 32 3# mem_data_out [31:0] $end
$var reg 32 4# pc_out [31:0] $end
$var reg 1 h regWEn_out $end
$var reg 1 g trapReq_out $end
$upscope $end
$scope module RF $end
$var wire 5 5# Addr_rd [4:0] $end
$var wire 5 6# Addr_rs1 [4:0] $end
$var wire 5 7# Addr_rs2 [4:0] $end
$var wire 1 ) clk $end
$var wire 32 8# data_in [31:0] $end
$var wire 1 h regWEn $end
$var wire 1 4 reset $end
$var reg 32 9# rs1 [31:0] $end
$var reg 32 :# rs2 [31:0] $end
$var integer 32 ;# i [31:0] $end
$upscope $end
$scope module forwarding_unit $end
$var wire 5 <# ExMem_regRd [4:0] $end
$var wire 1 ," ExMem_regWEn $end
$var wire 5 =# IdEx_regRs1 [4:0] $end
$var wire 5 ># IdEx_regRs2 [4:0] $end
$var wire 5 ?# MemWb_regRd [4:0] $end
$var wire 1 h MemWb_regWEn $end
$var reg 2 @# forwardA [1:0] $end
$var reg 2 A# forwardB [1:0] $end
$upscope $end
$scope module hazard_detection_unit $end
$var wire 1 y IDEX_MemRead $end
$var wire 5 B# IDEX_Rd [4:0] $end
$var wire 5 C# IFID_RS1 [4:0] $end
$var wire 5 D# IFID_RS2 [4:0] $end
$var reg 1 s IDEX_write $end
$var reg 1 p IFID_write $end
$var reg 1 [ control_MuxSel $end
$var reg 1 N pc_write $end
$upscope $end
$scope module imm_gen $end
$var wire 32 E# instruction [31:0] $end
$var reg 32 F# imm_out [31:0] $end
$upscope $end
$upscope $end
$upscope $end
$enddefinitions $end
$comment Show the parameter values. $end
$dumpall
b10011 "#
b1000000 (
b1000000000000 '
b10000000000 &
$end
#0
$dumpvars
b0 F#
b10011 E#
b0 D#
b0 C#
b0 B#
b0 A#
b0 @#
b0 ?#
b0 >#
b0 =#
b0 <#
b100000 ;#
b0 :#
b0 9#
b0 8#
b0 7#
b0 6#
b0 5#
b0 4#
b0 3#
b0 2#
b0 1#
b0 0#
b0 /#
b0 .#
b0 -#
b0 ,#
bz +#
b0 *#
b0 )#
z(#
b0 '#
b1000000000000000011101111 &#
b10000000000000000000000000000000 %#
b0 $#
b10011 ##
b1000000000000000011101111 !#
b10000000000000000000000000000000 ~"
b0 }"
b0 |"
b0 {"
b0 z"
b0 y"
b0 x"
b0 w"
b0 v"
b0 u"
b0 t"
b0 s"
b0 r"
b10011 q"
b0 p"
b0 o"
b0 n"
b0 m"
b0 l"
b0 k"
b0 j"
b1 i"
b0 h"
b0 g"
b0 f"
b0 e"
b0 d"
b0 c"
b0 b"
b0 a"
b0 `"
b0 _"
b0 ^"
b0 ]"
b0 \"
b0 ["
zZ"
b0 Y"
b0 X"
b0 W"
b0 V"
b0 U"
b0 T"
b1 S"
b0 R"
b10011 Q"
1P"
0O"
0N"
b0 M"
b0 L"
bx K"
b0 J"
b0 I"
b0 H"
b0 G"
0F"
b10000000000000000000000000000000 E"
b0 D"
b0 C"
0B"
0A"
b0 @"
b0 ?"
b0 >"
1="
1<"
1;"
0:"
x9"
x8"
b0 7"
06"
05"
04"
b0 3"
b0 2"
b0 1"
b0 0"
0/"
0."
b0 -"
0,"
b0 +"
0*"
b0 )"
0("
0'"
0&"
0%"
b0 $"
b0 #"
b0 ""
b0 !"
0~
b0 }
b0 |
b0 {
0z
0y
b0 x
0w
b0 v
b0 u
0t
1s
b10011 r
b0 q
1p
b0 o
b0 n
b0 m
b0 l
0k
b0 j
b0 i
0h
0g
0f
0e
b10000000000000000000000000000100 d
b1 c
b1 b
b0 a
b0 `
b0 _
b0 ^
b0 ]
0\
0[
b0 Z
0Y
b0 X
b0 W
b0 V
b0 U
b1000000000000000011101111 T
0S
0R
0Q
b0 P
b0 O
1N
b0 M
1L
1K
b0 J
b0 I
b0 H
b0 G
0F
b10000000000000000000000000000000 E
bx D
bx C
b0 B
b0 A
b0 @
bx ?
bx >
b0 =
b10000000000000000000000000000011 <
bx ;
bx :
bx 9
bx 8
bx 7
bx 6
bx 5
04
x3
bx 2
bx 1
bx 0
x/
x.
x-
x,
x+
x*
1)
0%
0$
0#
0"
0!
$end
#1000
b110000011110000011100000110000001100000011000000110000001100000011011101100011 :
b110000011110000011010100110101001101010011010100110101001101010011010100110001 9
b101001 =
b1010 C
b10 A
b110000011110000011000000110000001100000011000000110000001100000011000000110000 8
b11110000011000100110000 7
b110000011110000011000000110000001100000011000000111000001100000011011000110111 5
b110000011110000011100000110000001100000011000000110000001100000011011100110000 6
b0 D
b110000011110000011100000110000001100000011000000110000001100000011011100110000001000000011000001111000001100000011000000110000001100000011100000110000001101100011011100001010 1
03
#5000
0)
#10000
b100000 ;#
1)
#15000
0)
#20000
b10000000000000000000000000010000 d
b10 b
b10 i"
1A"
b10000 >"
b10000 l"
b10000 7#
b10000 D#
b1 @"
b1 j"
b10 c
b10 S"
1B"
1Y
b10000 O
b10000 U
b10000 r"
b10000 F#
b101110100000000100010010011 T
b101110100000000100010010011 !#
b101110100000000100010010011 &#
16"
b1 $"
b1 `"
b1 t"
1'"
1w
x&"
b10011 {
b10011 ]"
b10011 z"
b1000000000000000011101111 r
b1000000000000000011101111 Q"
b1000000000000000011101111 q"
b1000000000000000011101111 ##
b1000000000000000011101111 E#
b10000000000000000000000000010000 P
b10000000000000000000000000000000 q
b10000000000000000000000000000000 p"
b10000000000000000000000000000000 $#
b10000000000000000000000000000100 E
b10000000000000000000000000000100 ~"
b10000000000000000000000000000100 %#
b10000000000000000000000000000100 E"
b0 ?
0-
0,
0+
0.
0/
b0 ;
1)
14
#25000
0)
#30000
b10000000000000000000000000010100 d
b1 b
b1 i"
0A"
b10000000000000000000000000010000 ]
b10000000000000000000000000010000 J"
b10000000000000000000000000010000 Y"
b10000000000000000000011110110111 T
b10000000000000000000011110110111 !#
b10000000000000000000011110110111 &#
b0 >"
b0 l"
b0 7#
b0 D#
b0 @"
b0 j"
b0 O
b0 U
b0 r"
b0 F#
b1 c
b1 S"
0B"
0Y
b10000000000000000000000000000000 a
b10000000000000000000000000000000 G"
b10000 _
b10000 H"
b10000000000000000000000000010000 E
b10000000000000000000000000010000 ~"
b10000000000000000000000000010000 %#
b10000000000000000000000000010000 E"
b10011 r
b10011 Q"
b10011 q"
b10011 ##
b10011 E#
b10000000000000000000000000000100 P
b10000000000000000000000000000100 q
b10000000000000000000000000000100 p"
b10000000000000000000000000000100 $#
b10 $"
b10 `"
b10 t"
1("
b10000 |
b10000 y"
b10000 !"
b10000 w"
b10000 >#
b1 #"
b1 _"
b1 u"
b1 B#
b1000000000000000011101111 {
b1000000000000000011101111 ]"
b1000000000000000011101111 z"
b10000000000000000000000000000000 x
b10000000000000000000000000000000 \"
b10000000000000000000000000000000 {"
b1 3"
b1 b"
b1 )#
1,"
b10011 0"
b10011 e"
b10011 ,#
1)
#35000
0)
#40000
b10000000000000000000000000011000 d
b0 ]
b0 J"
b0 Y"
b1010 C"
b1010 h"
b0 Z
b0 8#
b100 U"
b0 _
b0 H"
b0 a
b0 G"
b1111 @"
b1111 j"
b1010 D"
b1010 R"
b10000000000000000000000000000000 O
b10000000000000000000000000000000 U
b10000000000000000000000000000000 r"
b10000000000000000000000000000000 F#
b111110001111010011010000011 T
b111110001111010011010000011 !#
b111110001111010011010000011 &#
1h
b1 n
b1 0#
b10011 l
b10011 2#
b10 3"
b10 b"
b10 )#
b1 2"
b1 c"
b1 *#
b1 <#
b1000000000000000011101111 0"
b1000000000000000011101111 e"
b1000000000000000011101111 ,#
b10000000000000000000000000000000 -"
b10000000000000000000000000000000 f"
b10000000000000000000000000000000 .#
b10000000000000000000000000010000 7"
b10000000000000000000000000010000 W"
b10000000000000000000000000010000 a"
b10000000000000000000000000010000 '#
b1 $"
b1 `"
b1 t"
0("
b0 |
b0 y"
b0 !"
b0 w"
b0 >#
b0 #"
b0 _"
b0 u"
b0 B#
b10011 {
b10011 ]"
b10011 z"
b10000000000000000000000000000100 x
b10000000000000000000000000000100 \"
b10000000000000000000000000000100 {"
b10000000000000000000011110110111 r
b10000000000000000000011110110111 Q"
b10000000000000000000011110110111 q"
b10000000000000000000011110110111 ##
b10000000000000000000011110110111 E#
b10000 P
b10000000000000000000000000010000 q
b10000000000000000000000000010000 p"
b10000000000000000000000000010000 $#
b10000000000000000000000000010100 E
b10000000000000000000000000010100 ~"
b10000000000000000000000000010100 %#
b10000000000000000000000000010100 E"
1)
#45000
0)
#50000
b10000000000000000000000000011100 d
b0 b
b0 i"
b0 C"
b0 h"
1Q
1%
b10000000000000000000000000000100 Z
b10000000000000000000000000000100 8#
b10101010101010101011011100110111 T
b10101010101010101011011100110111 !#
b10101010101010101011011100110111 &#
b11100 >"
b11100 l"
b11100 7#
b11100 D#
b1111 ?"
b1111 k"
b1111 6#
b1111 C#
b1101 @"
b1101 j"
b10 V
b10 m"
b1111100 O
b1111100 U
b1111100 r"
b1111100 F#
b0 c
b0 S"
b0 D"
b0 R"
1R
b10000000000000000000000000000000 ]
b10000000000000000000000000000000 J"
b10000000000000000000000000000000 Y"
b10000000000000000000000000000000 _
b10000000000000000000000000000000 H"
b0 U"
b10000000000000000000000000011000 E
b10000000000000000000000000011000 ~"
b10000000000000000000000000011000 %#
b10000000000000000000000000011000 E"
b111110001111010011010000011 r
b111110001111010011010000011 Q"
b111110001111010011010000011 q"
b111110001111010011010000011 ##
b111110001111010011010000011 E#
b10000000000000000000000010010000 P
b10000000000000000000000000010100 q
b10000000000000000000000000010100 p"
b10000000000000000000000000010100 $#
b1010 )"
b1010 I"
b1010 s"
b10000000000000000000000000000000 |
b10000000000000000000000000000000 y"
b1111 #"
b1111 _"
b1111 u"
b1111 B#
b10000000000000000000011110110111 {
b10000000000000000000011110110111 ]"
b10000000000000000000011110110111 z"
b10000000000000000000000000010000 x
b10000000000000000000000000010000 \"
b10000000000000000000000000010000 {"
b1 3"
b1 b"
b1 )#
b0 2"
b0 c"
b0 *#
b0 <#
b10011 0"
b10011 e"
b10011 ,#
b10000000000000000000000000000100 -"
b10000000000000000000000000000100 f"
b10000000000000000000000000000100 .#
b0 7"
b0 W"
b0 a"
b0 '#
b10 n
b10 0#
b1 m
b1 1#
b1 5#
b1 ?#
b1000000000000000011101111 l
b1000000000000000011101111 2#
b10000000000000000000000000000000 i
b10000000000000000000000000000000 4#
b10000000000000000000000000010000 o
b10000000000000000000000000010000 /#
1)
#55000
0)
#60000
b10000000000000000000000000100000 d
b10000000000000000000000000000000 a
b10000000000000000000000000000000 G"
x:"
0;"
0%
b0 Z
b0 8#
0P"
1O"
b10000000000000000000000000000000 `
b10000000000000000000000000000000 L"
b1 b
b1 i"
b1010 C"
b1010 h"
0Q
b10000000000000000000000001111100 ]
b10000000000000000000000001111100 J"
b10000000000000000000000001111100 Y"
b1111100 _
b1111100 H"
b10 X
b10 @#
b1010 >"
b1010 l"
b1010 7#
b1010 D#
b10101 ?"
b10101 k"
b10101 6#
b10101 C#
b1110 @"
b1110 j"
b11 V
b11 m"
b1 c
b1 S"
b1010 D"
b1010 R"
0R
b10101010101010101011000000000000 O
b10101010101010101011000000000000 U
b10101010101010101011000000000000 r"
b10101010101010101011000000000000 F#
b10000000000000000000011110110111 T
b10000000000000000000011110110111 !#
b10000000000000000000011110110111 &#
b1 n
b1 0#
b0 m
b0 1#
b0 5#
b0 ?#
b10011 l
b10011 2#
b10000000000000000000000000000100 i
b10000000000000000000000000000100 4#
b0 o
b0 /#
b1111 2"
b1111 c"
b1111 *#
b1111 <#
b10000000000000000000011110110111 0"
b10000000000000000000011110110111 e"
b10000000000000000000011110110111 ,#
b10000000000000000000000000010000 -"
b10000000000000000000000000010000 f"
b10000000000000000000000000010000 .#
b10000000000000000000000000000000 7"
b10000000000000000000000000000000 W"
b10000000000000000000000000000000 a"
b10000000000000000000000000000000 '#
b0 )"
b0 I"
b0 s"
b0 $"
b0 `"
b0 t"
1y
b1111100 |
b1111100 y"
b10 }
b10 ^"
b10 x"
b11100 !"
b11100 w"
b11100 >#
b1111 ""
b1111 v"
b1111 =#
b1101 #"
b1101 _"
b1101 u"
b1101 B#
b111110001111010011010000011 {
b111110001111010011010000011 ]"
b111110001111010011010000011 z"
b10000000000000000000000000010100 x
b10000000000000000000000000010100 \"
b10000000000000000000000000010100 {"
b10101010101010101011011100110111 r
b10101010101010101011011100110111 Q"
b10101010101010101011011100110111 q"
b10101010101010101011011100110111 ##
b10101010101010101011011100110111 E#
b101010101010101011000000011000 P
b10000000000000000000000000011000 q
b10000000000000000000000000011000 p"
b10000000000000000000000000011000 $#
b10000000000000000000000000011100 E
b10000000000000000000000000011100 ~"
b10000000000000000000000000011100 %#
b10000000000000000000000000011100 E"
b1 ?
b1 B
b1 >
1*
1/
b1000000000000000011101111 0
b10000000000000000000000000000000 2
b1 ;
1)
#65000
0)
#70000
b10000000000000000000000000100100 d
b101 M
b101 X"
b101 -#
b0 a
b0 G"
0:"
1;"
1%
b10000000000000000000000000000000 Z
b10000000000000000000000000000000 8#
b10101010000101110000011100010011 T
b10101010000101110000011100010011 !#
b10101010000101110000011100010011 &#
b0 >"
b0 l"
b0 7#
b0 D#
b0 ?"
b0 k"
b0 6#
b0 C#
b1111 @"
b1111 j"
b0 V
b0 m"
b10000000000000000000000000000000 O
b10000000000000000000000000000000 U
b10000000000000000000000000000000 r"
b10000000000000000000000000000000 F#
b10101010101010101011000000000000 ]
b10101010101010101011000000000000 J"
b10101010101010101011000000000000 Y"
b10101010101010101011000000000000 _
b10101010101010101011000000000000 H"
b11111 U"
1P"
0O"
b0 `
b0 L"
b0 X
b0 @#
b10000000000000000000000000100000 E
b10000000000000000000000000100000 ~"
b10000000000000000000000000100000 %#
b10000000000000000000000000100000 E"
b10000000000000000000011110110111 r
b10000000000000000000011110110111 Q"
b10000000000000000000011110110111 q"
b10000000000000000000011110110111 ##
b10000000000000000000011110110111 E#
b11100 P
b10000000000000000000000000011100 q
b10000000000000000000000000011100 p"
b10000000000000000000000000011100 $#
b1010 )"
b1010 I"
b1010 s"
b1 $"
b1 `"
b1 t"
0y
b10101010101010101011000000000000 |
b10101010101010101011000000000000 y"
b11 }
b11 ^"
b11 x"
b1010 !"
b1010 w"
b1010 >#
b10101 ""
b10101 v"
b10101 =#
b1110 #"
b1110 _"
b1110 u"
b1110 B#
b10101010101010101011011100110111 {
b10101010101010101011011100110111 ]"
b10101010101010101011011100110111 z"
b10000000000000000000000000011000 x
b10000000000000000000000000011000 \"
b10000000000000000000000000011000 {"
b0 3"
b0 b"
b0 )#
1."
x5"
06"
b10 1"
b10 V"
b10 d"
b1101 2"
b1101 c"
b1101 *#
b1101 <#
b111110001111010011010000011 0"
b111110001111010011010000011 e"
b111110001111010011010000011 ,#
b10000000000000000000000000010100 -"
b10000000000000000000000000010100 f"
b10000000000000000000000000010100 .#
b10000000000000000000000001111100 7"
b10000000000000000000000001111100 W"
b10000000000000000000000001111100 a"
b10000000000000000000000001111100 '#
b1111 m
b1111 1#
b1111 5#
b1111 ?#
b10000000000000000000011110110111 l
b10000000000000000000011110110111 2#
b10000000000000000000000000010000 i
b10000000000000000000000000010000 4#
b10000000000000000000000000000000 o
b10000000000000000000000000000000 /#
b0 ?
0/
b0 ;
1)
#75000
0)
#80000
b10000000000000000000000000101000 d
b10000000000000000000000000000100 G
b10000000000000000000000000000100 o"
b10000000000000000000000000000000 ]
b10000000000000000000000000000000 J"
b10000000000000000000000000000000 Y"
b10000000000000000000000000000100 H
b10000000000000000000000000000100 :#
b0 C"
b0 h"
b101 Z
b101 8#
b0 U"
b0 M
b0 X"
b0 -#
b10000000000000000000000000000000 _
b10000000000000000000000000000000 H"
b1 >"
b1 l"
b1 7#
b1 D#
b1110 ?"
b1110 k"
b1110 6#
b1110 C#
b1110 @"
b1110 j"
b0 D"
b0 R"
b11111111111111111111101010100001 O
b11111111111111111111101010100001 U
b11111111111111111111101010100001 r"
b11111111111111111111101010100001 F#
b111001111010100000100011 T
b111001111010100000100011 !#
b111001111010100000100011 &#
b0 n
b0 0#
b1101 m
b1101 1#
b1101 5#
b1101 ?#
b111110001111010011010000011 l
b111110001111010011010000011 2#
b10000000000000000000000000010100 i
b10000000000000000000000000010100 4#
b10000000000000000000000001111100 o
b10000000000000000000000001111100 /#
b101 j
b101 3#
b1 3"
b1 b"
b1 )#
0."
05"
16"
b11 1"
b11 V"
b11 d"
b1110 2"
b1110 c"
b1110 *#
b1110 <#
b10101010101010101011011100110111 0"
b10101010101010101011011100110111 e"
b10101010101010101011011100110111 ,#
b10000000000000000000000000011000 -"
b10000000000000000000000000011000 f"
b10000000000000000000000000011000 .#
b10101010101010101011000000000000 7"
b10101010101010101011000000000000 W"
b10101010101010101011000000000000 a"
b10101010101010101011000000000000 '#
b10000000000000000000000000000000 |
b10000000000000000000000000000000 y"
b0 }
b0 ^"
b0 x"
b0 !"
b0 w"
b0 >#
b0 ""
b0 v"
b0 =#
b1111 #"
b1111 _"
b1111 u"
b1111 B#
b10000000000000000000011110110111 {
b10000000000000000000011110110111 ]"
b10000000000000000000011110110111 z"
b10000000000000000000000000011100 x
b10000000000000000000000000011100 \"
b10000000000000000000000000011100 {"
b10101010000101110000011100010011 r
b10101010000101110000011100010011 Q"
b10101010000101110000011100010011 q"
b10101010000101110000011100010011 ##
b10101010000101110000011100010011 E#
b1111111111111111111101011000001 P
b10000000000000000000000000100000 q
b10000000000000000000000000100000 p"
b10000000000000000000000000100000 $#
b10000000000000000000000000100100 E
b10000000000000000000000000100100 ~"
b10000000000000000000000000100100 %#
b10000000000000000000000000100100 E"
b1 ?
b10 B
b10 >
1*
1/
b10000000000000000000011110110111 0
b10000000000000000000000000010000 2
b1 ;
1)
#85000
0)
