sim/gtkwave/tb_test1_v2.vcd
$date
	Wed Oct  1 10:58:35 2025
$end
$version
	Icarus Verilog
$end
$timescale
	1ps
$end
$scope module tb_core_test1 $end
$var wire 1 ! branch_event $end
$var wire 1 " jalr_event $end
$var wire 1 # mem_event $end
$var wire 1 $ wb_event $end
$var parameter 32 % LINE_LEN $end
$var parameter 32 & MAX_GOLDEN $end
$var parameter 32 ' STRLEN $end
$var reg 1 ( clk $end
$var reg 1 ) found_local $end
$var reg 1 * handled_br $end
$var reg 1 + handled_jalr $end
$var reg 1 , handled_mem $end
$var reg 1 - handled_wb $end
$var reg 32 . instr_commit [31:0] $end
$var reg 8192 / line [8191:0] $end
$var reg 32 0 pc_commit [31:0] $end
$var reg 1 1 read_ok $end
$var reg 1 2 reset_n $end
$var reg 512 3 s_instr [511:0] $end
$var reg 512 4 s_pc [511:0] $end
$var reg 512 5 s_t3 [511:0] $end
$var reg 512 6 s_t4 [511:0] $end
$var reg 512 7 s_t5 [511:0] $end
$var reg 512 8 s_t6 [511:0] $end
$var integer 32 9 commits_this_cycle [31:0] $end
$var integer 32 : fd_golden [31:0] $end
$var integer 32 ; golden_cnt [31:0] $end
$var integer 32 < i [31:0] $end
$var integer 32 = j [31:0] $end
$var integer 32 > mismatch_count [31:0] $end
$var integer 32 ? n [31:0] $end
$var integer 32 @ pass_count [31:0] $end
$var integer 32 A rdnum [31:0] $end
$var integer 32 B ret [31:0] $end
$scope module dut $end
$var wire 32 C address [31:0] $end
$var wire 1 ( clk $end
$var wire 1 2 reset_n $end
$var wire 1 D trapReq $end
$var wire 32 E rs2_data_src [31:0] $end
$var wire 32 F rs2_data [31:0] $end
$var wire 32 G rs1_data_src [31:0] $end
$var wire 32 H rs1_data [31:0] $end
$var wire 1 I regWEn_mux $end
$var wire 1 J regWEn $end
$var wire 32 K read_data [31:0] $end
$var wire 1 L pc_write $end
$var wire 32 M pc_jump_jalr [31:0] $end
$var wire 32 N pc_jump_jal [31:0] $end
$var wire 1 O memRead_mux $end
$var wire 1 P memRead $end
$var wire 1 Q is_jalr $end
$var wire 32 R instruction [31:0] $end
$var wire 32 S imm [31:0] $end
$var wire 3 T funct3 [2:0] $end
$var wire 2 U forwardB [1:0] $end
$var wire 2 V forwardA [1:0] $end
$var wire 1 W flush $end
$var wire 32 X data_in [31:0] $end
$var wire 1 Y control_MuxSel $end
$var wire 1 Z branch $end
$var wire 32 [ alu_out [31:0] $end
$var wire 32 \ alu_b_src [31:0] $end
$var wire 32 ] alu_b [31:0] $end
$var wire 32 ^ alu_a_src [31:0] $end
$var wire 32 _ alu_a [31:0] $end
$var wire 2 ` WBSel_mux [1:0] $end
$var wire 2 a WBSel [1:0] $end
$var wire 32 b PC_next [31:0] $end
$var wire 1 c MemRW_mux $end
$var wire 1 d MemRW $end
$var wire 1 e MEMWB_trapReq_out $end
$var wire 1 f MEMWB_regWEn_out $end
$var wire 32 g MEMWB_pc_out [31:0] $end
$var wire 32 h MEMWB_mem_data_out [31:0] $end
$var wire 1 i MEMWB_is_jalr_out $end
$var wire 32 j MEMWB_instr_out [31:0] $end
$var wire 5 k MEMWB_addr_rd_out [4:0] $end
$var wire 2 l MEMWB_WBSel_out [1:0] $end
$var wire 32 m MEMWB_ALU_res_out [31:0] $end
$var wire 1 n IFID_write $end
$var wire 32 o IFID_pc_out [31:0] $end
$var wire 32 p IFID_instr_out [31:0] $end
$var wire 1 q IDEX_write $end
$var wire 1 r IDEX_trapReq_out $end
$var wire 32 s IDEX_rs2_out [31:0] $end
$var wire 32 t IDEX_rs1_out [31:0] $end
$var wire 1 u IDEX_regWEn_out $end
$var wire 32 v IDEX_pc_out [31:0] $end
$var wire 1 w IDEX_memRead_out $end
$var wire 1 x IDEX_is_jalr_out $end
$var wire 32 y IDEX_instr_out [31:0] $end
$var wire 32 z IDEX_imm_out [31:0] $end
$var wire 3 { IDEX_funct3_out [2:0] $end
$var wire 1 | IDEX_branch_out $end
$var wire 5 } IDEX_addr_rs2_out [4:0] $end
$var wire 5 ~ IDEX_addr_rs1_out [4:0] $end
$var wire 5 !" IDEX_addr_rd_out [4:0] $end
$var wire 2 "" IDEX_WBSel_out [1:0] $end
$var wire 1 #" IDEX_MemRW_out $end
$var wire 1 $" IDEX_BrUn_out $end
$var wire 1 %" IDEX_BSel_out $end
$var wire 1 &" IDEX_ASel_out $end
$var wire 5 '" IDEX_ALUSel_out [4:0] $end
$var wire 1 (" EXMEM_trapReq_out $end
$var wire 32 )" EXMEM_rs2_out [31:0] $end
$var wire 1 *" EXMEM_regWEn_out $end
$var wire 32 +" EXMEM_pc_out [31:0] $end
$var wire 1 ," EXMEM_memRead_out $end
$var wire 1 -" EXMEM_is_jalr_out $end
$var wire 32 ." EXMEM_instr_out [31:0] $end
$var wire 3 /" EXMEM_funct3_out [2:0] $end
$var wire 5 0" EXMEM_addr_rd_out [4:0] $end
$var wire 2 1" EXMEM_WBSel_out [1:0] $end
$var wire 1 2" EXMEM_MemRW_out $end
$var wire 1 3" EXMEM_BrLT_out $end
$var wire 1 4" EXMEM_BrEq_out $end
$var wire 32 5" EXMEM_ALU_res_out [31:0] $end
$var wire 1 6" BrUn_mux $end
$var wire 1 7" BrUn $end
$var wire 1 8" BrLt $end
$var wire 1 9" BrEq $end
$var wire 1 :" BSel_mux $end
$var wire 1 ;" BSel $end
$var wire 5 <" Addr_rs2 [4:0] $end
$var wire 5 =" Addr_rs1 [4:0] $end
$var wire 5 >" Addr_rd [4:0] $end
$var wire 1 ?" ASel_mux $end
$var wire 1 @" ASel $end
$var wire 5 A" ALUSel_mux [4:0] $end
$var wire 5 B" ALUSel [4:0] $end
$var reg 32 C" PC [31:0] $end
$var reg 1 D" take_branch $end
$scope module ALU $end
$var wire 32 E" A [31:0] $end
$var wire 32 F" B [31:0] $end
$var wire 5 G" ALU_Sel [4:0] $end
$var reg 32 H" ALU_Out [31:0] $end
$var reg 64 I" product [63:0] $end
$upscope $end
$scope module Branch $end
$var wire 32 J" rs1 [31:0] $end
$var wire 32 K" rs2 [31:0] $end
$var wire 1 L" lt_unsigned $end
$var wire 1 M" lt_signed $end
$var wire 1 N" eq $end
$var wire 1 $" BrUn $end
$var reg 1 9" BrEq $end
$var reg 1 8" BrLt $end
$upscope $end
$scope module Control_unit $end
$var wire 32 O" instruction [31:0] $end
$var wire 1 3" BrLt $end
$var wire 1 4" BrEq $end
$var reg 5 P" ALUSel [4:0] $end
$var reg 1 @" ASel $end
$var reg 1 ;" BSel $end
$var reg 1 7" BrUn $end
$var reg 1 d MemRW $end
$var reg 2 Q" WBSel [1:0] $end
$var reg 1 Z branch $end
$var reg 1 W flush $end
$var reg 1 Q is_jalr $end
$var reg 1 P memRead $end
$var reg 1 J regWEn $end
$var reg 1 D trapReq $end
$upscope $end
$scope module DMEM $end
$var wire 1 ( clk $end
$var wire 32 R" write_data [31:0] $end
$var wire 10 S" word_address [9:0] $end
$var wire 1 ," memRead $end
$var wire 3 T" funct3 [2:0] $end
$var wire 32 U" address [31:0] $end
$var wire 1 2" MemRW $end
$var reg 32 V" read_data [31:0] $end
$upscope $end
$scope module EX_MEM $end
$var wire 32 W" ALU_res_in [31:0] $end
$var wire 1 9" BrEq_in $end
$var wire 1 8" BrLT_in $end
$var wire 1 X" PCSel_in $end
$var wire 1 ( clk $end
$var wire 1 2 reset $end
$var wire 32 Y" rs2_in [31:0] $end
$var wire 1 r trapReq_in $end
$var wire 1 u regWEn_in $end
$var wire 32 Z" pc_in [31:0] $end
$var wire 1 w memRead_in $end
$var wire 1 x is_jalr_in $end
$var wire 32 [" instr_in [31:0] $end
$var wire 3 \" funct3_in [2:0] $end
$var wire 5 ]" addr_rd_in [4:0] $end
$var wire 2 ^" WBSel_in [1:0] $end
$var wire 1 #" MemRW_in $end
$var reg 32 _" ALU_res_out [31:0] $end
$var reg 1 4" BrEq_out $end
$var reg 1 3" BrLT_out $end
$var reg 1 2" MemRW_out $end
$var reg 2 `" WBSel_out [1:0] $end
$var reg 5 a" addr_rd_out [4:0] $end
$var reg 3 b" funct3_out [2:0] $end
$var reg 32 c" instr_out [31:0] $end
$var reg 1 -" is_jalr_out $end
$var reg 1 ," memRead_out $end
$var reg 32 d" pc_out [31:0] $end
$var reg 1 *" regWEn_out $end
$var reg 32 e" rs2_out [31:0] $end
$var reg 1 (" trapReq_out $end
$upscope $end
$scope module ID_EX $end
$var wire 5 f" ALUSel_in [4:0] $end
$var wire 1 ?" ASel_in $end
$var wire 1 :" BSel_in $end
$var wire 1 6" BrUn_in $end
$var wire 1 c MemRW_in $end
$var wire 2 g" WBSel_in [1:0] $end
$var wire 5 h" addr_rd_in [4:0] $end
$var wire 5 i" addr_rs1_in [4:0] $end
$var wire 5 j" addr_rs2_in [4:0] $end
$var wire 1 Z branch_in $end
$var wire 1 ( clk $end
$var wire 1 D" flush_branch $end
$var wire 3 k" funct3_in [2:0] $end
$var wire 1 Q is_jalr_in $end
$var wire 1 O memRead_in $end
$var wire 1 I regWEn_in $end
$var wire 1 2 reset $end
$var wire 32 l" rs1_in [31:0] $end
$var wire 32 m" rs2_in [31:0] $end
$var wire 1 D trapReq_in $end
$var wire 32 n" pc_in [31:0] $end
$var wire 32 o" instr_in [31:0] $end
$var wire 32 p" imm_in [31:0] $end
$var wire 1 q IDEX_write $end
$var reg 5 q" ALUSel_out [4:0] $end
$var reg 1 &" ASel_out $end
$var reg 1 %" BSel_out $end
$var reg 1 $" BrUn_out $end
$var reg 1 #" MemRW_out $end
$var reg 2 r" WBSel_out [1:0] $end
$var reg 5 s" addr_rd_out [4:0] $end
$var reg 5 t" addr_rs1_out [4:0] $end
$var reg 5 u" addr_rs2_out [4:0] $end
$var reg 1 | branch_out $end
$var reg 3 v" funct3_out [2:0] $end
$var reg 32 w" imm_out [31:0] $end
$var reg 32 x" instr_out [31:0] $end
$var reg 1 x is_jalr_out $end
$var reg 1 w memRead_out $end
$var reg 32 y" pc_out [31:0] $end
$var reg 1 u regWEn_out $end
$var reg 32 z" rs1_out [31:0] $end
$var reg 32 {" rs2_out [31:0] $end
$var reg 1 r trapReq_out $end
$upscope $end
$scope module IF_ID $end
$var wire 1 ( clk $end
$var wire 1 D" flush_branch $end
$var wire 1 W flush_jal $end
$var wire 32 |" pc_in [31:0] $end
$var wire 1 2 reset $end
$var wire 1 n write_enable $end
$var wire 32 }" instr_in [31:0] $end
$var parameter 32 ~" NOP $end
$var reg 32 !# instr_out [31:0] $end
$var reg 32 "# pc_out [31:0] $end
$upscope $end
$scope module IMEM $end
$var wire 32 ## address [31:0] $end
$var reg 32 $# instruction [31:0] $end
$upscope $end
$scope module MEM_WB $end
$var wire 32 %# ALU_res_in [31:0] $end
$var wire 1 &# PCSel_in $end
$var wire 2 '# WBSel_in [1:0] $end
$var wire 5 (# addr_rd_in [4:0] $end
$var wire 1 ( clk $end
$var wire 32 )# data_write_in [31:0] $end
$var wire 32 *# instr_in [31:0] $end
$var wire 1 -" is_jalr_in $end
$var wire 32 +# mem_data_in [31:0] $end
$var wire 32 ,# pc_in [31:0] $end
$var wire 1 *" regWEn_in $end
$var wire 1 2 reset $end
$var wire 1 (" trapReq_in $end
$var reg 32 -# ALU_res_out [31:0] $end
$var reg 2 .# WBSel_out [1:0] $end
$var reg 5 /# addr_rd_out [4:0] $end
$var reg 32 0# instr_out [31:0] $end
$var reg 1 i is_jalr_out $end
$var reg 32 1# mem_data_out [31:0] $end
$var reg 32 2# pc_out [31:0] $end
$var reg 1 f regWEn_out $end
$var reg 1 e trapReq_out $end
$upscope $end
$scope module RF $end
$var wire 5 3# Addr_rd [4:0] $end
$var wire 5 4# Addr_rs1 [4:0] $end
$var wire 5 5# Addr_rs2 [4:0] $end
$var wire 1 ( clk $end
$var wire 32 6# data_in [31:0] $end
$var wire 1 f regWEn $end
$var wire 1 2 reset $end
$var reg 32 7# rs1 [31:0] $end
$var reg 32 8# rs2 [31:0] $end
$var integer 32 9# i [31:0] $end
$upscope $end
$scope module forwarding_unit $end
$var wire 5 :# ExMem_regRd [4:0] $end
$var wire 1 *" ExMem_regWEn $end
$var wire 5 ;# IdEx_regRs1 [4:0] $end
$var wire 5 <# IdEx_regRs2 [4:0] $end
$var wire 5 =# MemWb_regRd [4:0] $end
$var wire 1 f MemWb_regWEn $end
$var reg 2 ># forwardA [1:0] $end
$var reg 2 ?# forwardB [1:0] $end
$upscope $end
$scope module hazard_detection_unit $end
$var wire 1 w IDEX_MemRead $end
$var wire 5 @# IDEX_Rd [4:0] $end
$var wire 5 A# IFID_RS1 [4:0] $end
$var wire 5 B# IFID_RS2 [4:0] $end
$var reg 1 q IDEX_write $end
$var reg 1 n IFID_write $end
$var reg 1 Y control_MuxSel $end
$var reg 1 L pc_write $end
$upscope $end
$scope module imm_gen $end
$var wire 32 C# instruction [31:0] $end
$var reg 32 D# imm_out [31:0] $end
$upscope $end
$upscope $end
$upscope $end
$enddefinitions $end
$comment Show the parameter values. $end
$dumpall
b10011 ~"
b1000000 '
b1000000000000 &
b10000000000 %
$end
#0
$dumpvars
b0 D#
b10011 C#
b0 B#
b0 A#
b0 @#
b0 ?#
b0 >#
b0 =#
b0 <#
b0 ;#
b0 :#
b100000 9#
b0 8#
b0 7#
b0 6#
b0 5#
b0 4#
b0 3#
b0 2#
b0 1#
b0 0#
b0 /#
b0 .#
b0 -#
b0 ,#
b0 +#
b0 *#
bz )#
b0 (#
b0 '#
z&#
b0 %#
b1000000000000000011101111 $#
b10000000000000000000000000000000 ##
b0 "#
b10011 !#
b1000000000000000011101111 }"
b10000000000000000000000000000000 |"
b0 {"
b0 z"
b0 y"
b0 x"
b0 w"
b0 v"
b0 u"
b0 t"
b0 s"
b0 r"
b0 q"
b0 p"
b10011 o"
b0 n"
b0 m"
b0 l"
b0 k"
b0 j"
b0 i"
b0 h"
b1 g"
b0 f"
b0 e"
b0 d"
b0 c"
b0 b"
b0 a"
b0 `"
b0 _"
b0 ^"
b0 ]"
b0 \"
b0 ["
b0 Z"
b0 Y"
zX"
b0 W"
b0 V"
b0 U"
b0 T"
b0 S"
b0 R"
b1 Q"
b0 P"
b10011 O"
1N"
0M"
0L"
b0 K"
b0 J"
bx I"
b0 H"
b0 G"
b0 F"
b0 E"
0D"
b10000000000000000000000000000000 C"
b0 B"
b0 A"
0@"
0?"
b0 >"
b0 ="
b0 <"
1;"
1:"
19"
08"
x7"
x6"
b0 5"
04"
03"
02"
b0 1"
b0 0"
b0 /"
b0 ."
0-"
0,"
b0 +"
0*"
b0 )"
0("
b0 '"
0&"
0%"
0$"
0#"
b0 ""
b0 !"
b0 ~
b0 }
0|
b0 {
b0 z
b0 y
0x
0w
b0 v
0u
b0 t
b0 s
0r
1q
b10011 p
b0 o
1n
b0 m
b0 l
b0 k
b0 j
0i
b0 h
b0 g
0f
0e
0d
0c
b10000000000000000000000000000100 b
b1 a
b1 `
b0 _
b0 ^
b0 ]
b0 \
b0 [
0Z
0Y
b0 X
0W
b0 V
b0 U
b0 T
b0 S
b1000000000000000011101111 R
0Q
0P
0O
b0 N
b0 M
1L
b0 K
1J
1I
b0 H
b0 G
b0 F
b0 E
0D
b10000000000000000000000000000000 C
bx B
bx A
b0 @
b0 ?
b0 >
bx =
bx <
b0 ;
b10000000000000000000000000000011 :
bx 9
bx 8
bx 7
bx 6
bx 5
bx 4
bx 3
02
x1
bx 0
bx /
bx .
x-
x,
x+
x*
x)
1(
0$
0#
0"
0!
$end
#1000
b110000011110000011100000110000001100000011000000110000001100000011000100110000 8
b110000011110000110010001100101011000010110010000110101001100010011000000110000 7
b1001101 ;
b1010 A
b10 ?
b110000011110000011000000110000001100000011000000110000001100000011000000110000 6
b11110000011000100110000 5
b110000011110000011000000110000001100000011000000111000001100000011011000110111 3
b110000011110000011100000110000001100000011000000110000001100010011010100110100 4
b0 B
b110000011110000011100000110000001100000011000000110000001100010011010100110100001000000011000001111000001100000011000000110000001100000011100000110000001101100011011100001010 /
01
#5000
0(
#10000
b100000 9#
1(
#15000
0(
#20000
b10000000000000000000000000010000 b
b10 `
b10 g"
1?"
b10000 <"
b10000 j"
b10000 5#
b10000 B#
b1 >"
b1 h"
b10 a
b10 Q"
1@"
1W
b10000 M
b10000 S
b10000 p"
b10000 D#
b101110100000000100010010011 R
b101110100000000100010010011 }"
b101110100000000100010010011 $#
14"
b1 ""
b1 ^"
b1 r"
1%"
1u
x$"
b10011 y
b10011 ["
b10011 x"
b1000000000000000011101111 p
b1000000000000000011101111 O"
b1000000000000000011101111 o"
b1000000000000000011101111 !#
b1000000000000000011101111 C#
b10000000000000000000000000010000 N
b10000000000000000000000000000000 o
b10000000000000000000000000000000 n"
b10000000000000000000000000000000 "#
b10000000000000000000000000000100 C
b10000000000000000000000000000100 |"
b10000000000000000000000000000100 ##
b10000000000000000000000000000100 C"
b0 =
0+
0*
0,
0-
b0 9
1(
12
#25000
0(
#30000
b10000000000000000000000000010100 b
b1 `
b1 g"
0?"
b10000000000000000000000000010000 [
b10000000000000000000000000010000 H"
b10000000000000000000000000010000 W"
b10000000000000000000011110110111 R
b10000000000000000000011110110111 }"
b10000000000000000000011110110111 $#
b0 <"
b0 j"
b0 5#
b0 B#
b0 >"
b0 h"
b0 M
b0 S
b0 p"
b0 D#
b1 a
b1 Q"
0@"
0W
b10000000000000000000000000000000 _
b10000000000000000000000000000000 E"
b10000 ]
b10000 F"
b10000000000000000000000000010000 C
b10000000000000000000000000010000 |"
b10000000000000000000000000010000 ##
b10000000000000000000000000010000 C"
b10011 p
b10011 O"
b10011 o"
b10011 !#
b10011 C#
b10000000000000000000000000000100 N
b10000000000000000000000000000100 o
b10000000000000000000000000000100 n"
b10000000000000000000000000000100 "#
b10 ""
b10 ^"
b10 r"
1&"
b10000 z
b10000 w"
b10000 }
b10000 u"
b10000 <#
b1 !"
b1 ]"
b1 s"
b1 @#
b1000000000000000011101111 y
b1000000000000000011101111 ["
b1000000000000000011101111 x"
b10000000000000000000000000000000 v
b10000000000000000000000000000000 Z"
b10000000000000000000000000000000 y"
b1 1"
b1 `"
b1 '#
1*"
b10011 ."
b10011 c"
b10011 *#
1(
#35000
0(
#40000
b10000000000000000000000000011000 b
b0 [
b0 H"
b0 W"
b1010 A"
b1010 f"
b0 X
b0 6#
b100 S"
b0 ]
b0 F"
b0 _
b0 E"
b1111 >"
b1111 h"
b1010 B"
b1010 P"
b10000000000000000000000000000000 M
b10000000000000000000000000000000 S
b10000000000000000000000000000000 p"
b10000000000000000000000000000000 D#
b1111010101000100011 R
b1111010101000100011 }"
b1111010101000100011 $#
1f
b1 l
b1 .#
b10011 j
b10011 0#
b10 1"
b10 `"
b10 '#
b1 0"
b1 a"
b1 (#
b1 :#
b1000000000000000011101111 ."
b1000000000000000011101111 c"
b1000000000000000011101111 *#
b10000000000000000000000000000000 +"
b10000000000000000000000000000000 d"
b10000000000000000000000000000000 ,#
b10000000000000000000000000010000 5"
b10000000000000000000000000010000 U"
b10000000000000000000000000010000 _"
b10000000000000000000000000010000 %#
b1 ""
b1 ^"
b1 r"
0&"
b0 z
b0 w"
b0 }
b0 u"
b0 <#
b0 !"
b0 ]"
b0 s"
b0 @#
b10011 y
b10011 ["
b10011 x"
b10000000000000000000000000000100 v
b10000000000000000000000000000100 Z"
b10000000000000000000000000000100 y"
b10000000000000000000011110110111 p
b10000000000000000000011110110111 O"
b10000000000000000000011110110111 o"
b10000000000000000000011110110111 !#
b10000000000000000000011110110111 C#
b10000 N
b10000000000000000000000000010000 o
b10000000000000000000000000010000 n"
b10000000000000000000000000010000 "#
b10000000000000000000000000010100 C
b10000000000000000000000000010100 |"
b10000000000000000000000000010100 ##
b10000000000000000000000000010100 C"
1(
#45000
0(
#50000
b10000000000000000000000000011100 b
b0 A"
b0 f"
1c
0I
1$
b10000000000000000000000000000100 X
b10000000000000000000000000000100 6#
b10000000000000000000011110110111 R
b10000000000000000000011110110111 }"
b10000000000000000000011110110111 $#
b1111 ="
b1111 i"
b1111 4#
b1111 A#
b10100 >"
b10100 h"
b10 T
b10 k"
b10100 M
b10100 S
b10100 p"
b10100 D#
b0 B"
b0 P"
1d
0J
b10000000000000000000000000000000 [
b10000000000000000000000000000000 H"
b10000000000000000000000000000000 W"
b10000000000000000000000000000000 ]
b10000000000000000000000000000000 F"
b0 S"
b10000000000000000000000000011000 C
b10000000000000000000000000011000 |"
b10000000000000000000000000011000 ##
b10000000000000000000000000011000 C"
b1111010101000100011 p
b1111010101000100011 O"
b1111010101000100011 o"
b1111010101000100011 !#
b1111010101000100011 C#
b10000000000000000000000000101000 N
b10000000000000000000000000010100 o
b10000000000000000000000000010100 n"
b10000000000000000000000000010100 "#
b1010 '"
b1010 G"
b1010 q"
b10000000000000000000000000000000 z
b10000000000000000000000000000000 w"
b1111 !"
b1111 ]"
b1111 s"
b1111 @#
b10000000000000000000011110110111 y
b10000000000000000000011110110111 ["
b10000000000000000000011110110111 x"
b10000000000000000000000000010000 v
b10000000000000000000000000010000 Z"
b10000000000000000000000000010000 y"
b1 1"
b1 `"
b1 '#
b0 0"
b0 a"
b0 (#
b0 :#
b10011 ."
b10011 c"
b10011 *#
b10000000000000000000000000000100 +"
b10000000000000000000000000000100 d"
b10000000000000000000000000000100 ,#
b0 5"
b0 U"
b0 _"
b0 %#
b10 l
b10 .#
b1 k
b1 /#
b1 3#
b1 =#
b1000000000000000011101111 j
b1000000000000000011101111 0#
b10000000000000000000000000000000 g
b10000000000000000000000000000000 2#
b10000000000000000000000000010000 m
b10000000000000000000000000010000 -#
1(
#55000
0(
#60000
b10000000000000000000000000100000 b
b10000000000000000000000000000000 _
b10000000000000000000000000000000 E"
x8"
09"
0$
b0 X
b0 6#
0N"
1M"
b10000000000000000000000000000000 ^
b10000000000000000000000000000000 J"
b1010 A"
b1010 f"
0c
1I
b10000000000000000000000000010100 [
b10000000000000000000000000010100 H"
b10000000000000000000000000010100 W"
b10100 ]
b10100 F"
b10 V
b10 >#
b0 ="
b0 i"
b0 4#
b0 A#
b1111 >"
b1111 h"
b0 T
b0 k"
b1010 B"
b1010 P"
0d
1J
b10000000000000000000000000000000 M
b10000000000000000000000000000000 S
b10000000000000000000000000000000 p"
b10000000000000000000000000000000 D#
b1111010100000100011 R
b1111010100000100011 }"
b1111010100000100011 $#
b1 l
b1 .#
b0 k
b0 /#
b0 3#
b0 =#
b10011 j
b10011 0#
b10000000000000000000000000000100 g
b10000000000000000000000000000100 2#
b0 m
b0 -#
b1111 0"
b1111 a"
b1111 (#
b1111 :#
b10000000000000000000011110110111 ."
b10000000000000000000011110110111 c"
b10000000000000000000011110110111 *#
b10000000000000000000000000010000 +"
b10000000000000000000000000010000 d"
b10000000000000000000000000010000 ,#
b10000000000000000000000000000000 5"
b10000000000000000000000000000000 U"
b10000000000000000000000000000000 _"
b10000000000000000000000000000000 %#
b0 '"
b0 G"
b0 q"
1#"
0u
b10100 z
b10100 w"
b10 {
b10 \"
b10 v"
b1111 ~
b1111 t"
b1111 ;#
b10100 !"
b10100 ]"
b10100 s"
b10100 @#
b1111010101000100011 y
b1111010101000100011 ["
b1111010101000100011 x"
b10000000000000000000000000010100 v
b10000000000000000000000000010100 Z"
b10000000000000000000000000010100 y"
b10000000000000000000011110110111 p
b10000000000000000000011110110111 O"
b10000000000000000000011110110111 o"
b10000000000000000000011110110111 !#
b10000000000000000000011110110111 C#
b11000 N
b10000000000000000000000000011000 o
b10000000000000000000000000011000 n"
b10000000000000000000000000011000 "#
b10000000000000000000000000011100 C
b10000000000000000000000000011100 |"
b10000000000000000000000000011100 ##
b10000000000000000000000000011100 C"
b1 =
b1 @
b1 <
1)
1-
b1000000000000000011101111 .
b10000000000000000000000000000000 0
b1 9
1(
#65000
0(
#70000
b10000000000000000000000000100100 b
b10000000000000000000000000000000 G
b10000000000000000000000000000000 l"
b0 A"
b0 f"
1c
0I
b0 _
b0 E"
08"
19"
1$
b10000000000000000000000000000000 X
b10000000000000000000000000000000 6#
b10000000000000000000011110110111 R
b10000000000000000000011110110111 }"
b10000000000000000000011110110111 $#
b1111 ="
b1111 i"
b1111 4#
b1111 A#
b10000 >"
b10000 h"
b10 T
b10 k"
b10000000000000000000000000010000 M
b10000 S
b10000 p"
b10000 D#
b0 B"
b0 P"
1d
0J
b10000000000000000000000000000000 [
b10000000000000000000000000000000 H"
b10000000000000000000000000000000 W"
b10000000000000000000000000000000 ]
b10000000000000000000000000000000 F"
b101 S"
1N"
0M"
b0 ^
b0 J"
b0 V
b0 >#
b10000000000000000000000000100000 C
b10000000000000000000000000100000 |"
b10000000000000000000000000100000 ##
b10000000000000000000000000100000 C"
b1111010100000100011 p
b1111010100000100011 O"
b1111010100000100011 o"
b1111010100000100011 !#
b1111010100000100011 C#
b10000000000000000000000000101100 N
b10000000000000000000000000011100 o
b10000000000000000000000000011100 n"
b10000000000000000000000000011100 "#
b1010 '"
b1010 G"
b1010 q"
0#"
1u
b10000000000000000000000000000000 z
b10000000000000000000000000000000 w"
b0 {
b0 \"
b0 v"
b0 ~
b0 t"
b0 ;#
b1111 !"
b1111 ]"
b1111 s"
b1111 @#
b10000000000000000000011110110111 y
b10000000000000000000011110110111 ["
b10000000000000000000011110110111 x"
b10000000000000000000000000011000 v
b10000000000000000000000000011000 Z"
b10000000000000000000000000011000 y"
0*"
1#
12"
x3"
04"
b10 /"
b10 T"
b10 b"
b10100 0"
b10100 a"
b10100 (#
b10100 :#
b1111010101000100011 ."
b1111010101000100011 c"
b1111010101000100011 *#
b10000000000000000000000000010100 +"
b10000000000000000000000000010100 d"
b10000000000000000000000000010100 ,#
b10000000000000000000000000010100 5"
b10000000000000000000000000010100 U"
b10000000000000000000000000010100 _"
b10000000000000000000000000010100 %#
b1111 k
b1111 /#
b1111 3#
b1111 =#
b10000000000000000000011110110111 j
b10000000000000000000011110110111 0#
b10000000000000000000000000010000 g
b10000000000000000000000000010000 2#
b10000000000000000000000000000000 m
b10000000000000000000000000000000 -#
b0 =
0-
b0 9
1(
#75000
0(
#80000
b10000000000000000000000000101000 b
b10000000000000000000000000000000 _
b10000000000000000000000000000000 E"
x8"
09"
b0 G
b0 l"
b10000000000000000000000000010100 X
b10000000000000000000000000010100 6#
0N"
1M"
b10000000000000000000000000000000 ^
b10000000000000000000000000000000 J"
b1010 A"
b1010 f"
0c
1I
0$
b0 S"
b10000000000000000000000000010000 [
b10000000000000000000000000010000 H"
b10000000000000000000000000010000 W"
b10000 ]
b10000 F"
b10 V
b10 >#
b0 ="
b0 i"
b0 4#
b0 A#
b1111 >"
b1111 h"
b0 T
b0 k"
b1010 B"
b1010 P"
0d
1J
b10000000000000000000000000000000 M
b10000000000000000000000000000000 S
b10000000000000000000000000000000 p"
b10000000000000000000000000000000 D#
b0 H
b0 7#
b1111010011000100011 R
b1111010011000100011 }"
b1111010011000100011 $#
0f
b10100 k
b10100 /#
b10100 3#
b10100 =#
b1111010101000100011 j
b1111010101000100011 0#
b10000000000000000000000000010100 g
b10000000000000000000000000010100 2#
b10000000000000000000000000010100 m
b10000000000000000000000000010100 -#
1*"
0#
02"
03"
14"
b0 /"
b0 T"
b0 b"
b1111 0"
b1111 a"
b1111 (#
b1111 :#
b10000000000000000000011110110111 ."
b10000000000000000000011110110111 c"
b10000000000000000000011110110111 *#
b10000000000000000000000000011000 +"
b10000000000000000000000000011000 d"
b10000000000000000000000000011000 ,#
b10000000000000000000000000000000 5"
b10000000000000000000000000000000 U"
b10000000000000000000000000000000 _"
b10000000000000000000000000000000 %#
b0 '"
b0 G"
b0 q"
1#"
0u
b10000 z
b10000 w"
b10000000000000000000000000000000 t
b10000000000000000000000000000000 z"
b10 {
b10 \"
b10 v"
b1111 ~
b1111 t"
b1111 ;#
b10000 !"
b10000 ]"
b10000 s"
b10000 @#
b1111010100000100011 y
b1111010100000100011 ["
b1111010100000100011 x"
b10000000000000000000000000011100 v
b10000000000000000000000000011100 Z"
b10000000000000000000000000011100 y"
b10000000000000000000011110110111 p
b10000000000000000000011110110111 O"
b10000000000000000000011110110111 o"
b10000000000000000000011110110111 !#
b10000000000000000000011110110111 C#
b100000 N
b10000000000000000000000000100000 o
b10000000000000000000000000100000 n"
b10000000000000000000000000100000 "#
b10000000000000000000000000100100 C
b10000000000000000000000000100100 |"
b10000000000000000000000000100100 ##
b10000000000000000000000000100100 C"
1,
b10 =
b11 @
b11 <
1)
1-
b1111010101000100011 .
b10000000000000000000000000010100 0
b10 9
1(
#85000
0(
