sim/gtkwave/tb_top_module_sc2.vcd
$date
	Wed Aug 20 16:25:25 2025
$end
$version
	Icarus Verilog
$end
$timescale
	1ps
$end
$scope module tb_top_module_sc2 $end
$var parameter 32 ! NUMBER_OF_CYCLES $end
$var reg 1 " clk $end
$var reg 32 # golden_pc_temp [31:0] $end
$var reg 80000 $ line [79999:0] $end
$var reg 1 % rst_n $end
$var integer 32 & dummy [31:0] $end
$var integer 32 ' err_count [31:0] $end
$var integer 32 ( fd [31:0] $end
$var integer 32 ) flag [31:0] $end
$var integer 32 * i [31:0] $end
$var integer 32 + inst_cnt [31:0] $end
$var integer 32 , status [31:0] $end
$var integer 32 - timeout_cnt [31:0] $end
$scope module dut $end
$var wire 32 . address [31:0] $end
$var wire 1 " clk $end
$var wire 1 % reset_n $end
$var wire 32 / write_data [31:0] $end
$var wire 32 0 rs2_data [31:0] $end
$var wire 32 1 rs1_data [31:0] $end
$var wire 1 2 regWEn_mux $end
$var wire 1 3 regWEn $end
$var wire 32 4 read_data [31:0] $end
$var wire 1 5 pc_write $end
$var wire 32 6 instruction [31:0] $end
$var wire 32 7 imm [31:0] $end
$var wire 3 8 funct3 [2:0] $end
$var wire 2 9 forwardB [1:0] $end
$var wire 2 : forwardA [1:0] $end
$var wire 32 ; data_in [31:0] $end
$var wire 1 < control_MuxSel $end
$var wire 32 = alu_out [31:0] $end
$var wire 32 > alu_b_src [31:0] $end
$var wire 32 ? alu_b [31:0] $end
$var wire 32 @ alu_a_src [31:0] $end
$var wire 32 A alu_a [31:0] $end
$var wire 2 B WBSel_mux [1:0] $end
$var wire 2 C WBSel [1:0] $end
$var wire 32 D PC_next [31:0] $end
$var wire 32 E PC_mux_out [31:0] $end
$var wire 1 F PCSel_mux $end
$var wire 1 G PCSel $end
$var wire 1 H MemRW_mux $end
$var wire 1 I MemRW $end
$var wire 1 J MEMWB_regWEn_out $end
$var wire 32 K MEMWB_pc_out [31:0] $end
$var wire 32 L MEMWB_mem_data_out [31:0] $end
$var wire 5 M MEMWB_addr_rd_out [4:0] $end
$var wire 2 N MEMWB_WBSel_out [1:0] $end
$var wire 1 O MEMWB_PCSel_out $end
$var wire 32 P MEMWB_ALU_res_out [31:0] $end
$var wire 1 Q IFID_write $end
$var wire 32 R IFID_pc_out [31:0] $end
$var wire 32 S IFID_instr_out [31:0] $end
$var wire 32 T IDEX_rs2_out [31:0] $end
$var wire 32 U IDEX_rs1_out [31:0] $end
$var wire 1 V IDEX_regWEn_out $end
$var wire 32 W IDEX_pc_out [31:0] $end
$var wire 32 X IDEX_imm_out [31:0] $end
$var wire 5 Y IDEX_addr_rs2_out [4:0] $end
$var wire 5 Z IDEX_addr_rs1_out [4:0] $end
$var wire 5 [ IDEX_addr_rd_out [4:0] $end
$var wire 2 \ IDEX_WBSel_out [1:0] $end
$var wire 1 ] IDEX_PCSel_out $end
$var wire 1 ^ IDEX_MemRW_out $end
$var wire 1 _ IDEX_BrUn_out $end
$var wire 1 ` IDEX_BSel_out $end
$var wire 1 a IDEX_ASel_out $end
$var wire 5 b IDEX_ALUSel_out [4:0] $end
$var wire 32 c EXMEM_rs2_out [31:0] $end
$var wire 1 d EXMEM_regWEn_out $end
$var wire 32 e EXMEM_pc_out [31:0] $end
$var wire 5 f EXMEM_addr_rd_out [4:0] $end
$var wire 2 g EXMEM_WBSel_out [1:0] $end
$var wire 1 h EXMEM_PCSel_out $end
$var wire 1 i EXMEM_MemRW_out $end
$var wire 1 j EXMEM_BrLT_out $end
$var wire 1 k EXMEM_BrEq_out $end
$var wire 32 l EXMEM_ALU_res_out [31:0] $end
$var wire 1 m BrUn_mux $end
$var wire 1 n BrUn $end
$var wire 1 o BrLt $end
$var wire 1 p BrEq $end
$var wire 1 q BSel_mux $end
$var wire 1 r BSel $end
$var wire 5 s Addr_rs2 [4:0] $end
$var wire 5 t Addr_rs1 [4:0] $end
$var wire 5 u Addr_rd [4:0] $end
$var wire 1 v ASel_mux $end
$var wire 1 w ASel $end
$var wire 5 x ALUSel_mux [4:0] $end
$var wire 5 y ALUSel [4:0] $end
$var reg 32 z PC [31:0] $end
$scope module ALU $end
$var wire 32 { A [31:0] $end
$var wire 32 | B [31:0] $end
$var wire 5 } ALU_Sel [4:0] $end
$var reg 32 ~ ALU_Out [31:0] $end
$upscope $end
$scope module Branch $end
$var wire 32 !" rs2 [31:0] $end
$var wire 32 "" rs1 [31:0] $end
$var wire 1 #" lt_unsigned $end
$var wire 1 $" lt_signed $end
$var wire 1 %" eq $end
$var wire 1 _ BrUn $end
$var reg 1 p BrEq $end
$var reg 1 o BrLt $end
$upscope $end
$scope module Control_unit $end
$var wire 32 &" instruction [31:0] $end
$var wire 1 j BrLt $end
$var wire 1 k BrEq $end
$var reg 5 '" ALUSel [4:0] $end
$var reg 1 w ASel $end
$var reg 1 r BSel $end
$var reg 1 n BrUn $end
$var reg 1 I MemRW $end
$var reg 1 G PCSel $end
$var reg 2 (" WBSel [1:0] $end
$var reg 1 3 regWEn $end
$upscope $end
$scope module DMEM $end
$var wire 1 " clk $end
$var wire 3 )" funct3 [2:0] $end
$var wire 32 *" write_data [31:0] $end
$var wire 10 +" word_address [9:0] $end
$var wire 32 ," address [31:0] $end
$var wire 1 i MemRW $end
$var reg 32 -" read_data [31:0] $end
$upscope $end
$scope module EX_MEM $end
$var wire 32 ." ALU_res_in [31:0] $end
$var wire 1 p BrEq_in $end
$var wire 1 o BrLT_in $end
$var wire 1 " clk $end
$var wire 1 % reset $end
$var wire 32 /" rs2_in [31:0] $end
$var wire 1 V regWEn_in $end
$var wire 32 0" pc_in [31:0] $end
$var wire 5 1" addr_rd_in [4:0] $end
$var wire 2 2" WBSel_in [1:0] $end
$var wire 1 ] PCSel_in $end
$var wire 1 ^ MemRW_in $end
$var reg 32 3" ALU_res_out [31:0] $end
$var reg 1 k BrEq_out $end
$var reg 1 j BrLT_out $end
$var reg 1 i MemRW_out $end
$var reg 1 h PCSel_out $end
$var reg 2 4" WBSel_out [1:0] $end
$var reg 5 5" addr_rd_out [4:0] $end
$var reg 32 6" pc_out [31:0] $end
$var reg 1 d regWEn_out $end
$var reg 32 7" rs2_out [31:0] $end
$upscope $end
$scope module ID_EX $end
$var wire 5 8" ALUSel_in [4:0] $end
$var wire 1 v ASel_in $end
$var wire 1 q BSel_in $end
$var wire 1 m BrUn_in $end
$var wire 1 H MemRW_in $end
$var wire 1 F PCSel_in $end
$var wire 2 9" WBSel_in [1:0] $end
$var wire 5 :" addr_rd_in [4:0] $end
$var wire 5 ;" addr_rs1_in [4:0] $end
$var wire 5 <" addr_rs2_in [4:0] $end
$var wire 1 " clk $end
$var wire 1 2 regWEn_in $end
$var wire 1 % reset $end
$var wire 32 =" rs2_in [31:0] $end
$var wire 32 >" rs1_in [31:0] $end
$var wire 32 ?" pc_in [31:0] $end
$var wire 32 @" imm_in [31:0] $end
$var reg 5 A" ALUSel_out [4:0] $end
$var reg 1 a ASel_out $end
$var reg 1 ` BSel_out $end
$var reg 1 _ BrUn_out $end
$var reg 1 ^ MemRW_out $end
$var reg 1 ] PCSel_out $end
$var reg 2 B" WBSel_out [1:0] $end
$var reg 5 C" addr_rd_out [4:0] $end
$var reg 5 D" addr_rs1_out [4:0] $end
$var reg 5 E" addr_rs2_out [4:0] $end
$var reg 32 F" imm_out [31:0] $end
$var reg 32 G" pc_out [31:0] $end
$var reg 1 V regWEn_out $end
$var reg 32 H" rs1_out [31:0] $end
$var reg 32 I" rs2_out [31:0] $end
$upscope $end
$scope module IF_ID $end
$var wire 1 " clk $end
$var wire 32 J" pc_in [31:0] $end
$var wire 1 % reset $end
$var wire 1 Q write_enable $end
$var wire 32 K" instr_in [31:0] $end
$var parameter 32 L" NOP $end
$var reg 32 M" instr_out [31:0] $end
$var reg 32 N" pc_out [31:0] $end
$upscope $end
$scope module IMEM $end
$var wire 32 O" address [31:0] $end
$var reg 32 P" instruction [31:0] $end
$upscope $end
$scope module MEM_WB $end
$var wire 32 Q" ALU_res_in [31:0] $end
$var wire 1 h PCSel_in $end
$var wire 2 R" WBSel_in [1:0] $end
$var wire 5 S" addr_rd_in [4:0] $end
$var wire 1 " clk $end
$var wire 32 T" mem_data_in [31:0] $end
$var wire 32 U" pc_in [31:0] $end
$var wire 1 d regWEn_in $end
$var wire 1 % reset $end
$var reg 32 V" ALU_res_out [31:0] $end
$var reg 1 O PCSel_out $end
$var reg 2 W" WBSel_out [1:0] $end
$var reg 5 X" addr_rd_out [4:0] $end
$var reg 32 Y" mem_data_out [31:0] $end
$var reg 32 Z" pc_out [31:0] $end
$var reg 1 J regWEn_out $end
$upscope $end
$scope module RF $end
$var wire 5 [" Addr_rd [4:0] $end
$var wire 5 \" Addr_rs1 [4:0] $end
$var wire 5 ]" Addr_rs2 [4:0] $end
$var wire 1 " clk $end
$var wire 32 ^" data_in [31:0] $end
$var wire 1 3 regWEn $end
$var wire 1 % reset $end
$var reg 32 _" rs1 [31:0] $end
$var reg 32 `" rs2 [31:0] $end
$var integer 32 a" i [31:0] $end
$upscope $end
$scope module forwarding_unit $end
$var wire 5 b" ExMem_regRd [4:0] $end
$var wire 1 d ExMem_regWEn $end
$var wire 5 c" IdEx_regRs1 [4:0] $end
$var wire 5 d" IdEx_regRs2 [4:0] $end
$var wire 5 e" MemWb_regRd [4:0] $end
$var wire 1 J MemWb_regWEn $end
$var reg 2 f" forwardA [1:0] $end
$var reg 2 g" forwardB [1:0] $end
$upscope $end
$scope module hazard_detection_unit $end
$var wire 1 ^ IDEX_MemRW $end
$var wire 5 h" IDEX_Rd [4:0] $end
$var wire 5 i" IFID_RS1 [4:0] $end
$var wire 5 j" IFID_RS2 [4:0] $end
$var reg 1 Q IFID_write $end
$var reg 1 < control_MuxSel $end
$var reg 1 5 pc_write $end
$upscope $end
$scope module imm_gen $end
$var wire 32 k" instruction [31:0] $end
$var reg 32 l" imm_out [31:0] $end
$upscope $end
$upscope $end
$scope begin $ivl_for_loop0 $end
$var integer 32 m" k [31:0] $end
$upscope $end
$scope begin $ivl_for_loop1 $end
$var integer 32 n" k [31:0] $end
$upscope $end
$scope begin $ivl_for_loop2 $end
$var integer 32 o" j [31:0] $end
$upscope $end
$scope begin $ivl_for_loop3 $end
$var integer 32 p" j [31:0] $end
$upscope $end
$upscope $end
$enddefinitions $end
$comment Show the parameter values. $end
$dumpall
b10011 L"
b1110000 !
$end
#0
$dumpvars
b100000000 p"
b100000 o"
bx n"
bx m"
b0 l"
b10011 k"
b0 j"
b0 i"
b0 h"
b0 g"
b0 f"
b0 e"
b0 d"
b0 c"
b0 b"
b100000 a"
b0 `"
b0 _"
b0 ^"
b0 ]"
b0 \"
b0 ["
b0 Z"
b0 Y"
b0 X"
b0 W"
b0 V"
b0 U"
b0 T"
b0 S"
b0 R"
b0 Q"
b10110111 P"
b0 O"
b0 N"
b10011 M"
b10110111 K"
b0 J"
b0 I"
b0 H"
b0 G"
b0 F"
b0 E"
b0 D"
b0 C"
b0 B"
b0 A"
b0 @"
b0 ?"
b0 >"
b0 ="
b0 <"
b0 ;"
b0 :"
b1 9"
b0 8"
b0 7"
b0 6"
b0 5"
b0 4"
b0 3"
b0 2"
b0 1"
b0 0"
b0 /"
b0 ."
b0 -"
b0 ,"
b0 +"
b0 *"
b0 )"
b1 ("
b0 '"
b10011 &"
1%"
0$"
0#"
b0 ""
b0 !"
b0 ~
b0 }
b0 |
b0 {
b0 z
b0 y
b0 x
0w
0v
b0 u
b0 t
b0 s
1r
1q
1p
0o
xn
xm
b0 l
0k
0j
0i
0h
b0 g
b0 f
b0 e
0d
b0 c
b0 b
0a
0`
0_
0^
0]
b0 \
b0 [
b0 Z
b0 Y
b0 X
b0 W
0V
b0 U
b0 T
b10011 S
b0 R
1Q
b0 P
0O
b0 N
b0 M
b0 L
b0 K
0J
0I
0H
0G
0F
b100 E
b100 D
b1 C
b1 B
b0 A
b0 @
b0 ?
b0 >
b0 =
0<
b0 ;
b0 :
b0 9
b0 8
b0 7
b10110111 6
15
b0 4
13
12
b0 1
b0 0
b0 /
b0 .
bx -
b0 ,
bx +
b1110000 *
b0 )
b10000000000000000000000000000011 (
bx '
b11111111111111111111111111111111 &
0%
b0 $
b100000100 #
1"
$end
#5000
0"
#10000
b1 )
b100000000 n"
b100000 m"
b100000 a"
1"
#15000
0"
#20000
b1010 x
b1010 8"
b1000 D
b1 u
b1 :"
b1010 y
b1010 '"
b1000 E
b1000000010010011 6
b1000000010010011 K"
b1000000010010011 P"
1k
b1 \
b1 2"
b1 B"
1`
1V
x_
b10110111 S
b10110111 &"
b10110111 M"
b10110111 k"
b100 .
b100 J"
b100 O"
b100 z
b10 )
b100000000 n"
b100000 m"
1"
b0 '
b0 -
b0 +
1%
#25000
0"
#30000
b1100 D
b0 x
b0 8"
b1100 E
b10100000000000100010011 6
b10100000000000100010011 K"
b10100000000000100010011 P"
b1 t
b1 ;"
b1 \"
b1 i"
b0 y
b0 '"
b1000 .
b1000 J"
b1000 O"
b1000 z
b1000000010010011 S
b1000000010010011 &"
b1000000010010011 M"
b1000000010010011 k"
b100 R
b100 ?"
b100 N"
b1010 b
b1010 }
b1010 A"
b1 [
b1 1"
b1 C"
b1 h"
b1 g
b1 4"
b1 R"
1d
b11 )
b100000000 n"
b100000 m"
1"
#35000
0"
#40000
b10000 D
b0 ;
b0 ^"
b10 :
b10 f"
b101 s
b101 <"
b101 ]"
b101 j"
b0 t
b0 ;"
b0 \"
b0 i"
b10 u
b10 :"
b101 7
b101 @"
b101 l"
b10000 E
b101000000000000110010011 6
b101000000000000110010011 K"
b101000000000000110010011 P"
1J
b1 N
b1 W"
b1 f
b1 5"
b1 S"
b1 b"
b0 b
b0 }
b0 A"
b1 Z
b1 D"
b1 c"
b100 W
b100 0"
b100 G"
b10100000000000100010011 S
b10100000000000100010011 &"
b10100000000000100010011 M"
b10100000000000100010011 k"
b1000 R
b1000 ?"
b1000 N"
b1100 .
b1100 J"
b1100 O"
b1100 z
b100 )
b100000000 n"
b100000 m"
1"
#45000
0"
#50000
b10100 D
b101 =
b101 ~
b101 ."
b10100 E
b1100010000001000110011 6
b1100010000001000110011 K"
b1100010000001000110011 P"
b1010 s
b1010 <"
b1010 ]"
b1010 j"
b11 u
b11 :"
b1010 7
b1010 @"
b1010 l"
b101 ?
b101 |
b0 :
b0 f"
b10000 .
b10000 J"
b10000 O"
b10000 z
b101000000000000110010011 S
b101000000000000110010011 &"
b101000000000000110010011 M"
b101000000000000110010011 k"
b1100 R
b1100 ?"
b1100 N"
b101 X
b101 F"
b101 Y
b101 E"
b101 d"
b0 Z
b0 D"
b0 c"
b10 [
b10 1"
b10 C"
b10 h"
b1000 W
b1000 0"
b1000 G"
b100 e
b100 6"
b100 U"
b1 M
b1 X"
b1 ["
b1 e"
b101 )
b100000000 n"
b100000 m"
1"
#55000
0"
#60000
b1010 =
b1010 ~
b1010 ."
0q
b11000 D
b1 +"
b1010 ?
b1010 |
b11 s
b11 <"
b11 ]"
b11 j"
b10 t
b10 ;"
b10 \"
b10 i"
b100 u
b100 :"
0r
b0 7
b0 @"
b0 l"
b11000 E
b1000000001000011000001000110011 6
b1000000001000011000001000110011 K"
b1000000001000011000001000110011 P"
b100 K
b100 Z"
b10 f
b10 5"
b10 S"
b10 b"
b1000 e
b1000 6"
b1000 U"
b101 l
b101 ,"
b101 3"
b101 Q"
b1010 X
b1010 F"
b1010 Y
b1010 E"
b1010 d"
b11 [
b11 1"
b11 C"
b11 h"
b1100 W
b1100 0"
b1100 G"
b1100010000001000110011 S
b1100010000001000110011 &"
b1100010000001000110011 M"
b1100010000001000110011 k"
b10000 R
b10000 ?"
b10000 N"
b10100 .
b10100 J"
b10100 O"
b10100 z
b110 )
b100000000 n"
b1 '
b100000 m"
1"
#65000
0"
#70000
b101 A
b101 {
b101 @
b11100 D
b1 x
b1 8"
b1111 =
b1111 ~
b1111 ."
b1010 >
b1010 /"
b101 ;
b101 ^"
b11100 E
b1100010111001000110011 6
b1100010111001000110011 K"
b1100010111001000110011 P"
b10 s
b10 <"
b10 ]"
b10 j"
b11 t
b11 ;"
b11 \"
b11 i"
b1 y
b1 '"
b1010 ?
b1010 |
b10 +"
b10 9
b10 g"
b1 :
b1 f"
b11000 .
b11000 J"
b11000 O"
b11000 z
b1000000001000011000001000110011 S
b1000000001000011000001000110011 &"
b1000000001000011000001000110011 M"
b1000000001000011000001000110011 k"
b10100 R
b10100 ?"
b10100 N"
0`
b0 X
b0 F"
b11 Y
b11 E"
b11 d"
b10 Z
b10 D"
b10 c"
b100 [
b100 1"
b100 C"
b100 h"
b10000 W
b10000 0"
b10000 G"
b11 f
b11 5"
b11 S"
b11 b"
b1100 e
b1100 6"
b1100 U"
b1010 l
b1010 ,"
b1010 3"
b1010 Q"
b10 M
b10 X"
b10 ["
b10 e"
b1000 K
b1000 Z"
b101 P
b101 V"
b111 )
b100000000 n"
b11 '
b100000 m"
1"
#75000
0"
#80000
b1010 A
b1010 {
b1010 @
b1010 ;
b1010 ^"
b0 ?
b0 |
b101 1
b101 >"
b101 _"
b10 x
b10 8"
b100000 D
b11 +"
b0 >
b0 /"
b1010 =
b1010 ~
b1010 ."
b0 9
b0 g"
b11 s
b11 <"
b11 ]"
b11 j"
b10 t
b10 ;"
b10 \"
b10 i"
b111 8
b111 )"
b10 y
b10 '"
b0 0
b0 ="
b0 `"
b100000 E
b1100010110001000110011 6
b1100010110001000110011 K"
b1100010110001000110011 P"
b11 M
b11 X"
b11 ["
b11 e"
b1100 K
b1100 Z"
b1010 P
b1010 V"
b100 f
b100 5"
b100 S"
b100 b"
b10000 e
b10000 6"
b10000 U"
b1010 /
b1010 *"
b1010 c
b1010 7"
b1111 l
b1111 ,"
b1111 3"
b1111 Q"
b1 b
b1 }
b1 A"
b10 Y
b10 E"
b10 d"
b11 Z
b11 D"
b11 c"
b10100 W
b10100 0"
b10100 G"
b1100010111001000110011 S
b1100010111001000110011 &"
b1100010111001000110011 M"
b1100010111001000110011 k"
b11000 R
b11000 ?"
b11000 N"
b11100 .
b11100 J"
b11100 O"
b11100 z
b1000 )
b100000000 n"
b110 '
b100000 m"
1"
#85000
0"
#90000
b101 A
b101 {
b101 @
b100100 D
b11 x
b11 8"
b1111 ;
b1111 ^"
b100100 E
b1100010001001000110011 6
b1100010001001000110011 K"
b1100010001001000110011 P"
b1010 0
b1010 ="
b1010 `"
b110 8
b110 )"
b11 y
b11 '"
b0 =
b0 ~
b0 ."
0p
b10 +"
b0 :
b0 f"
b100000 .
b100000 J"
b100000 O"
b100000 z
b1100010110001000110011 S
b1100010110001000110011 &"
b1100010110001000110011 M"
b1100010110001000110011 k"
b11100 R
b11100 ?"
b11100 N"
b10 b
b10 }
b10 A"
0%"
b101 U
b101 ""
b101 H"
b11 Y
b11 E"
b11 d"
b10 Z
b10 D"
b10 c"
b11000 W
b11000 0"
b11000 G"
b10100 e
b10100 6"
b10100 U"
b0 /
b0 *"
b0 c
b0 7"
b1010 l
b1010 ,"
b1010 3"
b1010 Q"
b100 M
b100 X"
b100 ["
b100 e"
b10000 K
b10000 Z"
b1111 P
b1111 V"
b1001 )
b100000000 n"
b1000 '
b100000 m"
1"
#95000
0"
#100000
b1010 ?
b1010 |
b1010 ;
b1010 ^"
b1010 >
b1010 /"
b101 x
b101 8"
b101000 D
b0 +"
b1111 =
b1111 ~
b1111 ."
1o
b1 8
b1 )"
b101 y
b101 '"
b101000 E
b1000011101001000110011 6
b1000011101001000110011 K"
b1000011101001000110011 P"
b10100 K
b10100 Z"
b1010 P
b1010 V"
0k
b11000 e
b11000 6"
b11000 U"
b0 l
b0 ,"
b0 3"
b0 Q"
b11 b
b11 }
b11 A"
1#"
1$"
b1010 T
b1010 !"
b1010 I"
b11100 W
b11100 0"
b11100 G"
b1100010001001000110011 S
b1100010001001000110011 &"
b1100010001001000110011 M"
b1100010001001000110011 k"
b100000 R
b100000 ?"
b100000 N"
b100100 .
b100100 J"
b100100 O"
b100100 z
b1010 )
b100000000 n"
b100000 m"
1"
#105000
0"
#110000
b101100 D
b110 x
b110 8"
b0 ;
b0 ^"
b101100 E
b1100010010001010110011 6
b1100010010001010110011 K"
b1100010010001010110011 P"
b101 0
b101 ="
b101 `"
b1010 1
b1010 >"
b1010 _"
b10 s
b10 <"
b10 ]"
b10 j"
b11 t
b11 ;"
b11 \"
b11 i"
b101 8
b101 )"
b1010000000000 =
b1010000000000 ~
b1010000000000 ."
b110 y
b110 '"
b11 +"
b101000 .
b101000 J"
b101000 O"
b101000 z
b1000011101001000110011 S
b1000011101001000110011 &"
b1000011101001000110011 M"
b1000011101001000110011 k"
b100100 R
b100100 ?"
b100100 N"
b101 b
b101 }
b101 A"
b100000 W
b100000 0"
b100000 G"
1j
b11100 e
b11100 6"
b11100 U"
b1010 /
b1010 *"
b1010 c
b1010 7"
b1111 l
b1111 ,"
b1111 3"
b1111 Q"
b11000 K
b11000 Z"
b0 P
b0 V"
b1011 )
b100000000 n"
b100000 m"
1"
#115000
0"
#120000
b101 ?
b101 |
b1010 A
b1010 {
b1111 ;
b1111 ^"
b101 >
b101 /"
b1010 @
b1010 0
b1010 ="
b1010 `"
b101 1
b101 >"
b101 _"
b1000 x
b1000 8"
b110000 D
b100000000 +"
b0 =
b0 ~
b0 ."
0o
b11 s
b11 <"
b11 ]"
b11 j"
b10 t
b10 ;"
b10 \"
b10 i"
b101 u
b101 :"
b10 8
b10 )"
b1000 y
b1000 '"
b110000 E
b1000011011001010110011 6
b1000011011001010110011 K"
b1000011011001010110011 P"
b11100 K
b11100 Z"
b1111 P
b1111 V"
b100000 e
b100000 6"
b100000 U"
b1010000000000 l
b1010000000000 ,"
b1010000000000 3"
b1010000000000 Q"
b110 b
b110 }
b110 A"
b101 T
b101 !"
b101 I"
0#"
0$"
0%"
b1010 U
b1010 ""
b1010 H"
b10 Y
b10 E"
b10 d"
b11 Z
b11 D"
b11 c"
b100100 W
b100100 0"
b100100 G"
b1100010010001010110011 S
b1100010010001010110011 &"
b1100010010001010110011 M"
b1100010010001010110011 k"
b101000 R
b101000 ?"
b101000 N"
b101100 .
b101100 J"
b101100 O"
b101100 z
b1100 )
b100000000 n"
b1001 '
b100000 m"
1"
#125000
0"
#130000
b1 =
b1 ~
b1 ."
b1010 ?
b1010 |
b101 A
b101 {
b110100 D
b1010 >
b1010 /"
b101 @
b1001 x
b1001 8"
b1010000000000 ;
b1010000000000 ^"
b110100 E
b111100000000000100010011 6
b111100000000000100010011 K"
b111100000000000100010011 P"
b101 0
b101 ="
b101 `"
b1010 1
b1010 >"
b1010 _"
b10 s
b10 <"
b10 ]"
b10 j"
b11 t
b11 ;"
b11 \"
b11 i"
b11 8
b11 )"
1o
b1001 y
b1001 '"
b0 +"
b110000 .
b110000 J"
b110000 O"
b110000 z
b1000011011001010110011 S
b1000011011001010110011 &"
b1000011011001010110011 M"
b1000011011001010110011 k"
b101100 R
b101100 ?"
b101100 N"
b1000 b
b1000 }
b1000 A"
1#"
1$"
b1010 T
b1010 !"
b1010 I"
0%"
b101 U
b101 ""
b101 H"
b11 Y
b11 E"
b11 d"
b10 Z
b10 D"
b10 c"
b101 [
b101 1"
b101 C"
b101 h"
b101000 W
b101000 0"
b101000 G"
0j
b100100 e
b100100 6"
b100100 U"
b101 /
b101 *"
b101 c
b101 7"
b0 l
b0 ,"
b0 3"
b0 Q"
b100000 K
b100000 Z"
b1010000000000 P
b1010000000000 V"
b1101 )
b100000000 n"
b100000 m"
1"
#135000
0"
#140000
b0 =
b0 ~
b0 ."
b101 ?
b101 |
b1010 A
b1010 {
b0 ;
b0 ^"
b101 >
b101 /"
b1010 @
b0 0
b0 ="
b0 `"
b0 1
b0 >"
b0 _"
b0 x
b0 8"
1q
b111000 D
0o
b1111 s
b1111 <"
b1111 ]"
b1111 j"
b0 t
b0 ;"
b0 \"
b0 i"
b10 u
b10 :"
b0 8
b0 )"
b0 y
b0 '"
1r
b1111 7
b1111 @"
b1111 l"
b111000 E
b11111111101100010000000110010011 6
b11111111101100010000000110010011 K"
b11111111101100010000000110010011 P"
b100100 K
b100100 Z"
b0 P
b0 V"
1j
b101 f
b101 5"
b101 S"
b101 b"
b101000 e
b101000 6"
b101000 U"
b1010 /
b1010 *"
b1010 c
b1010 7"
b1 l
b1 ,"
b1 3"
b1 Q"
b1001 b
b1001 }
b1001 A"
b101 T
b101 !"
b101 I"
0#"
0$"
0%"
b1010 U
b1010 ""
b1010 H"
b10 Y
b10 E"
b10 d"
b11 Z
b11 D"
b11 c"
b101100 W
b101100 0"
b101100 G"
b111100000000000100010011 S
b111100000000000100010011 &"
b111100000000000100010011 M"
b111100000000000100010011 k"
b110000 R
b110000 ?"
b110000 N"
b110100 .
b110100 J"
b110100 O"
b110100 z
b1110 )
b100000000 n"
b1011 '
b100000 m"
1"
#145000
0"
#150000
b0 A
b0 {
b111100 D
b0 >
b0 /"
b0 @
b1 ;
b1 ^"
b111100 E
b111100010111000110010011 6
b111100010111000110010011 K"
b111100010111000110010011 P"
b101 1
b101 >"
b101 _"
b11011 s
b11011 <"
b11011 ]"
b11011 j"
b10 t
b10 ;"
b10 \"
b10 i"
b11 u
b11 :"
b11111111111111111111111111111011 7
b11111111111111111111111111111011 @"
b11111111111111111111111111111011 l"
b1111 =
b1111 ~
b1111 ."
b1111 ?
b1111 |
1p
b111000 .
b111000 J"
b111000 O"
b111000 z
b11111111101100010000000110010011 S
b11111111101100010000000110010011 &"
b11111111101100010000000110010011 M"
b11111111101100010000000110010011 k"
b110100 R
b110100 ?"
b110100 N"
b0 b
b0 }
b0 A"
1`
b1111 X
b1111 F"
1%"
b0 T
b0 !"
b0 I"
0#"
0$"
b0 U
b0 ""
b0 H"
b1111 Y
b1111 E"
b1111 d"
b0 Z
b0 D"
b0 c"
b10 [
b10 1"
b10 C"
b10 h"
b110000 W
b110000 0"
b110000 G"
0j
b101100 e
b101100 6"
b101100 U"
b101 /
b101 *"
b101 c
b101 7"
b0 l
b0 ,"
b0 3"
b0 Q"
b101 M
b101 X"
b101 ["
b101 e"
b101000 K
b101000 Z"
b1 P
b1 V"
b1111 )
b100000000 n"
b1100 '
b100000 m"
1"
#155000
0"
#160000
b1111 A
b1111 {
b0 ;
b0 ^"
b1010 =
b1010 ~
b1010 ."
b1111 @
b10 x
b10 8"
b1000000 D
b11 +"
b11111111111111111111111111111011 ?
b11111111111111111111111111111011 |
0p
b10 :
b10 f"
b1111 s
b1111 <"
b1111 ]"
b1111 j"
b111 8
b111 )"
b10 y
b10 '"
b1111 7
b1111 @"
b1111 l"
b1000000 E
b1111000000010110000110010011 6
b1111000000010110000110010011 K"
b1111000000010110000110010011 P"
b101100 K
b101100 Z"
b0 P
b0 V"
1k
b10 f
b10 5"
b10 S"
b10 b"
b110000 e
b110000 6"
b110000 U"
b0 /
b0 *"
b0 c
b0 7"
b1111 l
b1111 ,"
b1111 3"
b1111 Q"
b11111111111111111111111111111011 X
b11111111111111111111111111111011 F"
0%"
b101 U
b101 ""
b101 H"
b11011 Y
b11011 E"
b11011 d"
b10 Z
b10 D"
b10 c"
b11 [
b11 1"
b11 C"
b11 h"
b110100 W
b110100 0"
b110100 G"
b111100010111000110010011 S
b111100010111000110010011 &"
b111100010111000110010011 M"
b111100010111000110010011 k"
b111000 R
b111000 ?"
b111000 N"
b111100 .
b111100 J"
b111100 O"
b111100 z
b10000 )
b100000000 n"
b1101 '
b100000 m"
1"
#165000
0"
#170000
b1000100 D
b11 x
b11 8"
b1111 A
b1111 {
b1111 ;
b1111 ^"
b1000100 E
b1111111100010100000110010011 6
b1111111100010100000110010011 K"
b1111111100010100000110010011 P"
b10000 s
b10000 <"
b10000 ]"
b10000 j"
b110 8
b110 )"
b11110000 7
b11110000 @"
b11110000 l"
b1111 =
b1111 ~
b1111 ."
b1111 ?
b1111 |
b11 y
b11 '"
b10 +"
b1111 @
b1 :
b1 f"
b1000000 .
b1000000 J"
b1000000 O"
b1000000 z
b1111000000010110000110010011 S
b1111000000010110000110010011 &"
b1111000000010110000110010011 M"
b1111000000010110000110010011 k"
b111100 R
b111100 ?"
b111100 N"
b10 b
b10 }
b10 A"
b1111 X
b1111 F"
b1111 Y
b1111 E"
b1111 d"
b111000 W
b111000 0"
b111000 G"
0k
b11 f
b11 5"
b11 S"
b11 b"
b110100 e
b110100 6"
b110100 U"
b1010 l
b1010 ,"
b1010 3"
b1010 Q"
b10 M
b10 X"
b10 ["
b10 e"
b110000 K
b110000 Z"
b1111 P
b1111 V"
b10001 )
b100000000 n"
b1111 '
b100000 m"
1"
#175000
0"
#180000
b101 A
b101 {
b101 @
b1010 ;
b1010 ^"
b100 x
b100 8"
b1001000 D
b11 +"
b11110101 =
b11110101 ~
b11110101 ."
b11110000 ?
b11110000 |
b0 :
b0 f"
b11111 s
b11111 <"
b11111 ]"
b11111 j"
b100 8
b100 )"
b100 y
b100 '"
b11111111 7
b11111111 @"
b11111111 l"
b1111 1
b1111 >"
b1111 _"
b1001000 E
b1000010001000110010011 6
b1000010001000110010011 K"
b1000010001000110010011 P"
b11 M
b11 X"
b11 ["
b11 e"
b110100 K
b110100 Z"
b1010 P
b1010 V"
b111000 e
b111000 6"
b111000 U"
b1111 l
b1111 ,"
b1111 3"
b1111 Q"
b11 b
b11 }
b11 A"
b11110000 X
b11110000 F"
b10000 Y
b10000 E"
b10000 d"
b111100 W
b111100 0"
b111100 G"
b1111111100010100000110010011 S
b1111111100010100000110010011 &"
b1111111100010100000110010011 M"
b1111111100010100000110010011 k"
b1000000 R
b1000000 ?"
b1000000 N"
b1000100 .
b1000100 J"
b1000100 O"
b1000100 z
b10010 )
b100000000 n"
b10001 '
b100000 m"
1"
#185000
0"
