sim/gtkwave/tb_test1.vcd
$date
	Tue Sep 30 13:50:23 2025
$end
$version
	Icarus Verilog
$end
$timescale
	1ps
$end
$scope module tb_core_test1 $end
$var wire 1 ! branch_event $end
$var wire 1 " commit_event $end
$var wire 1 # jalr_event $end
$var wire 1 $ mem_event $end
$var wire 1 % wb_event $end
$var parameter 32 & START_PC $end
$var reg 1024 ' buffered_line [1023:0] $end
$var reg 1 ( clk $end
$var reg 32 ) g_addr [31:0] $end
$var reg 32 * g_instr [31:0] $end
$var reg 32 + g_instr_next [31:0] $end
$var reg 256 , g_memtoken [255:0] $end
$var reg 32 - g_pc [31:0] $end
$var reg 32 . g_pc_next [31:0] $end
$var reg 256 / g_token [255:0] $end
$var reg 32 0 g_val [31:0] $end
$var reg 1 1 have_buffered_line $end
$var reg 1 2 is_branch_instr $end
$var reg 1 3 is_jalr_instr $end
$var reg 1024 4 line [1023:0] $end
$var reg 1 5 reset_n $end
$var reg 32 6 rf_val [31:0] $end
$var reg 256 7 s_addr [255:0] $end
$var reg 256 8 s_instr [255:0] $end
$var reg 256 9 s_instr_next [255:0] $end
$var reg 256 : s_pc [255:0] $end
$var reg 256 ; s_pc_next [255:0] $end
$var reg 256 < s_val [255:0] $end
$var integer 32 = commits_this_cycle [31:0] $end
$var integer 32 > cycle [31:0] $end
$var integer 32 ? fd_golden [31:0] $end
$var integer 32 @ g_rd [31:0] $end
$var integer 32 A mismatch_count [31:0] $end
$var integer 32 B nfields [31:0] $end
$var integer 32 C pass_count [31:0] $end
$var integer 32 D ret [31:0] $end
$var integer 32 E ret2 [31:0] $end
$scope module dut $end
$var wire 32 F address [31:0] $end
$var wire 1 ( clk $end
$var wire 1 5 reset_n $end
$var wire 1 G trapReq $end
$var wire 32 H rs2_data_src [31:0] $end
$var wire 32 I rs2_data [31:0] $end
$var wire 32 J rs1_data_src [31:0] $end
$var wire 32 K rs1_data [31:0] $end
$var wire 1 L regWEn_mux $end
$var wire 1 M regWEn $end
$var wire 32 N read_data [31:0] $end
$var wire 1 O pc_write $end
$var wire 32 P pc_jump_jalr [31:0] $end
$var wire 32 Q pc_jump_jal [31:0] $end
$var wire 1 R memRead_mux $end
$var wire 1 S memRead $end
$var wire 1 T is_jalr $end
$var wire 32 U instruction [31:0] $end
$var wire 32 V imm [31:0] $end
$var wire 3 W funct3 [2:0] $end
$var wire 2 X forwardB [1:0] $end
$var wire 2 Y forwardA [1:0] $end
$var wire 1 Z flush $end
$var wire 32 [ data_in [31:0] $end
$var wire 1 \ control_MuxSel $end
$var wire 1 ] branch $end
$var wire 32 ^ alu_out [31:0] $end
$var wire 32 _ alu_b_src [31:0] $end
$var wire 32 ` alu_b [31:0] $end
$var wire 32 a alu_a_src [31:0] $end
$var wire 32 b alu_a [31:0] $end
$var wire 2 c WBSel_mux [1:0] $end
$var wire 2 d WBSel [1:0] $end
$var wire 32 e PC_next [31:0] $end
$var wire 1 f MemRW_mux $end
$var wire 1 g MemRW $end
$var wire 1 h MEMWB_trapReq_out $end
$var wire 1 i MEMWB_regWEn_out $end
$var wire 32 j MEMWB_pc_out [31:0] $end
$var wire 32 k MEMWB_mem_data_out [31:0] $end
$var wire 1 l MEMWB_is_jalr_out $end
$var wire 32 m MEMWB_instr_out [31:0] $end
$var wire 5 n MEMWB_addr_rd_out [4:0] $end
$var wire 2 o MEMWB_WBSel_out [1:0] $end
$var wire 32 p MEMWB_ALU_res_out [31:0] $end
$var wire 1 q IFID_write $end
$var wire 32 r IFID_pc_out [31:0] $end
$var wire 32 s IFID_instr_out [31:0] $end
$var wire 1 t IDEX_write $end
$var wire 1 u IDEX_trapReq_out $end
$var wire 32 v IDEX_rs2_out [31:0] $end
$var wire 32 w IDEX_rs1_out [31:0] $end
$var wire 1 x IDEX_regWEn_out $end
$var wire 32 y IDEX_pc_out [31:0] $end
$var wire 1 z IDEX_memRead_out $end
$var wire 1 { IDEX_is_jalr_out $end
$var wire 32 | IDEX_instr_out [31:0] $end
$var wire 32 } IDEX_imm_out [31:0] $end
$var wire 3 ~ IDEX_funct3_out [2:0] $end
$var wire 1 !" IDEX_branch_out $end
$var wire 5 "" IDEX_addr_rs2_out [4:0] $end
$var wire 5 #" IDEX_addr_rs1_out [4:0] $end
$var wire 5 $" IDEX_addr_rd_out [4:0] $end
$var wire 2 %" IDEX_WBSel_out [1:0] $end
$var wire 1 &" IDEX_MemRW_out $end
$var wire 1 '" IDEX_BrUn_out $end
$var wire 1 (" IDEX_BSel_out $end
$var wire 1 )" IDEX_ASel_out $end
$var wire 5 *" IDEX_ALUSel_out [4:0] $end
$var wire 1 +" EXMEM_trapReq_out $end
$var wire 32 ," EXMEM_rs2_out [31:0] $end
$var wire 1 -" EXMEM_regWEn_out $end
$var wire 32 ." EXMEM_pc_out [31:0] $end
$var wire 1 /" EXMEM_memRead_out $end
$var wire 1 0" EXMEM_is_jalr_out $end
$var wire 32 1" EXMEM_instr_out [31:0] $end
$var wire 3 2" EXMEM_funct3_out [2:0] $end
$var wire 5 3" EXMEM_addr_rd_out [4:0] $end
$var wire 2 4" EXMEM_WBSel_out [1:0] $end
$var wire 1 5" EXMEM_MemRW_out $end
$var wire 1 6" EXMEM_BrLT_out $end
$var wire 1 7" EXMEM_BrEq_out $end
$var wire 32 8" EXMEM_ALU_res_out [31:0] $end
$var wire 1 9" BrUn_mux $end
$var wire 1 :" BrUn $end
$var wire 1 ;" BrLt $end
$var wire 1 <" BrEq $end
$var wire 1 =" BSel_mux $end
$var wire 1 >" BSel $end
$var wire 5 ?" Addr_rs2 [4:0] $end
$var wire 5 @" Addr_rs1 [4:0] $end
$var wire 5 A" Addr_rd [4:0] $end
$var wire 1 B" ASel_mux $end
$var wire 1 C" ASel $end
$var wire 5 D" ALUSel_mux [4:0] $end
$var wire 5 E" ALUSel [4:0] $end
$var reg 32 F" PC [31:0] $end
$var reg 1 G" take_branch $end
$scope module ALU $end
$var wire 32 H" A [31:0] $end
$var wire 32 I" B [31:0] $end
$var wire 5 J" ALU_Sel [4:0] $end
$var reg 32 K" ALU_Out [31:0] $end
$var reg 64 L" product [63:0] $end
$upscope $end
$scope module Branch $end
$var wire 32 M" rs1 [31:0] $end
$var wire 32 N" rs2 [31:0] $end
$var wire 1 O" lt_unsigned $end
$var wire 1 P" lt_signed $end
$var wire 1 Q" eq $end
$var wire 1 '" BrUn $end
$var reg 1 <" BrEq $end
$var reg 1 ;" BrLt $end
$upscope $end
$scope module Control_unit $end
$var wire 32 R" instruction [31:0] $end
$var wire 1 6" BrLt $end
$var wire 1 7" BrEq $end
$var reg 5 S" ALUSel [4:0] $end
$var reg 1 C" ASel $end
$var reg 1 >" BSel $end
$var reg 1 :" BrUn $end
$var reg 1 g MemRW $end
$var reg 2 T" WBSel [1:0] $end
$var reg 1 ] branch $end
$var reg 1 Z flush $end
$var reg 1 T is_jalr $end
$var reg 1 S memRead $end
$var reg 1 M regWEn $end
$var reg 1 G trapReq $end
$upscope $end
$scope module DMEM $end
$var wire 1 ( clk $end
$var wire 32 U" write_data [31:0] $end
$var wire 10 V" word_address [9:0] $end
$var wire 1 /" memRead $end
$var wire 3 W" funct3 [2:0] $end
$var wire 32 X" address [31:0] $end
$var wire 1 5" MemRW $end
$var reg 32 Y" read_data [31:0] $end
$upscope $end
$scope module EX_MEM $end
$var wire 32 Z" ALU_res_in [31:0] $end
$var wire 1 <" BrEq_in $end
$var wire 1 ;" BrLT_in $end
$var wire 1 [" PCSel_in $end
$var wire 1 ( clk $end
$var wire 1 5 reset $end
$var wire 32 \" rs2_in [31:0] $end
$var wire 1 u trapReq_in $end
$var wire 1 x regWEn_in $end
$var wire 32 ]" pc_in [31:0] $end
$var wire 1 z memRead_in $end
$var wire 1 { is_jalr_in $end
$var wire 32 ^" instr_in [31:0] $end
$var wire 3 _" funct3_in [2:0] $end
$var wire 5 `" addr_rd_in [4:0] $end
$var wire 2 a" WBSel_in [1:0] $end
$var wire 1 &" MemRW_in $end
$var reg 32 b" ALU_res_out [31:0] $end
$var reg 1 7" BrEq_out $end
$var reg 1 6" BrLT_out $end
$var reg 1 5" MemRW_out $end
$var reg 2 c" WBSel_out [1:0] $end
$var reg 5 d" addr_rd_out [4:0] $end
$var reg 3 e" funct3_out [2:0] $end
$var reg 32 f" instr_out [31:0] $end
$var reg 1 0" is_jalr_out $end
$var reg 1 /" memRead_out $end
$var reg 32 g" pc_out [31:0] $end
$var reg 1 -" regWEn_out $end
$var reg 32 h" rs2_out [31:0] $end
$var reg 1 +" trapReq_out $end
$upscope $end
$scope module ID_EX $end
$var wire 5 i" ALUSel_in [4:0] $end
$var wire 1 B" ASel_in $end
$var wire 1 =" BSel_in $end
$var wire 1 9" BrUn_in $end
$var wire 1 f MemRW_in $end
$var wire 2 j" WBSel_in [1:0] $end
$var wire 5 k" addr_rd_in [4:0] $end
$var wire 5 l" addr_rs1_in [4:0] $end
$var wire 5 m" addr_rs2_in [4:0] $end
$var wire 1 ] branch_in $end
$var wire 1 ( clk $end
$var wire 1 G" flush_branch $end
$var wire 3 n" funct3_in [2:0] $end
$var wire 1 T is_jalr_in $end
$var wire 1 R memRead_in $end
$var wire 1 L regWEn_in $end
$var wire 1 5 reset $end
$var wire 32 o" rs1_in [31:0] $end
$var wire 32 p" rs2_in [31:0] $end
$var wire 1 G trapReq_in $end
$var wire 32 q" pc_in [31:0] $end
$var wire 32 r" instr_in [31:0] $end
$var wire 32 s" imm_in [31:0] $end
$var wire 1 t IDEX_write $end
$var reg 5 t" ALUSel_out [4:0] $end
$var reg 1 )" ASel_out $end
$var reg 1 (" BSel_out $end
$var reg 1 '" BrUn_out $end
$var reg 1 &" MemRW_out $end
$var reg 2 u" WBSel_out [1:0] $end
$var reg 5 v" addr_rd_out [4:0] $end
$var reg 5 w" addr_rs1_out [4:0] $end
$var reg 5 x" addr_rs2_out [4:0] $end
$var reg 1 !" branch_out $end
$var reg 3 y" funct3_out [2:0] $end
$var reg 32 z" imm_out [31:0] $end
$var reg 32 {" instr_out [31:0] $end
$var reg 1 { is_jalr_out $end
$var reg 1 z memRead_out $end
$var reg 32 |" pc_out [31:0] $end
$var reg 1 x regWEn_out $end
$var reg 32 }" rs1_out [31:0] $end
$var reg 32 ~" rs2_out [31:0] $end
$var reg 1 u trapReq_out $end
$upscope $end
$scope module IF_ID $end
$var wire 1 ( clk $end
$var wire 1 G" flush_branch $end
$var wire 1 Z flush_jal $end
$var wire 32 !# pc_in [31:0] $end
$var wire 1 5 reset $end
$var wire 1 q write_enable $end
$var wire 32 "# instr_in [31:0] $end
$var parameter 32 ## NOP $end
$var reg 32 $# instr_out [31:0] $end
$var reg 32 %# pc_out [31:0] $end
$upscope $end
$scope module IMEM $end
$var wire 32 &# address [31:0] $end
$var reg 32 '# instruction [31:0] $end
$upscope $end
$scope module MEM_WB $end
$var wire 32 (# ALU_res_in [31:0] $end
$var wire 1 )# PCSel_in $end
$var wire 2 *# WBSel_in [1:0] $end
$var wire 5 +# addr_rd_in [4:0] $end
$var wire 1 ( clk $end
$var wire 32 ,# data_write_in [31:0] $end
$var wire 32 -# instr_in [31:0] $end
$var wire 1 0" is_jalr_in $end
$var wire 32 .# mem_data_in [31:0] $end
$var wire 32 /# pc_in [31:0] $end
$var wire 1 -" regWEn_in $end
$var wire 1 5 reset $end
$var wire 1 +" trapReq_in $end
$var reg 32 0# ALU_res_out [31:0] $end
$var reg 2 1# WBSel_out [1:0] $end
$var reg 5 2# addr_rd_out [4:0] $end
$var reg 32 3# instr_out [31:0] $end
$var reg 1 l is_jalr_out $end
$var reg 32 4# mem_data_out [31:0] $end
$var reg 32 5# pc_out [31:0] $end
$var reg 1 i regWEn_out $end
$var reg 1 h trapReq_out $end
$upscope $end
$scope module RF $end
$var wire 5 6# Addr_rd [4:0] $end
$var wire 5 7# Addr_rs1 [4:0] $end
$var wire 5 8# Addr_rs2 [4:0] $end
$var wire 1 ( clk $end
$var wire 32 9# data_in [31:0] $end
$var wire 1 i regWEn $end
$var wire 1 5 reset $end
$var reg 32 :# rs1 [31:0] $end
$var reg 32 ;# rs2 [31:0] $end
$var integer 32 <# i [31:0] $end
$upscope $end
$scope module forwarding_unit $end
$var wire 5 =# ExMem_regRd [4:0] $end
$var wire 1 -" ExMem_regWEn $end
$var wire 5 ># IdEx_regRs1 [4:0] $end
$var wire 5 ?# IdEx_regRs2 [4:0] $end
$var wire 5 @# MemWb_regRd [4:0] $end
$var wire 1 i MemWb_regWEn $end
$var reg 2 A# forwardA [1:0] $end
$var reg 2 B# forwardB [1:0] $end
$upscope $end
$scope module hazard_detection_unit $end
$var wire 1 z IDEX_MemRead $end
$var wire 5 C# IDEX_Rd [4:0] $end
$var wire 5 D# IFID_RS1 [4:0] $end
$var wire 5 E# IFID_RS2 [4:0] $end
$var reg 1 t IDEX_write $end
$var reg 1 q IFID_write $end
$var reg 1 \ control_MuxSel $end
$var reg 1 O pc_write $end
$upscope $end
$scope module imm_gen $end
$var wire 32 F# instruction [31:0] $end
$var reg 32 G# imm_out [31:0] $end
$upscope $end
$upscope $end
$scope begin $ivl_for_loop0 $end
$var integer 32 H# i [31:0] $end
$upscope $end
$scope task parse_and_check $end
$var reg 1024 I# line [1023:0] $end
$upscope $end
$upscope $end
$enddefinitions $end
$comment Show the parameter values. $end
$dumpall
b10011 ##
b10000000000000000000000000000000 &
$end
#0
$dumpvars
bx I#
bx H#
b0 G#
b10011 F#
b0 E#
b0 D#
b0 C#
b0 B#
b0 A#
b0 @#
b0 ?#
b0 >#
b0 =#
b100000 <#
b0 ;#
b0 :#
b0 9#
b0 8#
b0 7#
b0 6#
b0 5#
b0 4#
b0 3#
b0 2#
b0 1#
b0 0#
b0 /#
b0 .#
b0 -#
bz ,#
b0 +#
b0 *#
z)#
b0 (#
b1000000000000000011101111 '#
b10000000000000000000000000000000 &#
b0 %#
b10011 $#
b1000000000000000011101111 "#
b10000000000000000000000000000000 !#
b0 ~"
b0 }"
b0 |"
b0 {"
b0 z"
b0 y"
b0 x"
b0 w"
b0 v"
b0 u"
b0 t"
b0 s"
b10011 r"
b0 q"
b0 p"
b0 o"
b0 n"
b0 m"
b0 l"
b0 k"
b1 j"
b0 i"
b0 h"
b0 g"
b0 f"
b0 e"
b0 d"
b0 c"
b0 b"
b0 a"
b0 `"
b0 _"
b0 ^"
b0 ]"
b0 \"
z["
b0 Z"
b0 Y"
b0 X"
b0 W"
b0 V"
b0 U"
b1 T"
b0 S"
b10011 R"
1Q"
0P"
0O"
b0 N"
b0 M"
bx L"
b0 K"
b0 J"
b0 I"
b0 H"
0G"
b10000000000000000000000000000000 F"
b0 E"
b0 D"
0C"
0B"
b0 A"
b0 @"
b0 ?"
1>"
1="
1<"
0;"
x:"
x9"
b0 8"
07"
06"
05"
b0 4"
b0 3"
b0 2"
b0 1"
00"
0/"
b0 ."
0-"
b0 ,"
0+"
b0 *"
0)"
0("
0'"
0&"
b0 %"
b0 $"
b0 #"
b0 ""
0!"
b0 ~
b0 }
b0 |
0{
0z
b0 y
0x
b0 w
b0 v
0u
1t
b10011 s
b0 r
1q
b0 p
b0 o
b0 n
b0 m
0l
b0 k
b0 j
0i
0h
0g
0f
b10000000000000000000000000000100 e
b1 d
b1 c
b0 b
b0 a
b0 `
b0 _
b0 ^
0]
0\
b0 [
0Z
b0 Y
b0 X
b0 W
b0 V
b1000000000000000011101111 U
0T
0S
0R
b0 Q
b0 P
1O
b0 N
1M
1L
b0 K
b0 J
b0 I
b0 H
0G
b10000000000000000000000000000000 F
bx E
bx D
b0 C
b0 B
b0 A
bx @
b10000000000000000000000000000011 ?
b0 >
bx =
bx <
bx ;
bx :
bx 9
bx 8
bx 7
bx 6
05
bx 4
x3
x2
01
bx 0
bx /
bx .
bx -
bx ,
bx +
bx *
bx )
1(
bx '
0%
0$
0#
0"
0!
$end
#5000
0(
#10000
b1 >
b100000 <#
1(
#15000
0(
#20000
b10000000000000000000000000010000 e
b10 c
b10 j"
1B"
b10000 ?"
b10000 m"
b10000 8#
b10000 E#
b1 A"
b1 k"
b10 d
b10 T"
1C"
1Z
b10000 P
b10000 V
b10000 s"
b10000 G#
b101110100000000100010010011 U
b101110100000000100010010011 "#
b101110100000000100010010011 '#
b10 >
17"
b1 %"
b1 a"
b1 u"
1("
1x
x'"
b10011 |
b10011 ^"
b10011 {"
b1000000000000000011101111 s
b1000000000000000011101111 R"
b1000000000000000011101111 r"
b1000000000000000011101111 $#
b1000000000000000011101111 F#
b10000000000000000000000000010000 Q
b10000000000000000000000000000000 r
b10000000000000000000000000000000 q"
b10000000000000000000000000000000 %#
b10000000000000000000000000000100 F
b10000000000000000000000000000100 !#
b10000000000000000000000000000100 &#
b10000000000000000000000000000100 F"
1(
15
#25000
0(
#30000
b10000000000000000000000000010100 e
b1 c
b1 j"
0B"
b10000000000000000000000000010000 ^
b10000000000000000000000000010000 K"
b10000000000000000000000000010000 Z"
b10000000000000000000011110110111 U
b10000000000000000000011110110111 "#
b10000000000000000000011110110111 '#
b0 ?"
b0 m"
b0 8#
b0 E#
b0 A"
b0 k"
b0 P
b0 V
b0 s"
b0 G#
b1 d
b1 T"
0C"
0Z
b10000000000000000000000000000000 b
b10000000000000000000000000000000 H"
b10000 `
b10000 I"
b11 >
b10000000000000000000000000010000 F
b10000000000000000000000000010000 !#
b10000000000000000000000000010000 &#
b10000000000000000000000000010000 F"
b10011 s
b10011 R"
b10011 r"
b10011 $#
b10011 F#
b10000000000000000000000000000100 Q
b10000000000000000000000000000100 r
b10000000000000000000000000000100 q"
b10000000000000000000000000000100 %#
b10 %"
b10 a"
b10 u"
1)"
b10000 }
b10000 z"
b10000 ""
b10000 x"
b10000 ?#
b1 $"
b1 `"
b1 v"
b1 C#
b1000000000000000011101111 |
b1000000000000000011101111 ^"
b1000000000000000011101111 {"
b10000000000000000000000000000000 y
b10000000000000000000000000000000 ]"
b10000000000000000000000000000000 |"
b1 4"
b1 c"
b1 *#
1-"
b10011 1"
b10011 f"
b10011 -#
1(
#35000
0(
#40000
b10000000000000000000000000011000 e
b0 ^
b0 K"
b0 Z"
b1010 D"
b1010 i"
b0 [
b0 9#
b100 V"
b0 `
b0 I"
b0 b
b0 H"
b1111 A"
b1111 k"
b1010 E"
b1010 S"
b10000000000000000000000000000000 P
b10000000000000000000000000000000 V
b10000000000000000000000000000000 s"
b10000000000000000000000000000000 G#
b111110001111010011010000011 U
b111110001111010011010000011 "#
b111110001111010011010000011 '#
b100 >
1i
b1 o
b1 1#
b10011 m
b10011 3#
b10 4"
b10 c"
b10 *#
b1 3"
b1 d"
b1 +#
b1 =#
b1000000000000000011101111 1"
b1000000000000000011101111 f"
b1000000000000000011101111 -#
b10000000000000000000000000000000 ."
b10000000000000000000000000000000 g"
b10000000000000000000000000000000 /#
b10000000000000000000000000010000 8"
b10000000000000000000000000010000 X"
b10000000000000000000000000010000 b"
b10000000000000000000000000010000 (#
b1 %"
b1 a"
b1 u"
0)"
b0 }
b0 z"
b0 ""
b0 x"
b0 ?#
b0 $"
b0 `"
b0 v"
b0 C#
b10011 |
b10011 ^"
b10011 {"
b10000000000000000000000000000100 y
b10000000000000000000000000000100 ]"
b10000000000000000000000000000100 |"
b10000000000000000000011110110111 s
b10000000000000000000011110110111 R"
b10000000000000000000011110110111 r"
b10000000000000000000011110110111 $#
b10000000000000000000011110110111 F#
b10000 Q
b10000000000000000000000000010000 r
b10000000000000000000000000010000 q"
b10000000000000000000000000010000 %#
b10000000000000000000000000010100 F
b10000000000000000000000000010100 !#
b10000000000000000000000000010100 &#
b10000000000000000000000000010100 F"
1(
#45000
0(
#50000
b10000000000000000000000000011100 e
1"
b0 c
b0 j"
b0 D"
b0 i"
1R
1%
b10000000000000000000000000000100 [
b10000000000000000000000000000100 9#
b10101010101010101011011100110111 U
b10101010101010101011011100110111 "#
b10101010101010101011011100110111 '#
b11100 ?"
b11100 m"
b11100 8#
b11100 E#
b1111 @"
b1111 l"
b1111 7#
b1111 D#
b1101 A"
b1101 k"
b10 W
b10 n"
b1111100 P
b1111100 V
b1111100 s"
b1111100 G#
b0 d
b0 T"
b0 E"
b0 S"
1S
b10000000000000000000000000000000 ^
b10000000000000000000000000000000 K"
b10000000000000000000000000000000 Z"
b10000000000000000000000000000000 `
b10000000000000000000000000000000 I"
b0 V"
b101 >
b10000000000000000000000000011000 F
b10000000000000000000000000011000 !#
b10000000000000000000000000011000 &#
b10000000000000000000000000011000 F"
b111110001111010011010000011 s
b111110001111010011010000011 R"
b111110001111010011010000011 r"
b111110001111010011010000011 $#
b111110001111010011010000011 F#
b10000000000000000000000010010000 Q
b10000000000000000000000000010100 r
b10000000000000000000000000010100 q"
b10000000000000000000000000010100 %#
b1010 *"
b1010 J"
b1010 t"
b10000000000000000000000000000000 }
b10000000000000000000000000000000 z"
b1111 $"
b1111 `"
b1111 v"
b1111 C#
b10000000000000000000011110110111 |
b10000000000000000000011110110111 ^"
b10000000000000000000011110110111 {"
b10000000000000000000000000010000 y
b10000000000000000000000000010000 ]"
b10000000000000000000000000010000 |"
b1 4"
b1 c"
b1 *#
b0 3"
b0 d"
b0 +#
b0 =#
b10011 1"
b10011 f"
b10011 -#
b10000000000000000000000000000100 ."
b10000000000000000000000000000100 g"
b10000000000000000000000000000100 /#
b0 8"
b0 X"
b0 b"
b0 (#
b10 o
b10 1#
b1 n
b1 2#
b1 6#
b1 @#
b1000000000000000011101111 m
b1000000000000000011101111 3#
b10000000000000000000000000000000 j
b10000000000000000000000000000000 5#
b10000000000000000000000000010000 p
b10000000000000000000000000010000 0#
1(
#55000
0(
#60000
b10000000000000000000000000100000 e
0"
b10000000000000000000000000000000 b
b10000000000000000000000000000000 H"
x;"
0<"
0%
b0 [
b0 9#
0Q"
1P"
b10000000000000000000000000000000 a
b10000000000000000000000000000000 M"
b1 c
b1 j"
b1010 D"
b1010 i"
0R
b10000000000000000000000001111100 ^
b10000000000000000000000001111100 K"
b10000000000000000000000001111100 Z"
b1111100 `
b1111100 I"
b10 Y
b10 A#
b1010 ?"
b1010 m"
b1010 8#
b1010 E#
b10101 @"
b10101 l"
b10101 7#
b10101 D#
b1110 A"
b1110 k"
b11 W
b11 n"
b1 d
b1 T"
b1010 E"
b1010 S"
0S
b10101010101010101011000000000000 P
b10101010101010101011000000000000 V
b10101010101010101011000000000000 s"
b10101010101010101011000000000000 G#
b10000000000000000011110110111 U
b10000000000000000011110110111 "#
b10000000000000000011110110111 '#
b110 >
b1 o
b1 1#
b0 n
b0 2#
b0 6#
b0 @#
b10011 m
b10011 3#
b10000000000000000000000000000100 j
b10000000000000000000000000000100 5#
b0 p
b0 0#
b1111 3"
b1111 d"
b1111 +#
b1111 =#
b10000000000000000000011110110111 1"
b10000000000000000000011110110111 f"
b10000000000000000000011110110111 -#
b10000000000000000000000000010000 ."
b10000000000000000000000000010000 g"
b10000000000000000000000000010000 /#
b10000000000000000000000000000000 8"
b10000000000000000000000000000000 X"
b10000000000000000000000000000000 b"
b10000000000000000000000000000000 (#
b0 *"
b0 J"
b0 t"
b0 %"
b0 a"
b0 u"
1z
b1111100 }
b1111100 z"
b10 ~
b10 _"
b10 y"
b11100 ""
b11100 x"
b11100 ?#
b1111 #"
b1111 w"
b1111 >#
b1101 $"
b1101 `"
b1101 v"
b1101 C#
b111110001111010011010000011 |
b111110001111010011010000011 ^"
b111110001111010011010000011 {"
b10000000000000000000000000010100 y
b10000000000000000000000000010100 ]"
b10000000000000000000000000010100 |"
b10101010101010101011011100110111 s
b10101010101010101011011100110111 R"
b10101010101010101011011100110111 r"
b10101010101010101011011100110111 $#
b10101010101010101011011100110111 F#
b101010101010101011000000011000 Q
b10000000000000000000000000011000 r
b10000000000000000000000000011000 q"
b10000000000000000000000000011000 %#
b10000000000000000000000000011100 F
b10000000000000000000000000011100 !#
b10000000000000000000000000011100 &#
b10000000000000000000000000011100 F"
b1 C
03
02
b100 B
b1 @
b0 )
b10000000000000000000000000000100 0
b1000000000000000011101111 *
b10000000000000000000000000000000 -
b0 ,
b111100000110001 /
b0 7
b110000011110000011100000110000001100000011000000110000001100000011000000110100 <
b110000011110000011000000110001001100000011000000110000001100000110010101100110 8
b110000011110000011100000110000001100000011000000110000001100000011000000110000 :
b110000011110000011100000110000001100000011000000110000001100000011000000110000001000000011000001111000001100000011000100110000001100000011000000110000011001010110011000100000011110000011000100100000001000000011000001111000001110000011000000110000001100000011000000110000001100000011010000001010 I#
b100101 D
b110000011110000011100000110000001100000011000000110000001100000011000000110000001000000011000001111000001100000011000100110000001100000011000000110000011001010110011000100000011110000011000100100000001000000011000001111000001110000011000000110000001100000011000000110000001100000011010000001010 4
b1 H#
b1 =
1(
#65000
0(
#70000
b10000000000000000000000000100100 e
1"
b101 N
b101 Y"
b101 .#
b0 b
b0 H"
0;"
1<"
1%
b10000000000000000000000000000000 [
b10000000000000000000000000000000 9#
b10101010000101110000011100010011 U
b10101010000101110000011100010011 "#
b10101010000101110000011100010011 '#
b0 ?"
b0 m"
b0 8#
b0 E#
b0 @"
b0 l"
b0 7#
b0 D#
b1111 A"
b1111 k"
b0 W
b0 n"
b10000000000000000000000000000 P
b10000000000000000000000000000 V
b10000000000000000000000000000 s"
b10000000000000000000000000000 G#
b10101010101010101011000000000000 ^
b10101010101010101011000000000000 K"
b10101010101010101011000000000000 Z"
b10101010101010101011000000000000 `
b10101010101010101011000000000000 I"
b11111 V"
1Q"
0P"
b0 a
b0 M"
b0 Y
b0 A#
b111 >
b10000000000000000000000000100000 F
b10000000000000000000000000100000 !#
b10000000000000000000000000100000 &#
b10000000000000000000000000100000 F"
b10000000000000000011110110111 s
b10000000000000000011110110111 R"
b10000000000000000011110110111 r"
b10000000000000000011110110111 $#
b10000000000000000011110110111 F#
b10010000000000000000000000011100 Q
b10000000000000000000000000011100 r
b10000000000000000000000000011100 q"
b10000000000000000000000000011100 %#
b1010 *"
b1010 J"
b1010 t"
b1 %"
b1 a"
b1 u"
0z
b10101010101010101011000000000000 }
b10101010101010101011000000000000 z"
b11 ~
b11 _"
b11 y"
b1010 ""
b1010 x"
b1010 ?#
b10101 #"
b10101 w"
b10101 >#
b1110 $"
b1110 `"
b1110 v"
b1110 C#
b10101010101010101011011100110111 |
b10101010101010101011011100110111 ^"
b10101010101010101011011100110111 {"
b10000000000000000000000000011000 y
b10000000000000000000000000011000 ]"
b10000000000000000000000000011000 |"
b0 4"
b0 c"
b0 *#
1/"
x6"
07"
b10 2"
b10 W"
b10 e"
b1101 3"
b1101 d"
b1101 +#
b1101 =#
b111110001111010011010000011 1"
b111110001111010011010000011 f"
b111110001111010011010000011 -#
b10000000000000000000000000010100 ."
b10000000000000000000000000010100 g"
b10000000000000000000000000010100 /#
b10000000000000000000000001111100 8"
b10000000000000000000000001111100 X"
b10000000000000000000000001111100 b"
b10000000000000000000000001111100 (#
b1111 n
b1111 2#
b1111 6#
b1111 @#
b10000000000000000000011110110111 m
b10000000000000000000011110110111 3#
b10000000000000000000000000010000 j
b10000000000000000000000000010000 5#
b10000000000000000000000000000000 p
b10000000000000000000000000000000 0#
1(
#75000
0(
