sim/gtkwave/tb_top_module.vcd
$date
	Wed Sep  3 16:17:53 2025
$end
$version
	Icarus Verilog
$end
$timescale
	1ps
$end
$scope module tb_top_module $end
$var reg 1 ! clk $end
$var reg 1024 " line [1023:0] $end
$var reg 1 # reset_n $end
$var integer 32 $ actual [31:0] $end
$var integer 32 % addr [31:0] $end
$var integer 32 & code [31:0] $end
$var integer 32 ' err_count [31:0] $end
$var integer 32 ( expected [31:0] $end
$var integer 32 ) fd [31:0] $end
$var integer 32 * instr_count [31:0] $end
$scope module dut $end
$var wire 32 + address [31:0] $end
$var wire 1 ! clk $end
$var wire 1 # reset_n $end
$var wire 32 , write_data [31:0] $end
$var wire 32 - rs2_data [31:0] $end
$var wire 32 . rs1_data [31:0] $end
$var wire 1 / regWEn_mux $end
$var wire 1 0 regWEn $end
$var wire 32 1 read_data [31:0] $end
$var wire 1 2 pc_write $end
$var wire 32 3 instruction [31:0] $end
$var wire 32 4 imm [31:0] $end
$var wire 3 5 funct3 [2:0] $end
$var wire 2 6 forwardB [1:0] $end
$var wire 2 7 forwardA [1:0] $end
$var wire 32 8 data_in [31:0] $end
$var wire 1 9 control_MuxSel $end
$var wire 32 : alu_out [31:0] $end
$var wire 32 ; alu_b_src [31:0] $end
$var wire 32 < alu_b [31:0] $end
$var wire 32 = alu_a_src [31:0] $end
$var wire 32 > alu_a [31:0] $end
$var wire 2 ? WBSel_mux [1:0] $end
$var wire 2 @ WBSel [1:0] $end
$var wire 32 A PC_next [31:0] $end
$var wire 32 B PC_mux_out [31:0] $end
$var wire 1 C PCSel_mux $end
$var wire 1 D PCSel $end
$var wire 1 E MemRW_mux $end
$var wire 1 F MemRW $end
$var wire 1 G MEMWB_regWEn_out $end
$var wire 32 H MEMWB_pc_out [31:0] $end
$var wire 32 I MEMWB_mem_data_out [31:0] $end
$var wire 32 J MEMWB_instr_out [31:0] $end
$var wire 5 K MEMWB_addr_rd_out [4:0] $end
$var wire 2 L MEMWB_WBSel_out [1:0] $end
$var wire 1 M MEMWB_PCSel_out $end
$var wire 32 N MEMWB_ALU_res_out [31:0] $end
$var wire 1 O IFID_write $end
$var wire 1 P IFID_valid_out $end
$var wire 32 Q IFID_pc_out [31:0] $end
$var wire 32 R IFID_instr_out [31:0] $end
$var wire 32 S IDEX_rs2_out [31:0] $end
$var wire 32 T IDEX_rs1_out [31:0] $end
$var wire 1 U IDEX_regWEn_out $end
$var wire 32 V IDEX_pc_out [31:0] $end
$var wire 32 W IDEX_instr_out [31:0] $end
$var wire 32 X IDEX_imm_out [31:0] $end
$var wire 5 Y IDEX_addr_rs2_out [4:0] $end
$var wire 5 Z IDEX_addr_rs1_out [4:0] $end
$var wire 5 [ IDEX_addr_rd_out [4:0] $end
$var wire 2 \ IDEX_WBSel_out [1:0] $end
$var wire 1 ] IDEX_PCSel_out $end
$var wire 1 ^ IDEX_MemRW_out $end
$var wire 1 _ IDEX_BrUn_out $end
$var wire 1 ` IDEX_BSel_out $end
$var wire 1 a IDEX_ASel_out $end
$var wire 5 b IDEX_ALUSel_out [4:0] $end
$var wire 32 c EXMEM_rs2_out [31:0] $end
$var wire 1 d EXMEM_regWEn_out $end
$var wire 32 e EXMEM_pc_out [31:0] $end
$var wire 32 f EXMEM_instr_out [31:0] $end
$var wire 5 g EXMEM_addr_rd_out [4:0] $end
$var wire 2 h EXMEM_WBSel_out [1:0] $end
$var wire 1 i EXMEM_PCSel_out $end
$var wire 1 j EXMEM_MemRW_out $end
$var wire 1 k EXMEM_BrLT_out $end
$var wire 1 l EXMEM_BrEq_out $end
$var wire 32 m EXMEM_ALU_res_out [31:0] $end
$var wire 1 n BrUn_mux $end
$var wire 1 o BrUn $end
$var wire 1 p BrLt $end
$var wire 1 q BrEq $end
$var wire 1 r BSel_mux $end
$var wire 1 s BSel $end
$var wire 5 t Addr_rs2 [4:0] $end
$var wire 5 u Addr_rs1 [4:0] $end
$var wire 5 v Addr_rd [4:0] $end
$var wire 1 w ASel_mux $end
$var wire 1 x ASel $end
$var wire 5 y ALUSel_mux [4:0] $end
$var wire 5 z ALUSel [4:0] $end
$var reg 32 { PC [31:0] $end
$scope module ALU $end
$var wire 32 | A [31:0] $end
$var wire 32 } B [31:0] $end
$var wire 5 ~ ALU_Sel [4:0] $end
$var reg 32 !" ALU_Out [31:0] $end
$upscope $end
$scope module Branch $end
$var wire 32 "" rs2 [31:0] $end
$var wire 32 #" rs1 [31:0] $end
$var wire 1 $" lt_unsigned $end
$var wire 1 %" lt_signed $end
$var wire 1 &" eq $end
$var wire 1 _ BrUn $end
$var reg 1 q BrEq $end
$var reg 1 p BrLt $end
$upscope $end
$scope module Control_unit $end
$var wire 32 '" instruction [31:0] $end
$var wire 1 k BrLt $end
$var wire 1 l BrEq $end
$var reg 5 (" ALUSel [4:0] $end
$var reg 1 x ASel $end
$var reg 1 s BSel $end
$var reg 1 o BrUn $end
$var reg 1 F MemRW $end
$var reg 1 D PCSel $end
$var reg 2 )" WBSel [1:0] $end
$var reg 1 0 regWEn $end
$upscope $end
$scope module DMEM $end
$var wire 1 ! clk $end
$var wire 3 *" funct3 [2:0] $end
$var wire 32 +" write_data [31:0] $end
$var wire 10 ," word_address [9:0] $end
$var wire 32 -" address [31:0] $end
$var wire 1 j MemRW $end
$var reg 32 ." read_data [31:0] $end
$upscope $end
$scope module EX_MEM $end
$var wire 32 /" ALU_res_in [31:0] $end
$var wire 1 q BrEq_in $end
$var wire 1 p BrLT_in $end
$var wire 1 ! clk $end
$var wire 1 # reset $end
$var wire 32 0" rs2_in [31:0] $end
$var wire 1 U regWEn_in $end
$var wire 32 1" pc_in [31:0] $end
$var wire 32 2" instr_in [31:0] $end
$var wire 5 3" addr_rd_in [4:0] $end
$var wire 2 4" WBSel_in [1:0] $end
$var wire 1 ] PCSel_in $end
$var wire 1 ^ MemRW_in $end
$var reg 32 5" ALU_res_out [31:0] $end
$var reg 1 l BrEq_out $end
$var reg 1 k BrLT_out $end
$var reg 1 j MemRW_out $end
$var reg 1 i PCSel_out $end
$var reg 2 6" WBSel_out [1:0] $end
$var reg 5 7" addr_rd_out [4:0] $end
$var reg 32 8" instr_out [31:0] $end
$var reg 32 9" pc_out [31:0] $end
$var reg 1 d regWEn_out $end
$var reg 32 :" rs2_out [31:0] $end
$upscope $end
$scope module ID_EX $end
$var wire 5 ;" ALUSel_in [4:0] $end
$var wire 1 w ASel_in $end
$var wire 1 r BSel_in $end
$var wire 1 n BrUn_in $end
$var wire 1 E MemRW_in $end
$var wire 1 C PCSel_in $end
$var wire 2 <" WBSel_in [1:0] $end
$var wire 5 =" addr_rd_in [4:0] $end
$var wire 5 >" addr_rs1_in [4:0] $end
$var wire 5 ?" addr_rs2_in [4:0] $end
$var wire 1 ! clk $end
$var wire 1 / regWEn_in $end
$var wire 1 # reset $end
$var wire 32 @" rs2_in [31:0] $end
$var wire 32 A" rs1_in [31:0] $end
$var wire 32 B" pc_in [31:0] $end
$var wire 32 C" instr_in [31:0] $end
$var wire 32 D" imm_in [31:0] $end
$var reg 5 E" ALUSel_out [4:0] $end
$var reg 1 a ASel_out $end
$var reg 1 ` BSel_out $end
$var reg 1 _ BrUn_out $end
$var reg 1 ^ MemRW_out $end
$var reg 1 ] PCSel_out $end
$var reg 2 F" WBSel_out [1:0] $end
$var reg 5 G" addr_rd_out [4:0] $end
$var reg 5 H" addr_rs1_out [4:0] $end
$var reg 5 I" addr_rs2_out [4:0] $end
$var reg 32 J" imm_out [31:0] $end
$var reg 32 K" instr_out [31:0] $end
$var reg 32 L" pc_out [31:0] $end
$var reg 1 U regWEn_out $end
$var reg 32 M" rs1_out [31:0] $end
$var reg 32 N" rs2_out [31:0] $end
$upscope $end
$scope module IF_ID $end
$var wire 1 ! clk $end
$var wire 32 O" pc_in [31:0] $end
$var wire 1 # reset $end
$var wire 1 O write_enable $end
$var wire 32 P" instr_in [31:0] $end
$var parameter 32 Q" NOP $end
$var reg 32 R" instr_out [31:0] $end
$var reg 32 S" pc_out [31:0] $end
$var reg 1 P valid_out $end
$upscope $end
$scope module IMEM $end
$var wire 32 T" address [31:0] $end
$var reg 32 U" instruction [31:0] $end
$upscope $end
$scope module MEM_WB $end
$var wire 32 V" ALU_res_in [31:0] $end
$var wire 1 i PCSel_in $end
$var wire 2 W" WBSel_in [1:0] $end
$var wire 5 X" addr_rd_in [4:0] $end
$var wire 1 ! clk $end
$var wire 32 Y" instr_in [31:0] $end
$var wire 32 Z" mem_data_in [31:0] $end
$var wire 32 [" pc_in [31:0] $end
$var wire 1 d regWEn_in $end
$var wire 1 # reset $end
$var reg 32 \" ALU_res_out [31:0] $end
$var reg 1 M PCSel_out $end
$var reg 2 ]" WBSel_out [1:0] $end
$var reg 5 ^" addr_rd_out [4:0] $end
$var reg 32 _" instr_out [31:0] $end
$var reg 32 `" mem_data_out [31:0] $end
$var reg 32 a" pc_out [31:0] $end
$var reg 1 G regWEn_out $end
$upscope $end
$scope module RF $end
$var wire 5 b" Addr_rd [4:0] $end
$var wire 5 c" Addr_rs1 [4:0] $end
$var wire 5 d" Addr_rs2 [4:0] $end
$var wire 1 ! clk $end
$var wire 32 e" data_in [31:0] $end
$var wire 1 0 regWEn $end
$var wire 1 # reset $end
$var reg 32 f" rs1 [31:0] $end
$var reg 32 g" rs2 [31:0] $end
$var integer 32 h" i [31:0] $end
$upscope $end
$scope module forwarding_unit $end
$var wire 5 i" ExMem_regRd [4:0] $end
$var wire 1 d ExMem_regWEn $end
$var wire 5 j" IdEx_regRs1 [4:0] $end
$var wire 5 k" IdEx_regRs2 [4:0] $end
$var wire 5 l" MemWb_regRd [4:0] $end
$var wire 1 G MemWb_regWEn $end
$var reg 2 m" forwardA [1:0] $end
$var reg 2 n" forwardB [1:0] $end
$upscope $end
$scope module hazard_detection_unit $end
$var wire 1 ^ IDEX_MemRW $end
$var wire 5 o" IDEX_Rd [4:0] $end
$var wire 5 p" IFID_RS1 [4:0] $end
$var wire 5 q" IFID_RS2 [4:0] $end
$var reg 1 O IFID_write $end
$var reg 1 9 control_MuxSel $end
$var reg 1 2 pc_write $end
$upscope $end
$scope module imm_gen $end
$var wire 32 r" instruction [31:0] $end
$var reg 32 s" imm_out [31:0] $end
$upscope $end
$upscope $end
$upscope $end
$enddefinitions $end
$comment Show the parameter values. $end
$dumpall
b10011 Q"
$end
#0
$dumpvars
b0 s"
b10011 r"
b0 q"
b0 p"
b0 o"
b0 n"
b0 m"
b0 l"
b0 k"
b0 j"
b0 i"
b100000 h"
b0 g"
b0 f"
b0 e"
b0 d"
b0 c"
b0 b"
b0 a"
b0 `"
b0 _"
b0 ^"
b0 ]"
b0 \"
b0 ["
b0 Z"
b0 Y"
b0 X"
b0 W"
b0 V"
b101000000000000010010011 U"
b0 T"
b0 S"
b10011 R"
b101000000000000010010011 P"
b0 O"
b0 N"
b0 M"
b0 L"
b0 K"
b0 J"
b0 I"
b0 H"
b0 G"
b0 F"
b0 E"
b0 D"
b10011 C"
b0 B"
b0 A"
b0 @"
b0 ?"
b0 >"
b0 ="
b1 <"
b0 ;"
b0 :"
b0 9"
b0 8"
b0 7"
b0 6"
b0 5"
b0 4"
b0 3"
b0 2"
b0 1"
b0 0"
b0 /"
b0 ."
b0 -"
b0 ,"
b0 +"
b0 *"
b1 )"
b0 ("
b10011 '"
1&"
0%"
0$"
b0 #"
b0 ""
b0 !"
b0 ~
b0 }
b0 |
b0 {
b0 z
b0 y
0x
0w
b0 v
b0 u
b0 t
1s
1r
1q
0p
xo
xn
b0 m
0l
0k
0j
0i
b0 h
b0 g
b0 f
b0 e
0d
b0 c
b0 b
0a
0`
0_
0^
0]
b0 \
b0 [
b0 Z
b0 Y
b0 X
b0 W
b0 V
0U
b0 T
b0 S
b10011 R
b0 Q
0P
1O
b0 N
0M
b0 L
b0 K
b0 J
b0 I
b0 H
0G
0F
0E
0D
0C
b100 B
b100 A
b1 @
b1 ?
b0 >
b0 =
b0 <
b0 ;
b0 :
09
b0 8
b0 7
b0 6
b0 5
b0 4
b101000000000000010010011 3
12
b0 1
10
1/
b0 .
b0 -
b0 ,
b0 +
b1 *
bx )
bx (
b0 '
bx &
bx %
bx $
0#
bx "
1!
$end
#5000
0!
#10000
b100000 h"
1!
#15000
0!
#20000
b1000 A
b1010 t
b1010 ?"
b1010 d"
b1010 q"
b1 v
b1 ="
b1010 4
b1010 D"
b1010 s"
b1000 B
b1010000000000000100010011 3
b1010000000000000100010011 P"
b1010000000000000100010011 U"
1l
b1 \
b1 4"
b1 F"
1`
1U
x_
b10011 W
b10011 2"
b10011 K"
1P
b101000000000000010010011 R
b101000000000000010010011 '"
b101000000000000010010011 C"
b101000000000000010010011 R"
b101000000000000010010011 r"
b100 +
b100 O"
b100 T"
b100 {
1!
1#
#25000
0!
#30000
b1100 A
b1010 :
b1010 !"
b1010 /"
b1100 B
b1000001000000110110011 3
b1000001000000110110011 P"
b1000001000000110110011 U"
b10100 t
b10100 ?"
b10100 d"
b10100 q"
b10 v
b10 ="
b10100 4
b10100 D"
b10100 s"
b1010 <
b1010 }
b1000 +
b1000 O"
b1000 T"
b1000 {
b1010000000000000100010011 R
b1010000000000000100010011 '"
b1010000000000000100010011 C"
b1010000000000000100010011 R"
b1010000000000000100010011 r"
b100 Q
b100 B"
b100 S"
b1010 X
b1010 J"
b1010 Y
b1010 I"
b1010 k"
b1 [
b1 3"
b1 G"
b1 o"
b101000000000000010010011 W
b101000000000000010010011 2"
b101000000000000010010011 K"
b1 h
b1 6"
b1 W"
1d
b10011 f
b10011 8"
b10011 Y"
1!
#35000
0!
#40000
b10100 :
b10100 !"
b10100 /"
0r
b10000 A
b0 8
b0 e"
b10 ,"
b10100 <
b10100 }
b10 t
b10 ?"
b10 d"
b10 q"
b1 u
b1 >"
b1 c"
b1 p"
b11 v
b11 ="
0s
b0 4
b0 D"
b0 s"
b10000 B
b1100000010000000100011 3
b1100000010000000100011 P"
b1100000010000000100011 U"
1G
b1 L
b1 ]"
b10011 J
b10011 _"
b1 g
b1 7"
b1 X"
b1 i"
b101000000000000010010011 f
b101000000000000010010011 8"
b101000000000000010010011 Y"
b1010 m
b1010 -"
b1010 5"
b1010 V"
b10100 X
b10100 J"
b10100 Y
b10100 I"
b10100 k"
b10 [
b10 3"
b10 G"
b10 o"
b1010000000000000100010011 W
b1010000000000000100010011 2"
b1010000000000000100010011 K"
b100 V
b100 1"
b100 L"
b1000001000000110110011 R
b1000001000000110110011 '"
b1000001000000110110011 C"
b1000001000000110110011 R"
b1000001000000110110011 r"
b1000 Q
b1000 B"
b1000 S"
b1100 +
b1100 O"
b1100 T"
b1100 {
1!
#45000
0!
#50000
b1010 >
b1010 |
b1010 =
b10100 A
1E
1r
0/
b11110 :
b11110 !"
b11110 /"
b10100 ;
b10100 0"
b1010 8
b1010 e"
b10100 B
b101100000000000010010011 3
b101100000000000010010011 P"
b101100000000000010010011 U"
b11 t
b11 ?"
b11 d"
b11 q"
b0 u
b0 >"
b0 c"
b0 p"
b0 v
b0 ="
b10 5
b10 *"
1F
1s
00
b10100 <
b10100 }
b101 ,"
b10 6
b10 n"
b1 7
b1 m"
b10000 +
b10000 O"
b10000 T"
b10000 {
b1100000010000000100011 R
b1100000010000000100011 '"
b1100000010000000100011 C"
b1100000010000000100011 R"
b1100000010000000100011 r"
b1100 Q
b1100 B"
b1100 S"
0`
b0 X
b0 J"
b10 Y
b10 I"
b10 k"
b1 Z
b1 H"
b1 j"
b11 [
b11 3"
b11 G"
b11 o"
b1000001000000110110011 W
b1000001000000110110011 2"
b1000001000000110110011 K"
b1000 V
b1000 1"
b1000 L"
b10 g
b10 7"
b10 X"
b10 i"
b1010000000000000100010011 f
b1010000000000000100010011 8"
b1010000000000000100010011 Y"
b100 e
b100 9"
b100 ["
b10100 m
b10100 -"
b10100 5"
b10100 V"
b1 K
b1 ^"
b1 b"
b1 l"
b101000000000000010010011 J
b101000000000000010010011 _"
b1010 N
b1010 \"
1!
#55000
0!
#60000
b0 >
b0 |
b0 =
b10100 8
b10100 e"
b0 :
b0 !"
b0 /"
b0 ?
b0 <"
0r
0n
0E
b111 ,"
b11110 ;
b11110 0"
b0 <
b0 }
b0 7
b0 m"
19
0O
02
b1011 t
b1011 ?"
b1011 d"
b1011 q"
b1 v
b1 ="
b0 5
b0 *"
0F
10
b1011 4
b1011 D"
b1011 s"
b11000 B
b1010100000000000100010011 3
b1010100000000000100010011 P"
b1010100000000000100010011 U"
b10 K
b10 ^"
b10 b"
b10 l"
b1010000000000000100010011 J
b1010000000000000100010011 _"
b100 H
b100 a"
b10100 N
b10100 \"
b11 g
b11 7"
b11 X"
b11 i"
b1000001000000110110011 f
b1000001000000110110011 8"
b1000001000000110110011 Y"
b1000 e
b1000 9"
b1000 ["
b10100 ,
b10100 +"
b10100 c
b10100 :"
b11110 m
b11110 -"
b11110 5"
b11110 V"
1`
1^
0U
b11 Y
b11 I"
b11 k"
b0 Z
b0 H"
b0 j"
b0 [
b0 3"
b0 G"
b0 o"
b1100000010000000100011 W
b1100000010000000100011 2"
b1100000010000000100011 K"
b1100 V
b1100 1"
b1100 L"
b101100000000000010010011 R
b101100000000000010010011 '"
b101100000000000010010011 C"
b101100000000000010010011 R"
b101100000000000010010011 r"
b10000 Q
b10000 B"
b10000 S"
b10100 +
b10100 O"
b10100 T"
b10100 {
1!
#65000
0!
#70000
b1 ?
b1 <"
1r
1/
xn
b11000 A
b11110 8
b11110 e"
09
1O
12
b0 ,"
b0 ;
b0 0"
b0 6
b0 n"
b0 \
b0 4"
b0 F"
0`
0^
0_
b1011 X
b1011 J"
b1011 Y
b1011 I"
b1011 k"
b1 [
b1 3"
b1 G"
b1 o"
b101100000000000010010011 W
b101100000000000010010011 2"
b101100000000000010010011 K"
b10000 V
b10000 1"
b10000 L"
0d
1j
b0 g
b0 7"
b0 X"
b0 i"
b1100000010000000100011 f
b1100000010000000100011 8"
b1100000010000000100011 Y"
b1100 e
b1100 9"
b1100 ["
b11110 ,
b11110 +"
b11110 c
b11110 :"
b0 m
b0 -"
b0 5"
b0 V"
b11 K
b11 ^"
b11 b"
b11 l"
b1000001000000110110011 J
b1000001000000110110011 _"
b1000 H
b1000 a"
b11110 N
b11110 \"
1!
#75000
0!
#80000
b0 8
b0 e"
b1011 :
b1011 !"
b1011 /"
b11100 A
b11110 1
b11110 ."
b11110 Z"
b1011 <
b1011 }
b10101 t
b10101 ?"
b10101 d"
b10101 q"
b10 v
b10 ="
b10101 4
b10101 D"
b10101 s"
b11100 B
b1000001000000110110011 3
b1000001000000110110011 P"
b1000001000000110110011 U"
0G
b0 K
b0 ^"
b0 b"
b0 l"
b1100000010000000100011 J
b1100000010000000100011 _"
b1100 H
b1100 a"
b0 N
b0 \"
b0 h
b0 6"
b0 W"
0j
b1 g
b1 7"
b1 X"
b1 i"
b101100000000000010010011 f
b101100000000000010010011 8"
b101100000000000010010011 Y"
b10000 e
b10000 9"
b10000 ["
b0 ,
b0 +"
b0 c
b0 :"
b1 \
b1 4"
b1 F"
1`
1U
x_
b1010100000000000100010011 R
b1010100000000000100010011 '"
b1010100000000000100010011 C"
b1010100000000000100010011 R"
b1010100000000000100010011 r"
b10100 Q
b10100 B"
b10100 S"
b11000 +
b11000 O"
b11000 T"
b11000 {
1!
#85000
0!
#90000
b100000 A
b10100 -
b10100 @"
b10100 g"
0r
b10101 :
b10101 !"
b10101 /"
b100000 B
b1100000010001000100011 3
b1100000010001000100011 P"
b1100000010001000100011 U"
b10 t
b10 ?"
b10 d"
b10 q"
b1 u
b1 >"
b1 c"
b1 p"
b11 v
b11 ="
0s
b0 4
b0 D"
b0 s"
b10101 <
b10101 }
b10 ,"
b0 1
b0 ."
b0 Z"
b11110 8
b11110 e"
b11100 +
b11100 O"
b11100 T"
b11100 {
b1000001000000110110011 R
b1000001000000110110011 '"
b1000001000000110110011 C"
b1000001000000110110011 R"
b1000001000000110110011 r"
b11000 Q
b11000 B"
b11000 S"
b10101 X
b10101 J"
b10101 Y
b10101 I"
b10101 k"
b10 [
b10 3"
b10 G"
b10 o"
b1010100000000000100010011 W
b1010100000000000100010011 2"
b1010100000000000100010011 K"
b10100 V
b10100 1"
b10100 L"
b1 h
b1 6"
b1 W"
1d
b1011 m
b1011 -"
b1011 5"
b1011 V"
b0 L
b0 ]"
b1 K
b1 ^"
b1 b"
b1 l"
b101100000000000010010011 J
b101100000000000010010011 _"
b10000 H
b10000 a"
b11110 I
b11110 `"
1!
#95000
0!
#100000
b1011 >
b1011 |
b1011 =
b100000 :
b100000 !"
b100000 /"
b10101 ;
b10101 0"
b11110 -
b11110 @"
b11110 g"
1E
1r
0/
b100100 A
b1011 8
b1011 e"
b101 ,"
b10101 <
b10101 }
1p
0q
b10 6
b10 n"
b1 7
b1 m"
b11 t
b11 ?"
b11 d"
b11 q"
b0 u
b0 >"
b0 c"
b0 p"
b100 v
b100 ="
b10 5
b10 *"
1F
1s
00
b100 4
b100 D"
b100 s"
b0 .
b0 A"
b0 f"
b100100 B
b110000000000000010010011 3
b110000000000000010010011 P"
b110000000000000010010011 U"
1G
b1 L
b1 ]"
b1011 N
b1011 \"
b0 I
b0 `"
b10 g
b10 7"
b10 X"
b10 i"
b1010100000000000100010011 f
b1010100000000000100010011 8"
b1010100000000000100010011 Y"
b10100 e
b10100 9"
b10100 ["
b10101 m
b10101 -"
b10101 5"
b10101 V"
0`
b0 X
b0 J"
1$"
1%"
0&"
b10100 S
b10100 ""
b10100 N"
b10 Y
b10 I"
b10 k"
b1 Z
b1 H"
b1 j"
b11 [
b11 3"
b11 G"
b11 o"
b1000001000000110110011 W
b1000001000000110110011 2"
b1000001000000110110011 K"
b11000 V
b11000 1"
b11000 L"
b1100000010001000100011 R
b1100000010001000100011 '"
b1100000010001000100011 C"
b1100000010001000100011 R"
b1100000010001000100011 r"
b11100 Q
b11100 B"
b11100 S"
b100000 +
b100000 O"
b100000 T"
b100000 {
1!
#105000
0!
#110000
b0 >
b0 |
b0 =
b101000 A
b0 -
b0 @"
b0 g"
b100 :
b100 !"
b100 /"
0E
1/
b10101 8
b10101 e"
b101000 B
b1011000000000000100010011 3
b1011000000000000100010011 P"
b1011000000000000100010011 U"
b1100 t
b1100 ?"
b1100 d"
b1100 q"
b1 v
b1 ="
b0 5
b0 *"
b1100 4
b1100 D"
b1100 s"
b100 <
b100 }
0F
10
b1000 ,"
b100000 ;
b100000 0"
b0 7
b0 m"
b100100 +
b100100 O"
b100100 T"
b100100 {
b110000000000000010010011 R
b110000000000000010010011 '"
b110000000000000010010011 C"
b110000000000000010010011 R"
b110000000000000010010011 r"
b100000 Q
b100000 B"
b100000 S"
1`
1^
0U
b100 X
b100 J"
b11110 S
b11110 ""
b11110 N"
b11 Y
b11 I"
b11 k"
b0 Z
b0 H"
b0 j"
b100 [
b100 3"
b100 G"
b100 o"
b1100000010001000100011 W
b1100000010001000100011 2"
b1100000010001000100011 K"
b11100 V
b11100 1"
b11100 L"
1k
0l
b11 g
b11 7"
b11 X"
b11 i"
b1000001000000110110011 f
b1000001000000110110011 8"
b1000001000000110110011 Y"
b11000 e
b11000 9"
b11000 ["
b10101 ,
b10101 +"
b10101 c
b10101 :"
b100000 m
b100000 -"
b100000 5"
b100000 V"
b10 K
b10 ^"
b10 b"
b10 l"
b1010100000000000100010011 J
b1010100000000000100010011 _"
b10100 H
b10100 a"
b10101 N
b10101 \"
1!
#115000
0!
#120000
b100000 8
b100000 e"
b1100 :
b1100 !"
b1100 /"
b101100 A
b1 ,"
b0 ;
b0 0"
b1100 <
b1100 }
0p
1q
b0 6
b0 n"
b10110 t
b10110 ?"
b10110 d"
b10110 q"
b10 v
b10 ="
b10110 4
b10110 D"
b10110 s"
b101100 B
b1000001000000110110011 3
b1000001000000110110011 P"
b1000001000000110110011 U"
b11 K
b11 ^"
b11 b"
b11 l"
b1000001000000110110011 J
b1000001000000110110011 _"
b11000 H
b11000 a"
b100000 N
b100000 \"
0d
1j
b100 g
b100 7"
b100 X"
b100 i"
b1100000010001000100011 f
b1100000010001000100011 8"
b1100000010001000100011 Y"
b11100 e
b11100 9"
b11100 ["
b100000 ,
b100000 +"
b100000 c
b100000 :"
b100 m
b100 -"
b100 5"
b100 V"
0^
1U
b1100 X
b1100 J"
0$"
0%"
1&"
b0 S
b0 ""
b0 N"
b1100 Y
b1100 I"
b1100 k"
b1 [
b1 3"
b1 G"
b1 o"
b110000000000000010010011 W
b110000000000000010010011 2"
b110000000000000010010011 K"
b100000 V
b100000 1"
b100000 L"
b1011000000000000100010011 R
b1011000000000000100010011 '"
b1011000000000000100010011 C"
b1011000000000000100010011 R"
b1011000000000000100010011 r"
b100100 Q
b100100 B"
b100100 S"
b101000 +
b101000 O"
b101000 T"
b101000 {
1!
#125000
0!
#130000
b110000 A
b10110 :
b10110 !"
b10110 /"
0r
b100 8
b100 e"
b110000 B
b1100000010010000100011 3
b1100000010010000100011 P"
b1100000010010000100011 U"
b10101 -
b10101 @"
b10101 g"
b11110 .
b11110 A"
b11110 f"
b10 t
b10 ?"
b10 d"
b10 q"
b1 u
b1 >"
b1 c"
b1 p"
b11 v
b11 ="
b0 4
b0 D"
b0 s"
b10110 <
b10110 }
0s
b11 ,"
b0 1
b0 ."
b0 Z"
b101100 +
b101100 O"
b101100 T"
b101100 {
b1000001000000110110011 R
b1000001000000110110011 '"
b1000001000000110110011 C"
b1000001000000110110011 R"
b1000001000000110110011 r"
b101000 Q
b101000 B"
b101000 S"
b10110 X
b10110 J"
b10110 Y
b10110 I"
b10110 k"
b10 [
b10 3"
b10 G"
b10 o"
b1011000000000000100010011 W
b1011000000000000100010011 2"
b1011000000000000100010011 K"
b100100 V
b100100 1"
b100100 L"
1d
0j
0k
1l
b1 g
b1 7"
b1 X"
b1 i"
b110000000000000010010011 f
b110000000000000010010011 8"
b110000000000000010010011 Y"
b100000 e
b100000 9"
b100000 ["
b0 ,
b0 +"
b0 c
b0 :"
b1100 m
b1100 -"
b1100 5"
b1100 V"
0G
b100 K
b100 ^"
b100 b"
b100 l"
b1100000010001000100011 J
b1100000010001000100011 _"
b11100 H
b11100 a"
b100 N
b100 \"
1!
#135000
0!
#140000
b1100 >
b1100 |
b1100 8
b1100 e"
b100010 :
b100010 !"
b100010 /"
b1100 =
b10110 ;
b10110 0"
b100000 -
b100000 @"
b100000 g"
b0 .
b0 A"
b0 f"
1E
1r
0/
b110100 A
b101 ,"
b10110 <
b10110 }
0q
b10 6
b10 n"
b1 7
b1 m"
b11 t
b11 ?"
b11 d"
b11 q"
b0 u
b0 >"
b0 c"
b0 p"
b1000 v
b1000 ="
b10 5
b10 *"
1F
1s
00
b1000 4
b1000 D"
b1000 s"
b110100 B
b110100000000000010010011 3
b110100000000000010010011 P"
b110100000000000010010011 U"
1G
b1 K
b1 ^"
b1 b"
b1 l"
b110000000000000010010011 J
b110000000000000010010011 _"
b100000 H
b100000 a"
b1100 N
b1100 \"
b10 g
b10 7"
b10 X"
b10 i"
b1011000000000000100010011 f
b1011000000000000100010011 8"
b1011000000000000100010011 Y"
b100100 e
b100100 9"
b100100 ["
b10110 m
b10110 -"
b10110 5"
b10110 V"
0`
b0 X
b0 J"
b10101 S
b10101 ""
b10101 N"
0&"
b11110 T
b11110 #"
b11110 M"
b10 Y
b10 I"
b10 k"
b1 Z
b1 H"
b1 j"
b11 [
b11 3"
b11 G"
b11 o"
b1000001000000110110011 W
b1000001000000110110011 2"
b1000001000000110110011 K"
b101000 V
b101000 1"
b101000 L"
b1100000010010000100011 R
b1100000010010000100011 '"
b1100000010010000100011 C"
b1100000010010000100011 R"
b1100000010010000100011 r"
b101100 Q
b101100 B"
b101100 S"
b110000 +
b110000 O"
b110000 T"
b110000 {
1!
#145000
0!
#150000
b0 >
b0 |
b0 =
b111000 A
b0 -
b0 @"
b0 g"
b1000 :
b1000 !"
b1000 /"
0E
1/
b10110 8
b10110 e"
b111000 B
b1011100000000000100010011 3
b1011100000000000100010011 P"
b1011100000000000100010011 U"
b1101 t
b1101 ?"
b1101 d"
b1101 q"
b1 v
b1 ="
b0 5
b0 *"
b1101 4
b1101 D"
b1101 s"
b1000 <
b1000 }
1p
0F
10
b1000 ,"
b100010 ;
b100010 0"
b0 7
b0 m"
b110100 +
b110100 O"
b110100 T"
b110100 {
b110100000000000010010011 R
b110100000000000010010011 '"
b110100000000000010010011 C"
b110100000000000010010011 R"
b110100000000000010010011 r"
b110000 Q
b110000 B"
b110000 S"
1`
1^
0U
b1000 X
b1000 J"
b100000 S
b100000 ""
b100000 N"
1$"
1%"
b0 T
b0 #"
b0 M"
b11 Y
b11 I"
b11 k"
b0 Z
b0 H"
b0 j"
b1000 [
b1000 3"
b1000 G"
b1000 o"
b1100000010010000100011 W
b1100000010010000100011 2"
b1100000010010000100011 K"
b101100 V
b101100 1"
b101100 L"
0l
b11 g
b11 7"
b11 X"
b11 i"
b1000001000000110110011 f
b1000001000000110110011 8"
b1000001000000110110011 Y"
b101000 e
b101000 9"
b101000 ["
b10110 ,
b10110 +"
b10110 c
b10110 :"
b100010 m
b100010 -"
b100010 5"
b100010 V"
b10 K
b10 ^"
b10 b"
b10 l"
b1011000000000000100010011 J
b1011000000000000100010011 _"
b100100 H
b100100 a"
b10110 N
b10110 \"
1!
#155000
0!
